%!PS-Adobe-3.0 EPSF-3.0
%%Creator: (MATLAB, The Mathworks, Inc. Version 9.5.0.944444 \(R2018b\). Operating System: Linux)
%%Title: fig/traj_des_poly.eps
%%CreationDate: 2019-11-19T12:20:32
%%Pages: (atend)
%%BoundingBox:    31    20   387   296
%%LanguageLevel: 3
%%EndComments
%%BeginProlog
%%BeginResource: procset (Apache XML Graphics Std ProcSet) 1.2 0
%%Version: 1.2 0
%%Copyright: (Copyright 2001-2003,2010 The Apache Software Foundation. License terms: http://www.apache.org/licenses/LICENSE-2.0)
/bd{bind def}bind def
/ld{load def}bd
/GR/grestore ld
/GS/gsave ld
/RM/rmoveto ld
/C/curveto ld
/t/show ld
/L/lineto ld
/ML/setmiterlimit ld
/CT/concat ld
/f/fill ld
/N/newpath ld
/S/stroke ld
/CC/setcmykcolor ld
/A/ashow ld
/cp/closepath ld
/RC/setrgbcolor ld
/LJ/setlinejoin ld
/GC/setgray ld
/LW/setlinewidth ld
/M/moveto ld
/re {4 2 roll M
1 index 0 rlineto
0 exch rlineto
neg 0 rlineto
cp } bd
/_ctm matrix def
/_tm matrix def
/BT { _ctm currentmatrix pop matrix _tm copy pop 0 0 moveto } bd
/ET { _ctm setmatrix } bd
/iTm { _ctm setmatrix _tm concat } bd
/Tm { _tm astore pop iTm 0 0 moveto } bd
/ux 0.0 def
/uy 0.0 def
/F {
  /Tp exch def
  /Tf exch def
  Tf findfont Tp scalefont setfont
  /cf Tf def  /cs Tp def
} bd
/ULS {currentpoint /uy exch def /ux exch def} bd
/ULE {
  /Tcx currentpoint pop def
  gsave
  newpath
  cf findfont cs scalefont dup
  /FontMatrix get 0 get /Ts exch def /FontInfo get dup
  /UnderlinePosition get Ts mul /To exch def
  /UnderlineThickness get Ts mul /Tt exch def
  ux uy To add moveto  Tcx uy To add lineto
  Tt setlinewidth stroke
  grestore
} bd
/OLE {
  /Tcx currentpoint pop def
  gsave
  newpath
  cf findfont cs scalefont dup
  /FontMatrix get 0 get /Ts exch def /FontInfo get dup
  /UnderlinePosition get Ts mul /To exch def
  /UnderlineThickness get Ts mul /Tt exch def
  ux uy To add cs add moveto Tcx uy To add cs add lineto
  Tt setlinewidth stroke
  grestore
} bd
/SOE {
  /Tcx currentpoint pop def
  gsave
  newpath
  cf findfont cs scalefont dup
  /FontMatrix get 0 get /Ts exch def /FontInfo get dup
  /UnderlinePosition get Ts mul /To exch def
  /UnderlineThickness get Ts mul /Tt exch def
  ux uy To add cs 10 mul 26 idiv add moveto Tcx uy To add cs 10 mul 26 idiv add lineto
  Tt setlinewidth stroke
  grestore
} bd
/QT {
/Y22 exch store
/X22 exch store
/Y21 exch store
/X21 exch store
currentpoint
/Y21 load 2 mul add 3 div exch
/X21 load 2 mul add 3 div exch
/X21 load 2 mul /X22 load add 3 div
/Y21 load 2 mul /Y22 load add 3 div
/X22 load /Y22 load curveto
} bd
/SSPD {
dup length /d exch dict def
{
/v exch def
/k exch def
currentpagedevice k known {
/cpdv currentpagedevice k get def
v cpdv ne {
/upd false def
/nullv v type /nulltype eq def
/nullcpdv cpdv type /nulltype eq def
nullv nullcpdv or
{
/upd true def
} {
/sametype v type cpdv type eq def
sametype {
v type /arraytype eq {
/vlen v length def
/cpdvlen cpdv length def
vlen cpdvlen eq {
0 1 vlen 1 sub {
/i exch def
/obj v i get def
/cpdobj cpdv i get def
obj cpdobj ne {
/upd true def
exit
} if
} for
} {
/upd true def
} ifelse
} {
v type /dicttype eq {
v {
/dv exch def
/dk exch def
/cpddv cpdv dk get def
dv cpddv ne {
/upd true def
exit
} if
} forall
} {
/upd true def
} ifelse
} ifelse
} if
} ifelse
upd true eq {
d k v put
} if
} if
} if
} forall
d length 0 gt {
d setpagedevice
} if
} bd
/RE { % /NewFontName [NewEncodingArray] /FontName RE -
  findfont dup length dict begin
  {
    1 index /FID ne
    {def} {pop pop} ifelse
  } forall
  /Encoding exch def
  /FontName 1 index def
  currentdict definefont pop
  end
} bind def
%%EndResource
%%BeginResource: procset (Apache XML Graphics EPS ProcSet) 1.0 0
%%Version: 1.0 0
%%Copyright: (Copyright 2002-2003 The Apache Software Foundation. License terms: http://www.apache.org/licenses/LICENSE-2.0)
/BeginEPSF { %def
/b4_Inc_state save def         % Save state for cleanup
/dict_count countdictstack def % Count objects on dict stack
/op_count count 1 sub def      % Count objects on operand stack
userdict begin                 % Push userdict on dict stack
/showpage { } def              % Redefine showpage, { } = null proc
0 setgray 0 setlinecap         % Prepare graphics state
1 setlinewidth 0 setlinejoin
10 setmiterlimit [ ] 0 setdash newpath
/languagelevel where           % If level not equal to 1 then
{pop languagelevel             % set strokeadjust and
1 ne                           % overprint to their defaults.
{false setstrokeadjust false setoverprint
} if
} if
} bd
/EndEPSF { %def
count op_count sub {pop} repeat            % Clean up stacks
countdictstack dict_count sub {end} repeat
b4_Inc_state restore
} bd
%%EndResource
%FOPBeginFontDict
%%IncludeResource: font Courier-Oblique
%%IncludeResource: font Courier-BoldOblique
%%IncludeResource: font Courier-Bold
%%IncludeResource: font ZapfDingbats
%%IncludeResource: font Symbol
%%IncludeResource: font Helvetica
%%IncludeResource: font Helvetica-Oblique
%%IncludeResource: font Helvetica-Bold
%%IncludeResource: font Helvetica-BoldOblique
%%IncludeResource: font Times-Roman
%%IncludeResource: font Times-Italic
%%IncludeResource: font Times-Bold
%%IncludeResource: font Times-BoldItalic
%%IncludeResource: font Courier
%FOPEndFontDict
%%BeginResource: encoding WinAnsiEncoding
/WinAnsiEncoding [
/.notdef /.notdef /.notdef /.notdef /.notdef
/.notdef /.notdef /.notdef /.notdef /.notdef
/.notdef /.notdef /.notdef /.notdef /.notdef
/.notdef /.notdef /.notdef /.notdef /.notdef
/.notdef /.notdef /.notdef /.notdef /.notdef
/.notdef /.notdef /.notdef /.notdef /.notdef
/.notdef /.notdef /space /exclam /quotedbl
/numbersign /dollar /percent /ampersand /quotesingle
/parenleft /parenright /asterisk /plus /comma
/hyphen /period /slash /zero /one
/two /three /four /five /six
/seven /eight /nine /colon /semicolon
/less /equal /greater /question /at
/A /B /C /D /E
/F /G /H /I /J
/K /L /M /N /O
/P /Q /R /S /T
/U /V /W /X /Y
/Z /bracketleft /backslash /bracketright /asciicircum
/underscore /quoteleft /a /b /c
/d /e /f /g /h
/i /j /k /l /m
/n /o /p /q /r
/s /t /u /v /w
/x /y /z /braceleft /bar
/braceright /asciitilde /bullet /Euro /bullet
/quotesinglbase /florin /quotedblbase /ellipsis /dagger
/daggerdbl /circumflex /perthousand /Scaron /guilsinglleft
/OE /bullet /Zcaron /bullet /bullet
/quoteleft /quoteright /quotedblleft /quotedblright /bullet
/endash /emdash /asciitilde /trademark /scaron
/guilsinglright /oe /bullet /zcaron /Ydieresis
/space /exclamdown /cent /sterling /currency
/yen /brokenbar /section /dieresis /copyright
/ordfeminine /guillemotleft /logicalnot /sfthyphen /registered
/macron /degree /plusminus /twosuperior /threesuperior
/acute /mu /paragraph /middot /cedilla
/onesuperior /ordmasculine /guillemotright /onequarter /onehalf
/threequarters /questiondown /Agrave /Aacute /Acircumflex
/Atilde /Adieresis /Aring /AE /Ccedilla
/Egrave /Eacute /Ecircumflex /Edieresis /Igrave
/Iacute /Icircumflex /Idieresis /Eth /Ntilde
/Ograve /Oacute /Ocircumflex /Otilde /Odieresis
/multiply /Oslash /Ugrave /Uacute /Ucircumflex
/Udieresis /Yacute /Thorn /germandbls /agrave
/aacute /acircumflex /atilde /adieresis /aring
/ae /ccedilla /egrave /eacute /ecircumflex
/edieresis /igrave /iacute /icircumflex /idieresis
/eth /ntilde /ograve /oacute /ocircumflex
/otilde /odieresis /divide /oslash /ugrave
/uacute /ucircumflex /udieresis /yacute /thorn
/ydieresis
] def
%%EndResource
%FOPBeginFontReencode
/Courier-Oblique findfont
dup length dict begin
  {1 index /FID ne {def} {pop pop} ifelse} forall
  /Encoding WinAnsiEncoding def
  currentdict
end
/Courier-Oblique exch definefont pop
/Courier-BoldOblique findfont
dup length dict begin
  {1 index /FID ne {def} {pop pop} ifelse} forall
  /Encoding WinAnsiEncoding def
  currentdict
end
/Courier-BoldOblique exch definefont pop
/Courier-Bold findfont
dup length dict begin
  {1 index /FID ne {def} {pop pop} ifelse} forall
  /Encoding WinAnsiEncoding def
  currentdict
end
/Courier-Bold exch definefont pop
/Helvetica findfont
dup length dict begin
  {1 index /FID ne {def} {pop pop} ifelse} forall
  /Encoding WinAnsiEncoding def
  currentdict
end
/Helvetica exch definefont pop
/Helvetica-Oblique findfont
dup length dict begin
  {1 index /FID ne {def} {pop pop} ifelse} forall
  /Encoding WinAnsiEncoding def
  currentdict
end
/Helvetica-Oblique exch definefont pop
/Helvetica-Bold findfont
dup length dict begin
  {1 index /FID ne {def} {pop pop} ifelse} forall
  /Encoding WinAnsiEncoding def
  currentdict
end
/Helvetica-Bold exch definefont pop
/Helvetica-BoldOblique findfont
dup length dict begin
  {1 index /FID ne {def} {pop pop} ifelse} forall
  /Encoding WinAnsiEncoding def
  currentdict
end
/Helvetica-BoldOblique exch definefont pop
/Times-Roman findfont
dup length dict begin
  {1 index /FID ne {def} {pop pop} ifelse} forall
  /Encoding WinAnsiEncoding def
  currentdict
end
/Times-Roman exch definefont pop
/Times-Italic findfont
dup length dict begin
  {1 index /FID ne {def} {pop pop} ifelse} forall
  /Encoding WinAnsiEncoding def
  currentdict
end
/Times-Italic exch definefont pop
/Times-Bold findfont
dup length dict begin
  {1 index /FID ne {def} {pop pop} ifelse} forall
  /Encoding WinAnsiEncoding def
  currentdict
end
/Times-Bold exch definefont pop
/Times-BoldItalic findfont
dup length dict begin
  {1 index /FID ne {def} {pop pop} ifelse} forall
  /Encoding WinAnsiEncoding def
  currentdict
end
/Times-BoldItalic exch definefont pop
/Courier findfont
dup length dict begin
  {1 index /FID ne {def} {pop pop} ifelse} forall
  /Encoding WinAnsiEncoding def
  currentdict
end
/Courier exch definefont pop
%FOPEndFontReencode
%%EndProlog
%%Page: 1 1
%%PageBoundingBox: 0 0 420 315
%%BeginPageSetup
[1 0 0 -1 0 315] CT
%%EndPageSetup
GS
[0.75 0 0 0.75 0 0] CT
1 GC
N
0 0 560 420 re
f
GR
GS
[0.75 0 0 0.75 0 0] CT
1 GC
N
0 0 560 420 re
f
GR
GS
[0.75 0 0 0.75 0 0] CT
1 GC
N
73 374 M
507 374 L
507 31 L
73 31 L
cp
f
GR
GS
[0.75 0 0 0.75 0 0] CT
0.873 GC
1 LJ
0.667 LW
N
73 374 M
73 31 L
S
GR
GS
[0.75 0 0 0.75 0 0] CT
0.873 GC
1 LJ
0.667 LW
N
109.167 374 M
109.167 31 L
S
GR
GS
[0.75 0 0 0.75 0 0] CT
0.873 GC
1 LJ
0.667 LW
N
145.333 374 M
145.333 31 L
S
GR
GS
[0.75 0 0 0.75 0 0] CT
0.873 GC
1 LJ
0.667 LW
N
181.5 374 M
181.5 31 L
S
GR
GS
[0.75 0 0 0.75 0 0] CT
0.873 GC
1 LJ
0.667 LW
N
217.667 374 M
217.667 31 L
S
GR
GS
[0.75 0 0 0.75 0 0] CT
0.873 GC
1 LJ
0.667 LW
N
253.833 374 M
253.833 31 L
S
GR
GS
[0.75 0 0 0.75 0 0] CT
0.873 GC
1 LJ
0.667 LW
N
290 374 M
290 31 L
S
GR
GS
[0.75 0 0 0.75 0 0] CT
0.873 GC
1 LJ
0.667 LW
N
326.167 374 M
326.167 31 L
S
GR
GS
[0.75 0 0 0.75 0 0] CT
0.873 GC
1 LJ
0.667 LW
N
362.333 374 M
362.333 31 L
S
GR
GS
[0.75 0 0 0.75 0 0] CT
0.873 GC
1 LJ
0.667 LW
N
398.5 374 M
398.5 31 L
S
GR
GS
[0.75 0 0 0.75 0 0] CT
0.873 GC
1 LJ
0.667 LW
N
434.667 374 M
434.667 31 L
S
GR
GS
[0.75 0 0 0.75 0 0] CT
0.873 GC
1 LJ
0.667 LW
N
470.833 374 M
470.833 31 L
S
GR
GS
[0.75 0 0 0.75 0 0] CT
0.873 GC
1 LJ
0.667 LW
N
507 374 M
507 31 L
S
GR
GS
[0.75 0 0 0.75 0 0] CT
0.873 GC
1 LJ
0.667 LW
N
507 374 M
73 374 L
S
GR
GS
[0.75 0 0 0.75 0 0] CT
0.873 GC
1 LJ
0.667 LW
N
507 345.417 M
73 345.417 L
S
GR
GS
[0.75 0 0 0.75 0 0] CT
0.873 GC
1 LJ
0.667 LW
N
507 316.833 M
73 316.833 L
S
GR
GS
[0.75 0 0 0.75 0 0] CT
0.873 GC
1 LJ
0.667 LW
N
507 288.25 M
73 288.25 L
S
GR
GS
[0.75 0 0 0.75 0 0] CT
0.873 GC
1 LJ
0.667 LW
N
507 259.667 M
73 259.667 L
S
GR
GS
[0.75 0 0 0.75 0 0] CT
0.873 GC
1 LJ
0.667 LW
N
507 231.083 M
73 231.083 L
S
GR
GS
[0.75 0 0 0.75 0 0] CT
0.873 GC
1 LJ
0.667 LW
N
507 202.5 M
73 202.5 L
S
GR
GS
[0.75 0 0 0.75 0 0] CT
0.873 GC
1 LJ
0.667 LW
N
507 173.917 M
73 173.917 L
S
GR
GS
[0.75 0 0 0.75 0 0] CT
0.873 GC
1 LJ
0.667 LW
N
507 145.333 M
73 145.333 L
S
GR
GS
[0.75 0 0 0.75 0 0] CT
0.873 GC
1 LJ
0.667 LW
N
507 116.75 M
73 116.75 L
S
GR
GS
[0.75 0 0 0.75 0 0] CT
0.873 GC
1 LJ
0.667 LW
N
507 88.167 M
73 88.167 L
S
GR
GS
[0.75 0 0 0.75 0 0] CT
0.873 GC
1 LJ
0.667 LW
N
507 59.583 M
73 59.583 L
S
GR
GS
[0.75 0 0 0.75 0 0] CT
0.873 GC
1 LJ
0.667 LW
N
507 31 M
73 31 L
S
GR
GS
[0.75 0 0 0.75 0 0] CT
0.149 GC
2 setlinecap
1 LJ
0.667 LW
N
73 374 M
507 374 L
S
GR
GS
[0.75 0 0 0.75 0 0] CT
0.149 GC
2 setlinecap
1 LJ
0.667 LW
N
73 31 M
507 31 L
S
GR
GS
[0.75 0 0 0.75 0 0] CT
0.149 GC
2 setlinecap
1 LJ
0.667 LW
N
73 374 M
73 369.66 L
S
GR
GS
[0.75 0 0 0.75 0 0] CT
0.149 GC
2 setlinecap
1 LJ
0.667 LW
N
109.167 374 M
109.167 369.66 L
S
GR
GS
[0.75 0 0 0.75 0 0] CT
0.149 GC
2 setlinecap
1 LJ
0.667 LW
N
145.333 374 M
145.333 369.66 L
S
GR
GS
[0.75 0 0 0.75 0 0] CT
0.149 GC
2 setlinecap
1 LJ
0.667 LW
N
181.5 374 M
181.5 369.66 L
S
GR
GS
[0.75 0 0 0.75 0 0] CT
0.149 GC
2 setlinecap
1 LJ
0.667 LW
N
217.667 374 M
217.667 369.66 L
S
GR
GS
[0.75 0 0 0.75 0 0] CT
0.149 GC
2 setlinecap
1 LJ
0.667 LW
N
253.833 374 M
253.833 369.66 L
S
GR
GS
[0.75 0 0 0.75 0 0] CT
0.149 GC
2 setlinecap
1 LJ
0.667 LW
N
290 374 M
290 369.66 L
S
GR
GS
[0.75 0 0 0.75 0 0] CT
0.149 GC
2 setlinecap
1 LJ
0.667 LW
N
326.167 374 M
326.167 369.66 L
S
GR
GS
[0.75 0 0 0.75 0 0] CT
0.149 GC
2 setlinecap
1 LJ
0.667 LW
N
362.333 374 M
362.333 369.66 L
S
GR
GS
[0.75 0 0 0.75 0 0] CT
0.149 GC
2 setlinecap
1 LJ
0.667 LW
N
398.5 374 M
398.5 369.66 L
S
GR
GS
[0.75 0 0 0.75 0 0] CT
0.149 GC
2 setlinecap
1 LJ
0.667 LW
N
434.667 374 M
434.667 369.66 L
S
GR
GS
[0.75 0 0 0.75 0 0] CT
0.149 GC
2 setlinecap
1 LJ
0.667 LW
N
470.833 374 M
470.833 369.66 L
S
GR
GS
[0.75 0 0 0.75 0 0] CT
0.149 GC
2 setlinecap
1 LJ
0.667 LW
N
507 374 M
507 369.66 L
S
GR
GS
[0.75 0 0 0.75 0 0] CT
0.149 GC
2 setlinecap
1 LJ
0.667 LW
N
73 31 M
73 35.34 L
S
GR
GS
[0.75 0 0 0.75 0 0] CT
0.149 GC
2 setlinecap
1 LJ
0.667 LW
N
109.167 31 M
109.167 35.34 L
S
GR
GS
[0.75 0 0 0.75 0 0] CT
0.149 GC
2 setlinecap
1 LJ
0.667 LW
N
145.333 31 M
145.333 35.34 L
S
GR
GS
[0.75 0 0 0.75 0 0] CT
0.149 GC
2 setlinecap
1 LJ
0.667 LW
N
181.5 31 M
181.5 35.34 L
S
GR
GS
[0.75 0 0 0.75 0 0] CT
0.149 GC
2 setlinecap
1 LJ
0.667 LW
N
217.667 31 M
217.667 35.34 L
S
GR
GS
[0.75 0 0 0.75 0 0] CT
0.149 GC
2 setlinecap
1 LJ
0.667 LW
N
253.833 31 M
253.833 35.34 L
S
GR
GS
[0.75 0 0 0.75 0 0] CT
0.149 GC
2 setlinecap
1 LJ
0.667 LW
N
290 31 M
290 35.34 L
S
GR
GS
[0.75 0 0 0.75 0 0] CT
0.149 GC
2 setlinecap
1 LJ
0.667 LW
N
326.167 31 M
326.167 35.34 L
S
GR
GS
[0.75 0 0 0.75 0 0] CT
0.149 GC
2 setlinecap
1 LJ
0.667 LW
N
362.333 31 M
362.333 35.34 L
S
GR
GS
[0.75 0 0 0.75 0 0] CT
0.149 GC
2 setlinecap
1 LJ
0.667 LW
N
398.5 31 M
398.5 35.34 L
S
GR
GS
[0.75 0 0 0.75 0 0] CT
0.149 GC
2 setlinecap
1 LJ
0.667 LW
N
434.667 31 M
434.667 35.34 L
S
GR
GS
[0.75 0 0 0.75 0 0] CT
0.149 GC
2 setlinecap
1 LJ
0.667 LW
N
470.833 31 M
470.833 35.34 L
S
GR
GS
[0.75 0 0 0.75 0 0] CT
0.149 GC
2 setlinecap
1 LJ
0.667 LW
N
507 31 M
507 35.34 L
S
GR
GS
[0.75 0 0 0.75 54.74999 284.50001] CT
0.149 GC
/Helvetica 13.333 F
GS
[1 0 0 1 0 0] CT
-13 13 moveto 
1 -1 scale
(-0.6) t 
GR
GR
GS
[0.75 0 0 0.75 81.875 284.50001] CT
0.149 GC
/Helvetica 13.333 F
GS
[1 0 0 1 0 0] CT
-13 13 moveto 
1 -1 scale
(-0.5) t 
GR
GR
GS
[0.75 0 0 0.75 109 284.50001] CT
0.149 GC
/Helvetica 13.333 F
GS
[1 0 0 1 0 0] CT
-13 13 moveto 
1 -1 scale
(-0.4) t 
GR
GR
GS
[0.75 0 0 0.75 136.125 284.50001] CT
0.149 GC
/Helvetica 13.333 F
GS
[1 0 0 1 0 0] CT
-13 13 moveto 
1 -1 scale
(-0.3) t 
GR
GR
GS
[0.75 0 0 0.75 163.25 284.50001] CT
0.149 GC
/Helvetica 13.333 F
GS
[1 0 0 1 0 0] CT
-13 13 moveto 
1 -1 scale
(-0.2) t 
GR
GR
GS
[0.75 0 0 0.75 190.375 284.50001] CT
0.149 GC
/Helvetica 13.333 F
GS
[1 0 0 1 0 0] CT
-13 13 moveto 
1 -1 scale
(-0.1) t 
GR
GR
GS
[0.75 0 0 0.75 217.5 284.50001] CT
0.149 GC
/Helvetica 13.333 F
GS
[1 0 0 1 0 0] CT
-4.5 13 moveto 
1 -1 scale
(0) t 
GR
GR
GS
[0.75 0 0 0.75 244.62499 284.50001] CT
0.149 GC
/Helvetica 13.333 F
GS
[1 0 0 1 0 0] CT
-11 13 moveto 
1 -1 scale
(0.1) t 
GR
GR
GS
[0.75 0 0 0.75 271.75001 284.50001] CT
0.149 GC
/Helvetica 13.333 F
GS
[1 0 0 1 0 0] CT
-11 13 moveto 
1 -1 scale
(0.2) t 
GR
GR
GS
[0.75 0 0 0.75 298.875 284.50001] CT
0.149 GC
/Helvetica 13.333 F
GS
[1 0 0 1 0 0] CT
-11 13 moveto 
1 -1 scale
(0.3) t 
GR
GR
GS
[0.75 0 0 0.75 325.99999 284.50001] CT
0.149 GC
/Helvetica 13.333 F
GS
[1 0 0 1 0 0] CT
-11 13 moveto 
1 -1 scale
(0.4) t 
GR
GR
GS
[0.75 0 0 0.75 353.12501 284.50001] CT
0.149 GC
/Helvetica 13.333 F
GS
[1 0 0 1 0 0] CT
-11 13 moveto 
1 -1 scale
(0.5) t 
GR
GR
GS
[0.75 0 0 0.75 380.25 284.50001] CT
0.149 GC
/Helvetica 13.333 F
GS
[1 0 0 1 0 0] CT
-11 13 moveto 
1 -1 scale
(0.6) t 
GR
GR
GS
[0.75 0 0 0.75 0 0] CT
0.149 GC
2 setlinecap
1 LJ
0.667 LW
N
73 374 M
73 31 L
S
GR
GS
[0.75 0 0 0.75 0 0] CT
0.149 GC
2 setlinecap
1 LJ
0.667 LW
N
507 374 M
507 31 L
S
GR
GS
[0.75 0 0 0.75 0 0] CT
0.149 GC
2 setlinecap
1 LJ
0.667 LW
N
73 374 M
77.34 374 L
S
GR
GS
[0.75 0 0 0.75 0 0] CT
0.149 GC
2 setlinecap
1 LJ
0.667 LW
N
73 345.417 M
77.34 345.417 L
S
GR
GS
[0.75 0 0 0.75 0 0] CT
0.149 GC
2 setlinecap
1 LJ
0.667 LW
N
73 316.833 M
77.34 316.833 L
S
GR
GS
[0.75 0 0 0.75 0 0] CT
0.149 GC
2 setlinecap
1 LJ
0.667 LW
N
73 288.25 M
77.34 288.25 L
S
GR
GS
[0.75 0 0 0.75 0 0] CT
0.149 GC
2 setlinecap
1 LJ
0.667 LW
N
73 259.667 M
77.34 259.667 L
S
GR
GS
[0.75 0 0 0.75 0 0] CT
0.149 GC
2 setlinecap
1 LJ
0.667 LW
N
73 231.083 M
77.34 231.083 L
S
GR
GS
[0.75 0 0 0.75 0 0] CT
0.149 GC
2 setlinecap
1 LJ
0.667 LW
N
73 202.5 M
77.34 202.5 L
S
GR
GS
[0.75 0 0 0.75 0 0] CT
0.149 GC
2 setlinecap
1 LJ
0.667 LW
N
73 173.917 M
77.34 173.917 L
S
GR
GS
[0.75 0 0 0.75 0 0] CT
0.149 GC
2 setlinecap
1 LJ
0.667 LW
N
73 145.333 M
77.34 145.333 L
S
GR
GS
[0.75 0 0 0.75 0 0] CT
0.149 GC
2 setlinecap
1 LJ
0.667 LW
N
73 116.75 M
77.34 116.75 L
S
GR
GS
[0.75 0 0 0.75 0 0] CT
0.149 GC
2 setlinecap
1 LJ
0.667 LW
N
73 88.167 M
77.34 88.167 L
S
GR
GS
[0.75 0 0 0.75 0 0] CT
0.149 GC
2 setlinecap
1 LJ
0.667 LW
N
73 59.583 M
77.34 59.583 L
S
GR
GS
[0.75 0 0 0.75 0 0] CT
0.149 GC
2 setlinecap
1 LJ
0.667 LW
N
73 31 M
77.34 31 L
S
GR
GS
[0.75 0 0 0.75 0 0] CT
0.149 GC
2 setlinecap
1 LJ
0.667 LW
N
507 374 M
502.66 374 L
S
GR
GS
[0.75 0 0 0.75 0 0] CT
0.149 GC
2 setlinecap
1 LJ
0.667 LW
N
507 345.417 M
502.66 345.417 L
S
GR
GS
[0.75 0 0 0.75 0 0] CT
0.149 GC
2 setlinecap
1 LJ
0.667 LW
N
507 316.833 M
502.66 316.833 L
S
GR
GS
[0.75 0 0 0.75 0 0] CT
0.149 GC
2 setlinecap
1 LJ
0.667 LW
N
507 288.25 M
502.66 288.25 L
S
GR
GS
[0.75 0 0 0.75 0 0] CT
0.149 GC
2 setlinecap
1 LJ
0.667 LW
N
507 259.667 M
502.66 259.667 L
S
GR
GS
[0.75 0 0 0.75 0 0] CT
0.149 GC
2 setlinecap
1 LJ
0.667 LW
N
507 231.083 M
502.66 231.083 L
S
GR
GS
[0.75 0 0 0.75 0 0] CT
0.149 GC
2 setlinecap
1 LJ
0.667 LW
N
507 202.5 M
502.66 202.5 L
S
GR
GS
[0.75 0 0 0.75 0 0] CT
0.149 GC
2 setlinecap
1 LJ
0.667 LW
N
507 173.917 M
502.66 173.917 L
S
GR
GS
[0.75 0 0 0.75 0 0] CT
0.149 GC
2 setlinecap
1 LJ
0.667 LW
N
507 145.333 M
502.66 145.333 L
S
GR
GS
[0.75 0 0 0.75 0 0] CT
0.149 GC
2 setlinecap
1 LJ
0.667 LW
N
507 116.75 M
502.66 116.75 L
S
GR
GS
[0.75 0 0 0.75 0 0] CT
0.149 GC
2 setlinecap
1 LJ
0.667 LW
N
507 88.167 M
502.66 88.167 L
S
GR
GS
[0.75 0 0 0.75 0 0] CT
0.149 GC
2 setlinecap
1 LJ
0.667 LW
N
507 59.583 M
502.66 59.583 L
S
GR
GS
[0.75 0 0 0.75 0 0] CT
0.149 GC
2 setlinecap
1 LJ
0.667 LW
N
507 31 M
502.66 31 L
S
GR
GS
[0.75 0 0 0.75 50.74999 280.5] CT
0.149 GC
/Helvetica 13.333 F
GS
[1 0 0 1 0 0] CT
-26 4.5 moveto 
1 -1 scale
(-0.6) t 
GR
GR
GS
[0.75 0 0 0.75 50.74999 259.06249] CT
0.149 GC
/Helvetica 13.333 F
GS
[1 0 0 1 0 0] CT
-26 4.5 moveto 
1 -1 scale
(-0.5) t 
GR
GR
GS
[0.75 0 0 0.75 50.74999 237.62501] CT
0.149 GC
/Helvetica 13.333 F
GS
[1 0 0 1 0 0] CT
-26 4.5 moveto 
1 -1 scale
(-0.4) t 
GR
GR
GS
[0.75 0 0 0.75 50.74999 216.1875] CT
0.149 GC
/Helvetica 13.333 F
GS
[1 0 0 1 0 0] CT
-26 4.5 moveto 
1 -1 scale
(-0.3) t 
GR
GR
GS
[0.75 0 0 0.75 50.74999 194.74999] CT
0.149 GC
/Helvetica 13.333 F
GS
[1 0 0 1 0 0] CT
-26 4.5 moveto 
1 -1 scale
(-0.2) t 
GR
GR
GS
[0.75 0 0 0.75 50.74999 173.3125] CT
0.149 GC
/Helvetica 13.333 F
GS
[1 0 0 1 0 0] CT
-26 4.5 moveto 
1 -1 scale
(-0.1) t 
GR
GR
GS
[0.75 0 0 0.75 50.74999 151.875] CT
0.149 GC
/Helvetica 13.333 F
GS
[1 0 0 1 0 0] CT
-9 4.5 moveto 
1 -1 scale
(0) t 
GR
GR
GS
[0.75 0 0 0.75 50.74999 130.4375] CT
0.149 GC
/Helvetica 13.333 F
GS
[1 0 0 1 0 0] CT
-22 4.5 moveto 
1 -1 scale
(0.1) t 
GR
GR
GS
[0.75 0 0 0.75 50.74999 109] CT
0.149 GC
/Helvetica 13.333 F
GS
[1 0 0 1 0 0] CT
-22 4.5 moveto 
1 -1 scale
(0.2) t 
GR
GR
GS
[0.75 0 0 0.75 50.74999 87.5625] CT
0.149 GC
/Helvetica 13.333 F
GS
[1 0 0 1 0 0] CT
-22 4.5 moveto 
1 -1 scale
(0.3) t 
GR
GR
GS
[0.75 0 0 0.75 50.74999 66.125] CT
0.149 GC
/Helvetica 13.333 F
GS
[1 0 0 1 0 0] CT
-22 4.5 moveto 
1 -1 scale
(0.4) t 
GR
GR
GS
[0.75 0 0 0.75 50.74999 44.6875] CT
0.149 GC
/Helvetica 13.333 F
GS
[1 0 0 1 0 0] CT
-22 4.5 moveto 
1 -1 scale
(0.5) t 
GR
GR
GS
[0.75 0 0 0.75 50.74999 23.24999] CT
0.149 GC
/Helvetica 13.333 F
GS
[1 0 0 1 0 0] CT
-22 4.5 moveto 
1 -1 scale
(0.6) t 
GR
GR
GS
[0.75 0 0 0.75 0 0] CT
1 LJ
0.667 LW
N
507 202.5 M
506.892 197.086 L
506.567 191.677 L
506.027 186.28 L
505.272 180.898 L
504.302 175.538 L
503.118 170.205 L
501.721 164.904 L
500.114 159.64 L
498.298 154.419 L
496.273 149.246 L
494.043 144.126 L
491.61 139.065 L
488.975 134.066 L
486.143 129.136 L
483.115 124.279 L
479.894 119.5 L
476.484 114.804 L
472.888 110.195 L
469.11 105.678 L
465.153 101.257 L
461.022 96.938 L
456.72 92.723 L
452.252 88.619 L
447.622 84.627 L
442.835 80.754 L
437.896 77.001 L
432.81 73.374 L
427.581 69.875 L
422.214 66.509 L
416.717 63.278 L
411.092 60.186 L
405.347 57.235 L
399.487 54.43 L
393.518 51.772 L
387.446 49.265 L
381.277 46.91 L
375.016 44.71 L
368.671 42.667 L
362.248 40.784 L
355.752 39.062 L
349.191 37.503 L
342.571 36.109 L
335.898 34.88 L
329.18 33.819 L
322.423 32.925 L
315.633 32.201 L
308.818 31.646 L
301.984 31.262 L
295.138 31.048 L
288.287 31.005 L
281.438 31.134 L
274.597 31.433 L
267.772 31.902 L
260.968 32.542 L
254.194 33.351 L
247.455 34.328 L
240.759 35.474 L
234.112 36.785 L
227.521 38.262 L
220.992 39.903 L
214.531 41.706 L
208.146 43.669 L
201.842 45.79 L
195.627 48.068 L
189.505 50.499 L
183.484 53.082 L
177.569 55.814 L
171.765 58.693 L
166.08 61.714 L
160.518 64.876 L
155.086 68.175 L
149.787 71.608 L
144.629 75.172 L
139.615 78.862 L
134.752 82.675 L
130.043 86.609 L
125.494 90.657 L
121.108 94.817 L
116.891 99.085 L
112.846 103.455 L
108.979 107.924 L
105.291 112.488 L
101.788 117.141 L
98.472 121.879 L
95.347 126.698 L
92.416 131.592 L
89.682 136.557 L
87.148 141.588 L
84.816 146.679 L
82.689 151.826 L
80.768 157.024 L
79.056 162.267 L
77.554 167.55 L
76.264 172.867 L
75.187 178.215 L
74.324 183.586 L
73.676 188.977 L
73.243 194.381 L
73.027 199.793 L
73.027 205.207 L
73.243 210.619 L
73.676 216.023 L
74.324 221.414 L
75.187 226.785 L
76.264 232.133 L
77.554 237.45 L
79.056 242.733 L
80.768 247.976 L
82.689 253.174 L
84.816 258.321 L
87.148 263.412 L
89.682 268.443 L
92.416 273.408 L
95.347 278.302 L
98.472 283.121 L
101.788 287.859 L
105.291 292.512 L
108.979 297.076 L
112.846 301.545 L
116.891 305.915 L
121.108 310.183 L
125.494 314.343 L
130.043 318.391 L
134.752 322.324 L
139.615 326.138 L
144.629 329.828 L
149.787 333.392 L
155.086 336.825 L
160.518 340.124 L
166.08 343.286 L
171.765 346.307 L
177.569 349.186 L
183.484 351.918 L
189.505 354.501 L
195.627 356.932 L
201.842 359.21 L
208.146 361.331 L
214.531 363.294 L
220.992 365.097 L
227.521 366.738 L
234.112 368.215 L
240.759 369.526 L
247.455 370.672 L
254.194 371.649 L
260.968 372.458 L
267.772 373.098 L
274.597 373.567 L
281.438 373.866 L
288.287 373.995 L
295.138 373.952 L
301.984 373.738 L
308.818 373.354 L
315.633 372.799 L
322.423 372.075 L
329.18 371.181 L
335.898 370.12 L
342.571 368.891 L
349.191 367.497 L
355.752 365.938 L
362.248 364.216 L
368.671 362.333 L
375.016 360.29 L
381.277 358.09 L
387.446 355.736 L
393.518 353.228 L
399.487 350.57 L
405.347 347.765 L
411.092 344.814 L
416.717 341.722 L
422.214 338.491 L
427.581 335.125 L
432.81 331.626 L
437.896 327.999 L
442.835 324.246 L
447.622 320.373 L
452.252 316.381 L
456.72 312.276 L
461.022 308.062 L
465.153 303.743 L
469.11 299.322 L
472.888 294.805 L
476.484 290.196 L
479.894 285.5 L
483.115 280.721 L
486.143 275.864 L
488.975 270.934 L
491.61 265.935 L
494.043 260.874 L
496.273 255.754 L
498.298 250.581 L
500.114 245.36 L
501.721 240.096 L
503.118 234.795 L
504.302 229.462 L
505.272 224.102 L
506.027 218.72 L
506.567 213.323 L
506.892 207.914 L
507 202.5 L
S
GR
GS
[0.75 0 0 0.75 122.5625 194.74999] CT
0 0.447 0.741 RC
10.0 ML
N
4 0 M
4 -2.209 2.209 -4 0 -4 C
-2.209 -4 -4 -2.209 -4 0 C
-4 2.209 -2.209 4 0 4 C
2.209 4 4 2.209 4 0 C
cp
S
GR
GS
[0.75 0 0 0.75 125.27499 194.74999] CT
/Helvetica 13.333 F
GS
[1 0 0 1 0 0] CT
0 4.5 moveto 
1 -1 scale
(1) t 
GR
GR
GS
[0.75 0 0 0.75 122.5625 66.125] CT
0.851 0.325 0.098 RC
10.0 ML
N
4 0 M
4 -2.209 2.209 -4 0 -4 C
-2.209 -4 -4 -2.209 -4 0 C
-4 2.209 -2.209 4 0 4 C
2.209 4 4 2.209 4 0 C
cp
S
GR
GS
[0.75 0 0 0.75 125.27499 66.125] CT
/Helvetica 13.333 F
GS
[1 0 0 1 0 0] CT
0 4.5 moveto 
1 -1 scale
(2) t 
GR
GR
GS
[0.75 0 0 0.75 122.5625 130.4375] CT
0.929 0.694 0.125 RC
10.0 ML
N
4 0 M
4 -2.209 2.209 -4 0 -4 C
-2.209 -4 -4 -2.209 -4 0 C
-4 2.209 -2.209 4 0 4 C
2.209 4 4 2.209 4 0 C
cp
S
GR
GS
[0.75 0 0 0.75 125.27499 130.4375] CT
/Helvetica 13.333 F
GS
[1 0 0 1 0 0] CT
0 4.5 moveto 
1 -1 scale
(3) t 
GR
GR
GS
[0.75 0 0 0.75 190.375 151.875] CT
0.494 0.184 0.557 RC
10.0 ML
N
4 0 M
4 -2.209 2.209 -4 0 -4 C
-2.209 -4 -4 -2.209 -4 0 C
-4 2.209 -2.209 4 0 4 C
2.209 4 4 2.209 4 0 C
cp
S
GR
GS
[0.75 0 0 0.75 193.08751 151.875] CT
/Helvetica 13.333 F
GS
[1 0 0 1 0 0] CT
0 4.5 moveto 
1 -1 scale
(4) t 
GR
GR
GS
[0.75 0 0 0.75 190.375 194.74999] CT
0.467 0.675 0.188 RC
10.0 ML
N
4 0 M
4 -2.209 2.209 -4 0 -4 C
-2.209 -4 -4 -2.209 -4 0 C
-4 2.209 -2.209 4 0 4 C
2.209 4 4 2.209 4 0 C
cp
S
GR
GS
[0.75 0 0 0.75 193.08751 194.74999] CT
/Helvetica 13.333 F
GS
[1 0 0 1 0 0] CT
0 4.5 moveto 
1 -1 scale
(5) t 
GR
GR
GS
[0.75 0 0 0.75 244.62499 151.875] CT
0.302 0.745 0.933 RC
10.0 ML
N
4 0 M
4 -2.209 2.209 -4 0 -4 C
-2.209 -4 -4 -2.209 -4 0 C
-4 2.209 -2.209 4 0 4 C
2.209 4 4 2.209 4 0 C
cp
S
GR
GS
[0.75 0 0 0.75 247.33749 151.875] CT
/Helvetica 13.333 F
GS
[1 0 0 1 0 0] CT
0 4.5 moveto 
1 -1 scale
(6) t 
GR
GR
GS
[0.75 0 0 0.75 244.62499 194.74999] CT
0.635 0.078 0.184 RC
10.0 ML
N
4 0 M
4 -2.209 2.209 -4 0 -4 C
-2.209 -4 -4 -2.209 -4 0 C
-4 2.209 -2.209 4 0 4 C
2.209 4 4 2.209 4 0 C
cp
S
GR
GS
[0.75 0 0 0.75 247.33749 194.74999] CT
/Helvetica 13.333 F
GS
[1 0 0 1 0 0] CT
0 4.5 moveto 
1 -1 scale
(7) t 
GR
GR
GS
[0.75 0 0 0.75 271.75001 194.74999] CT
0 0.447 0.741 RC
10.0 ML
N
4 0 M
4 -2.209 2.209 -4 0 -4 C
-2.209 -4 -4 -2.209 -4 0 C
-4 2.209 -2.209 4 0 4 C
2.209 4 4 2.209 4 0 C
cp
S
GR
GS
[0.75 0 0 0.75 274.46251 194.74999] CT
/Helvetica 13.333 F
GS
[1 0 0 1 0 0] CT
0 4.5 moveto 
1 -1 scale
(8) t 
GR
GR
GS
[0.75 0 0 0.75 312.43751 194.74999] CT
0.851 0.325 0.098 RC
10.0 ML
N
4 0 M
4 -2.209 2.209 -4 0 -4 C
-2.209 -4 -4 -2.209 -4 0 C
-4 2.209 -2.209 4 0 4 C
2.209 4 4 2.209 4 0 C
cp
S
GR
GS
[0.75 0 0 0.75 315.15001 194.74999] CT
/Helvetica 13.333 F
GS
[1 0 0 1 0 0] CT
0 4.5 moveto 
1 -1 scale
(9) t 
GR
GR
GS
[0.75 0 0 0.75 312.43751 173.3125] CT
0.929 0.694 0.125 RC
10.0 ML
N
4 0 M
4 -2.209 2.209 -4 0 -4 C
-2.209 -4 -4 -2.209 -4 0 C
-4 2.209 -2.209 4 0 4 C
2.209 4 4 2.209 4 0 C
cp
S
GR
GS
[0.75 0 0 0.75 315.15001 173.3125] CT
/Helvetica 13.333 F
GS
[1 0 0 1 0 0] CT
0 4.5 moveto 
1 -1 scale
(10) t 
GR
GR
GS
[0.75 0 0 0.75 298.875 151.875] CT
0.494 0.184 0.557 RC
10.0 ML
N
4 0 M
4 -2.209 2.209 -4 0 -4 C
-2.209 -4 -4 -2.209 -4 0 C
-4 2.209 -2.209 4 0 4 C
2.209 4 4 2.209 4 0 C
cp
S
GR
GS
[0.75 0 0 0.75 301.5875 151.875] CT
/Helvetica 13.333 F
GS
[1 0 0 1 0 0] CT
0 4.5 moveto 
1 -1 scale
(11) t 
GR
GR
GS
[0.75 0 0 0.75 325.99999 151.875] CT
0.467 0.675 0.188 RC
10.0 ML
N
4 0 M
4 -2.209 2.209 -4 0 -4 C
-2.209 -4 -4 -2.209 -4 0 C
-4 2.209 -2.209 4 0 4 C
2.209 4 4 2.209 4 0 C
cp
S
GR
GS
[0.75 0 0 0.75 328.71249 151.875] CT
/Helvetica 13.333 F
GS
[1 0 0 1 0 0] CT
0 4.5 moveto 
1 -1 scale
(12) t 
GR
GR
GS
[0.75 0 0 0.75 122.5625 194.74999] CT
0.302 0.745 0.933 RC
N
1.333 0 M
1.333 0.736 0.736 1.333 0 1.333 C
-0.736 1.333 -1.333 0.736 -1.333 0 C
-1.333 -0.736 -0.736 -1.333 0 -1.333 C
0.736 -1.333 1.333 -0.736 1.333 0 C
cp
f
GR
GS
[0.75 0 0 0.75 122.5625 194.74999] CT
0.302 0.745 0.933 RC
N
/f-1057828618{1.333 0 M
1.333 0.736 0.736 1.333 0 1.333 C
-0.736 1.333 -1.333 0.736 -1.333 0 C
-1.333 -0.736 -0.736 -1.333 0 -1.333 C
0.736 -1.333 1.333 -0.736 1.333 0 C
cp}def
f-1057828618
f
GR
GS
[0.75 0 0 0.75 122.5625 194.74857] CT
0.302 0.745 0.933 RC
N
f-1057828618
f
GR
GS
[0.75 0 0 0.75 122.5625 194.70898] CT
0.302 0.745 0.933 RC
N
f-1057828618
f
GR
GS
[0.75 0 0 0.75 122.5625 194.4445] CT
0.302 0.745 0.933 RC
N
f-1057828618
f
GR
GS
[0.75 0 0 0.75 122.5625 193.5764] CT
0.302 0.745 0.933 RC
N
f-1057828618
f
GR
GS
[0.75 0 0 0.75 122.5625 191.66968] CT
0.302 0.745 0.933 RC
N
f-1057828618
f
GR
GS
[0.75 0 0 0.75 122.5625 188.40147] CT
0.302 0.745 0.933 RC
N
f-1057828618
f
GR
GS
[0.75 0 0 0.75 122.5625 183.64404] CT
0.302 0.745 0.933 RC
N
f-1057828618
f
GR
GS
[0.75 0 0 0.75 122.5625 177.45923] CT
0.302 0.745 0.933 RC
N
f-1057828618
f
GR
GS
[0.75 0 0 0.75 122.5625 170.047] CT
0.302 0.745 0.933 RC
N
f-1057828618
f
GR
GS
[0.75 0 0 0.75 122.5625 161.70351] CT
0.302 0.745 0.933 RC
N
f-1057828618
f
GR
GS
[0.75 0 0 0.75 122.5625 152.82457] CT
0.302 0.745 0.933 RC
N
f-1057828618
f
GR
GS
[0.75 0 0 0.75 122.5625 143.84216] CT
0.302 0.745 0.933 RC
N
f-1057828618
f
GR
GS
[0.75 0 0 0.75 122.5625 135.12012] CT
0.302 0.745 0.933 RC
N
f-1057828618
f
GR
GS
[0.75 0 0 0.75 122.5625 126.90819] CT
0.302 0.745 0.933 RC
N
f-1057828618
f
GR
GS
[0.75 0 0 0.75 122.5625 119.34845] CT
0.302 0.745 0.933 RC
N
f-1057828618
f
GR
GS
[0.75 0 0 0.75 122.5625 112.50128] CT
0.302 0.745 0.933 RC
N
f-1057828618
f
GR
GS
[0.75 0 0 0.75 122.5625 106.37227] CT
0.302 0.745 0.933 RC
N
f-1057828618
f
GR
GS
[0.75 0 0 0.75 122.5625 100.93355] CT
0.302 0.745 0.933 RC
N
f-1057828618
f
GR
GS
[0.75 0 0 0.75 122.5625 96.13871] CT
0.302 0.745 0.933 RC
N
f-1057828618
f
GR
GS
[0.75 0 0 0.75 122.5625 91.93263] CT
0.302 0.745 0.933 RC
N
f-1057828618
f
GR
GS
[0.75 0 0 0.75 122.5625 88.25759] CT
0.302 0.745 0.933 RC
N
f-1057828618
f
GR
GS
[0.75 0 0 0.75 122.5625 85.0569] CT
0.302 0.745 0.933 RC
N
f-1057828618
f
GR
GS
[0.75 0 0 0.75 122.5625 82.27698] CT
0.302 0.745 0.933 RC
N
f-1057828618
f
GR
GS
[0.75 0 0 0.75 122.5625 79.86831] CT
0.302 0.745 0.933 RC
N
f-1057828618
f
GR
GS
[0.75 0 0 0.75 122.5625 77.7859] CT
0.302 0.745 0.933 RC
N
f-1057828618
f
GR
GS
[0.75 0 0 0.75 122.5625 75.98932] CT
0.302 0.745 0.933 RC
N
f-1057828618
f
GR
GS
[0.75 0 0 0.75 122.5625 74.44247] CT
0.302 0.745 0.933 RC
N
f-1057828618
f
GR
GS
[0.75 0 0 0.75 122.5625 73.1134] CT
0.302 0.745 0.933 RC
N
f-1057828618
f
GR
GS
[0.75 0 0 0.75 122.5625 71.97387] CT
0.302 0.745 0.933 RC
N
f-1057828618
f
GR
GS
[0.75 0 0 0.75 122.5625 70.99903] CT
0.302 0.745 0.933 RC
N
f-1057828618
f
GR
GS
[0.75 0 0 0.75 122.5625 70.1671] CT
0.302 0.745 0.933 RC
N
f-1057828618
f
GR
GS
[0.75 0 0 0.75 122.5625 69.45901] CT
0.302 0.745 0.933 RC
N
f-1057828618
f
GR
GS
[0.75 0 0 0.75 122.5625 68.85809] CT
0.302 0.745 0.933 RC
N
f-1057828618
f
GR
GS
[0.75 0 0 0.75 122.5625 68.34979] CT
0.302 0.745 0.933 RC
N
f-1057828618
f
GR
GS
[0.75 0 0 0.75 122.5625 67.92144] CT
0.302 0.745 0.933 RC
N
f-1057828618
f
GR
GS
[0.75 0 0 0.75 122.5625 67.56202] CT
0.302 0.745 0.933 RC
N
f-1057828618
f
GR
GS
[0.75 0 0 0.75 122.5625 67.26195] CT
0.302 0.745 0.933 RC
N
f-1057828618
f
GR
GS
[0.75 0 0 0.75 122.5625 67.01287] CT
0.302 0.745 0.933 RC
N
f-1057828618
f
GR
GS
[0.75 0 0 0.75 122.5625 66.80759] CT
0.302 0.745 0.933 RC
N
f-1057828618
f
GR
GS
[0.75 0 0 0.75 122.5625 66.63983] CT
0.302 0.745 0.933 RC
N
f-1057828618
f
GR
GS
[0.75 0 0 0.75 122.5625 66.50416] CT
0.302 0.745 0.933 RC
N
f-1057828618
f
GR
GS
[0.75 0 0 0.75 122.5625 66.3959] CT
0.302 0.745 0.933 RC
N
f-1057828618
f
GR
GS
[0.75 0 0 0.75 122.5625 66.31096] CT
0.302 0.745 0.933 RC
N
f-1057828618
f
GR
GS
[0.75 0 0 0.75 122.5625 66.24585] CT
0.302 0.745 0.933 RC
N
f-1057828618
f
GR
GS
[0.75 0 0 0.75 122.5625 66.19753] CT
0.302 0.745 0.933 RC
N
f-1057828618
f
GR
GS
[0.75 0 0 0.75 122.5625 66.16338] CT
0.302 0.745 0.933 RC
N
f-1057828618
f
GR
GS
[0.75 0 0 0.75 122.5625 66.14116] CT
0.302 0.745 0.933 RC
N
f-1057828618
f
GR
GS
[0.75 0 0 0.75 122.5625 66.12893] CT
0.302 0.745 0.933 RC
N
f-1057828618
f
GR
GS
[0.75 0 0 0.75 122.5625 66.125] CT
0.302 0.745 0.933 RC
N
f-1057828618
f
GR
GS
[0.75 0 0 0.75 122.5625 66.125] CT
0.635 0.078 0.184 RC
N
f-1057828618
f
GR
GS
[0.75 0 0 0.75 122.5625 66.125] CT
0.635 0.078 0.184 RC
N
f-1057828618
f
GR
GS
[0.75 0 0 0.75 122.56391 66.125] CT
0.635 0.078 0.184 RC
N
f-1057828618
f
GR
GS
[0.75 0 0 0.75 122.60337 66.12502] CT
0.635 0.078 0.184 RC
N
f-1057828618
f
GR
GS
[0.75 0 0 0.75 122.86681 66.1259] CT
0.635 0.078 0.184 RC
N
f-1057828618
f
GR
GS
[0.75 0 0 0.75 123.73108 66.13827] CT
0.635 0.078 0.184 RC
N
f-1057828618
f
GR
GS
[0.75 0 0 0.75 125.62643 66.2163] CT
0.635 0.078 0.184 RC
N
f-1057828618
f
GR
GS
[0.75 0 0 0.75 128.85656 66.51208] CT
0.635 0.078 0.184 RC
N
f-1057828618
f
GR
GS
[0.75 0 0 0.75 133.48021 67.30427] CT
0.635 0.078 0.184 RC
N
f-1057828618
f
GR
GS
[0.75 0 0 0.75 139.26025 68.95765] CT
0.635 0.078 0.184 RC
N
f-1057828618
f
GR
GS
[0.75 0 0 0.75 145.67336 71.81593] CT
0.635 0.078 0.184 RC
N
f-1057828618
f
GR
GS
[0.75 0 0 0.75 151.97627 76.06344] CT
0.635 0.078 0.184 RC
N
f-1057828618
f
GR
GS
[0.75 0 0 0.75 157.33858 81.58884] CT
0.635 0.078 0.184 RC
N
f-1057828618
f
GR
GS
[0.75 0 0 0.75 161.10259 87.97265] CT
0.635 0.078 0.184 RC
N
f-1057828618
f
GR
GS
[0.75 0 0 0.75 162.98922 94.64639] CT
0.635 0.078 0.184 RC
N
f-1057828618
f
GR
GS
[0.75 0 0 0.75 163.0951 101.08453] CT
0.635 0.078 0.184 RC
N
f-1057828618
f
GR
GS
[0.75 0 0 0.75 161.75523 106.91722] CT
0.635 0.078 0.184 RC
N
f-1057828618
f
GR
GS
[0.75 0 0 0.75 159.39029 111.95146] CT
0.635 0.078 0.184 RC
N
f-1057828618
f
GR
GS
[0.75 0 0 0.75 156.40006 116.13786] CT
0.635 0.078 0.184 RC
N
f-1057828618
f
GR
GS
[0.75 0 0 0.75 153.11115 119.52098] CT
0.635 0.078 0.184 RC
N
f-1057828618
f
GR
GS
[0.75 0 0 0.75 149.76375 122.19507] CT
0.635 0.078 0.184 RC
N
f-1057828618
f
GR
GS
[0.75 0 0 0.75 146.51952 124.27233] CT
0.635 0.078 0.184 RC
N
f-1057828618
f
GR
GS
[0.75 0 0 0.75 143.47739 125.86385] CT
0.635 0.078 0.184 RC
N
f-1057828618
f
GR
GS
[0.75 0 0 0.75 140.69024 127.06959] CT
0.635 0.078 0.184 RC
N
f-1057828618
f
GR
GS
[0.75 0 0 0.75 138.17934 127.97453] CT
0.635 0.078 0.184 RC
N
f-1057828618
f
GR
GS
[0.75 0 0 0.75 135.94544 128.64825] CT
0.635 0.078 0.184 RC
N
f-1057828618
f
GR
GS
[0.75 0 0 0.75 133.97673 129.14623] CT
0.635 0.078 0.184 RC
N
f-1057828618
f
GR
GS
[0.75 0 0 0.75 132.25451 129.51187] CT
0.635 0.078 0.184 RC
N
f-1057828618
f
GR
GS
[0.75 0 0 0.75 130.75677 129.77862] CT
0.635 0.078 0.184 RC
N
f-1057828618
f
GR
GS
[0.75 0 0 0.75 129.46059 129.97199] CT
0.635 0.078 0.184 RC
N
f-1057828618
f
GR
GS
[0.75 0 0 0.75 128.34352 130.11127] CT
0.635 0.078 0.184 RC
N
f-1057828618
f
GR
GS
[0.75 0 0 0.75 127.3844 130.21089] CT
0.635 0.078 0.184 RC
N
f-1057828618
f
GR
GS
[0.75 0 0 0.75 126.56379 130.28162] CT
0.635 0.078 0.184 RC
N
f-1057828618
f
GR
GS
[0.75 0 0 0.75 125.86409 130.33146] CT
0.635 0.078 0.184 RC
N
f-1057828618
f
GR
GS
[0.75 0 0 0.75 125.26956 130.36625] CT
0.635 0.078 0.184 RC
N
f-1057828618
f
GR
GS
[0.75 0 0 0.75 124.76627 130.3903] CT
0.635 0.078 0.184 RC
N
f-1057828618
f
GR
GS
[0.75 0 0 0.75 124.34192 130.40673] CT
0.635 0.078 0.184 RC
N
f-1057828618
f
GR
GS
[0.75 0 0 0.75 123.98575 130.41782] CT
0.635 0.078 0.184 RC
N
f-1057828618
f
GR
GS
[0.75 0 0 0.75 123.68834 130.42519] CT
0.635 0.078 0.184 RC
N
f-1057828618
f
GR
GS
[0.75 0 0 0.75 123.44149 130.43] CT
0.635 0.078 0.184 RC
N
f-1057828618
f
GR
GS
[0.75 0 0 0.75 123.23805 130.43306] CT
0.635 0.078 0.184 RC
N
f-1057828618
f
GR
GS
[0.75 0 0 0.75 123.07181 130.43499] CT
0.635 0.078 0.184 RC
N
f-1057828618
f
GR
GS
[0.75 0 0 0.75 122.93741 130.43613] CT
0.635 0.078 0.184 RC
N
f-1057828618
f
GR
GS
[0.75 0 0 0.75 122.83017 130.43681] CT
0.635 0.078 0.184 RC
N
f-1057828618
f
GR
GS
[0.75 0 0 0.75 122.74609 130.43717] CT
0.635 0.078 0.184 RC
N
f-1057828618
f
GR
GS
[0.75 0 0 0.75 122.68166 130.43737] CT
0.635 0.078 0.184 RC
N
f-1057828618
f
GR
GS
[0.75 0 0 0.75 122.63388 130.43745] CT
0.635 0.078 0.184 RC
N
f-1057828618
f
GR
GS
[0.75 0 0 0.75 122.60015 130.43749] CT
0.635 0.078 0.184 RC
N
f-1057828618
f
GR
GS
[0.75 0 0 0.75 122.57826 130.43749] CT
0.635 0.078 0.184 RC
N
f-1057828618
f
GR
GS
[0.75 0 0 0.75 122.56626 130.4375] CT
0.635 0.078 0.184 RC
N
f-1057828618
f
GR
GS
[0.75 0 0 0.75 122.5625 130.4375] CT
0.635 0.078 0.184 RC
N
f-1057828618
f
GR
GS
[0.75 0 0 0.75 0 0] CT
0 0.447 0.741 RC
[10 6] 0 setdash
2 LJ
0.667 LW
N
163.417 173.917 M
163.417 173.917 L
163.418 173.917 L
163.446 173.926 L
163.632 173.985 L
164.243 174.178 L
165.586 174.602 L
167.887 175.33 L
171.235 176.388 L
175.587 177.764 L
180.803 179.413 L
186.672 181.268 L
192.917 183.242 L
199.233 185.239 L
205.365 187.178 L
211.137 189.003 L
216.45 190.682 L
221.262 192.203 L
225.569 193.565 L
229.39 194.773 L
232.759 195.838 L
235.714 196.772 L
238.295 197.588 L
240.543 198.299 L
242.496 198.916 L
244.187 199.451 L
245.65 199.913 L
246.911 200.312 L
247.997 200.655 L
248.93 200.95 L
249.73 201.203 L
250.415 201.419 L
250.998 201.604 L
251.495 201.761 L
251.917 201.894 L
252.274 202.007 L
252.574 202.102 L
252.826 202.182 L
253.037 202.248 L
253.212 202.303 L
253.355 202.349 L
253.473 202.386 L
253.568 202.416 L
253.644 202.44 L
253.703 202.459 L
253.749 202.473 L
253.783 202.484 L
253.807 202.492 L
253.822 202.496 L
253.831 202.499 L
253.833 202.5 L
S
GR
GS
[0.75 0 0 0.75 190.375 151.875] CT
0.851 0.325 0.098 RC
N
f-1057828618
f
GR
GS
[0.75 0 0 0.75 190.375 151.875] CT
0.851 0.325 0.098 RC
N
f-1057828618
f
GR
GS
[0.75 0 0 0.75 190.37311 151.875] CT
0.851 0.325 0.098 RC
N
f-1057828618
f
GR
GS
[0.75 0 0 0.75 190.32043 151.87505] CT
0.851 0.325 0.098 RC
N
f-1057828618
f
GR
GS
[0.75 0 0 0.75 189.96877 151.8774] CT
0.851 0.325 0.098 RC
N
f-1057828618
f
GR
GS
[0.75 0 0 0.75 188.81589 151.91044] CT
0.851 0.325 0.098 RC
N
f-1057828618
f
GR
GS
[0.75 0 0 0.75 186.29758 152.11859] CT
0.851 0.325 0.098 RC
N
f-1057828618
f
GR
GS
[0.75 0 0 0.75 182.07726 152.90269] CT
0.851 0.325 0.098 RC
N
f-1057828618
f
GR
GS
[0.75 0 0 0.75 176.3425 154.96655] CT
0.851 0.325 0.098 RC
N
f-1057828618
f
GR
GS
[0.75 0 0 0.75 170.06234 159.10511] CT
0.851 0.325 0.098 RC
N
f-1057828618
f
GR
GS
[0.75 0 0 0.75 165.00697 165.72258] CT
0.851 0.325 0.098 RC
N
f-1057828618
f
GR
GS
[0.75 0 0 0.75 163.27884 174.30081] CT
0.851 0.325 0.098 RC
N
f-1057828618
f
GR
GS
[0.75 0 0 0.75 166.3176 183.21546] CT
0.851 0.325 0.098 RC
N
f-1057828618
f
GR
GS
[0.75 0 0 0.75 173.92446 190.35757] CT
0.851 0.325 0.098 RC
N
f-1057828618
f
GR
GS
[0.75 0 0 0.75 184.31096 194.20743] CT
0.851 0.325 0.098 RC
N
f-1057828618
f
GR
GS
[0.75 0 0 0.75 195.11545 194.42008] CT
0.851 0.325 0.098 RC
N
f-1057828618
f
GR
GS
[0.75 0 0 0.75 204.43389 191.64583] CT
0.851 0.325 0.098 RC
N
f-1057828618
f
GR
GS
[0.75 0 0 0.75 211.26743 186.98466] CT
0.851 0.325 0.098 RC
N
f-1057828618
f
GR
GS
[0.75 0 0 0.75 215.4386 181.50986] CT
0.851 0.325 0.098 RC
N
f-1057828618
f
GR
GS
[0.75 0 0 0.75 217.28192 176.02543] CT
0.851 0.325 0.098 RC
N
f-1057828618
f
GR
GS
[0.75 0 0 0.75 217.3445 171.02024] CT
0.851 0.325 0.098 RC
N
f-1057828618
f
GR
GS
[0.75 0 0 0.75 216.18716 166.72394] CT
0.851 0.325 0.098 RC
N
f-1057828618
f
GR
GS
[0.75 0 0 0.75 214.28629 163.19094] CT
0.851 0.325 0.098 RC
N
f-1057828618
f
GR
GS
[0.75 0 0 0.75 212.00352 160.37501] CT
0.851 0.325 0.098 RC
N
f-1057828618
f
GR
GS
[0.75 0 0 0.75 209.59167 158.18272] CT
0.851 0.325 0.098 RC
N
f-1057828618
f
GR
GS
[0.75 0 0 0.75 207.2151 156.50673] CT
0.851 0.325 0.098 RC
N
f-1057828618
f
GR
GS
[0.75 0 0 0.75 204.97229 155.24391] CT
0.851 0.325 0.098 RC
N
f-1057828618
f
GR
GS
[0.75 0 0 0.75 202.91576 154.30372] CT
0.851 0.325 0.098 RC
N
f-1057828618
f
GR
GS
[0.75 0 0 0.75 201.06763 153.6109] CT
0.851 0.325 0.098 RC
N
f-1057828618
f
GR
GS
[0.75 0 0 0.75 199.43092 153.10502] CT
0.851 0.325 0.098 RC
N
f-1057828618
f
GR
GS
[0.75 0 0 0.75 197.99728 152.7388] CT
0.851 0.325 0.098 RC
N
f-1057828618
f
GR
GS
[0.75 0 0 0.75 196.75216 152.47588] CT
0.851 0.325 0.098 RC
N
f-1057828618
f
GR
GS
[0.75 0 0 0.75 195.6782 152.2887] CT
0.851 0.325 0.098 RC
N
f-1057828618
f
GR
GS
[0.75 0 0 0.75 194.75732 152.15663] CT
0.851 0.325 0.098 RC
N
f-1057828618
f
GR
GS
[0.75 0 0 0.75 193.97177 152.0643] CT
0.851 0.325 0.098 RC
N
f-1057828618
f
GR
GS
[0.75 0 0 0.75 193.30499 152.00044] CT
0.851 0.325 0.098 RC
N
f-1057828618
f
GR
GS
[0.75 0 0 0.75 192.74178 151.95676] CT
0.851 0.325 0.098 RC
N
f-1057828618
f
GR
GS
[0.75 0 0 0.75 192.2685 151.9273] CT
0.851 0.325 0.098 RC
N
f-1057828618
f
GR
GS
[0.75 0 0 0.75 191.87297 151.90772] CT
0.851 0.325 0.098 RC
N
f-1057828618
f
GR
GS
[0.75 0 0 0.75 191.54453 151.89494] CT
0.851 0.325 0.098 RC
N
f-1057828618
f
GR
GS
[0.75 0 0 0.75 191.27376 151.88678] CT
0.851 0.325 0.098 RC
N
f-1057828618
f
GR
GS
[0.75 0 0 0.75 191.05249 151.88168] CT
0.851 0.325 0.098 RC
N
f-1057828618
f
GR
GS
[0.75 0 0 0.75 190.87358 151.87862] CT
0.851 0.325 0.098 RC
N
f-1057828618
f
GR
GS
[0.75 0 0 0.75 190.73086 151.87684] CT
0.851 0.325 0.098 RC
N
f-1057828618
f
GR
GS
[0.75 0 0 0.75 190.61896 151.87587] CT
0.851 0.325 0.098 RC
N
f-1057828618
f
GR
GS
[0.75 0 0 0.75 190.53325 151.87537] CT
0.851 0.325 0.098 RC
N
f-1057828618
f
GR
GS
[0.75 0 0 0.75 190.46971 151.87513] CT
0.851 0.325 0.098 RC
N
f-1057828618
f
GR
GS
[0.75 0 0 0.75 190.42489 151.87503] CT
0.851 0.325 0.098 RC
N
f-1057828618
f
GR
GS
[0.75 0 0 0.75 190.39581 151.87501] CT
0.851 0.325 0.098 RC
N
f-1057828618
f
GR
GS
[0.75 0 0 0.75 190.37992 151.875] CT
0.851 0.325 0.098 RC
N
f-1057828618
f
GR
GS
[0.75 0 0 0.75 190.375 151.875] CT
0.851 0.325 0.098 RC
N
f-1057828618
f
GR
GS
[0.75 0 0 0.75 0 0] CT
0.929 0.694 0.125 RC
[10 6] 0 setdash
2 LJ
0.667 LW
N
253.833 202.5 M
253.833 202.5 L
253.834 202.5 L
253.856 202.5 L
254.006 202.5 L
254.495 202.5 L
255.57 202.5 L
257.412 202.5 L
260.093 202.5 L
263.576 202.5 L
267.75 202.5 L
272.448 202.5 L
277.445 202.5 L
282.498 202.5 L
287.404 202.5 L
292.022 202.5 L
296.273 202.5 L
300.122 202.5 L
303.566 202.5 L
306.623 202.5 L
309.317 202.5 L
311.68 202.5 L
313.744 202.5 L
315.542 202.5 L
317.103 202.5 L
318.456 202.5 L
319.625 202.5 L
320.634 202.5 L
321.502 202.5 L
322.248 202.5 L
322.888 202.5 L
323.435 202.5 L
323.901 202.5 L
324.299 202.5 L
324.636 202.5 L
324.921 202.5 L
325.161 202.5 L
325.362 202.5 L
325.531 202.5 L
325.67 202.5 L
325.785 202.5 L
325.879 202.5 L
325.955 202.5 L
326.016 202.5 L
326.063 202.5 L
326.1 202.5 L
326.126 202.5 L
326.146 202.5 L
326.158 202.5 L
326.165 202.5 L
326.167 202.5 L
S
GR
GS
[0.75 0 0 0.75 244.62499 151.875] CT
0.494 0.184 0.557 RC
N
f-1057828618
f
GR
GS
[0.75 0 0 0.75 244.62499 151.875] CT
0.494 0.184 0.557 RC
N
f-1057828618
f
GR
GS
[0.75 0 0 0.75 244.62499 151.87548] CT
0.494 0.184 0.557 RC
N
f-1057828618
f
GR
GS
[0.75 0 0 0.75 244.62499 151.88873] CT
0.494 0.184 0.557 RC
N
f-1057828618
f
GR
GS
[0.75 0 0 0.75 244.62499 151.9772] CT
0.494 0.184 0.557 RC
N
f-1057828618
f
GR
GS
[0.75 0 0 0.75 244.62499 152.26744] CT
0.494 0.184 0.557 RC
N
f-1057828618
f
GR
GS
[0.75 0 0 0.75 244.62499 152.90465] CT
0.494 0.184 0.557 RC
N
f-1057828618
f
GR
GS
[0.75 0 0 0.75 244.62499 153.99645] CT
0.494 0.184 0.557 RC
N
f-1057828618
f
GR
GS
[0.75 0 0 0.75 244.62499 155.58525] CT
0.494 0.184 0.557 RC
N
f-1057828618
f
GR
GS
[0.75 0 0 0.75 244.62499 157.65017] CT
0.494 0.184 0.557 RC
N
f-1057828618
f
GR
GS
[0.75 0 0 0.75 244.62499 160.12424] CT
0.494 0.184 0.557 RC
N
f-1057828618
f
GR
GS
[0.75 0 0 0.75 244.62499 162.90845] CT
0.494 0.184 0.557 RC
N
f-1057828618
f
GR
GS
[0.75 0 0 0.75 244.62499 165.87044] CT
0.494 0.184 0.557 RC
N
f-1057828618
f
GR
GS
[0.75 0 0 0.75 244.62499 168.86603] CT
0.494 0.184 0.557 RC
N
f-1057828618
f
GR
GS
[0.75 0 0 0.75 244.62499 171.77399] CT
0.494 0.184 0.557 RC
N
f-1057828618
f
GR
GS
[0.75 0 0 0.75 244.62499 174.5112] CT
0.494 0.184 0.557 RC
N
f-1057828618
f
GR
GS
[0.75 0 0 0.75 244.62499 177.03051] CT
0.494 0.184 0.557 RC
N
f-1057828618
f
GR
GS
[0.75 0 0 0.75 244.62499 179.31195] CT
0.494 0.184 0.557 RC
N
f-1057828618
f
GR
GS
[0.75 0 0 0.75 244.62499 181.35378] CT
0.494 0.184 0.557 RC
N
f-1057828618
f
GR
GS
[0.75 0 0 0.75 244.62499 183.16538] CT
0.494 0.184 0.557 RC
N
f-1057828618
f
GR
GS
[0.75 0 0 0.75 244.62499 184.7623] CT
0.494 0.184 0.557 RC
N
f-1057828618
f
GR
GS
[0.75 0 0 0.75 244.62499 186.16295] CT
0.494 0.184 0.557 RC
N
f-1057828618
f
GR
GS
[0.75 0 0 0.75 244.62499 187.38663] CT
0.494 0.184 0.557 RC
N
f-1057828618
f
GR
GS
[0.75 0 0 0.75 244.62499 188.45224] CT
0.494 0.184 0.557 RC
N
f-1057828618
f
GR
GS
[0.75 0 0 0.75 244.62499 189.37767] CT
0.494 0.184 0.557 RC
N
f-1057828618
f
GR
GS
[0.75 0 0 0.75 244.62499 190.17941] CT
0.494 0.184 0.557 RC
N
f-1057828618
f
GR
GS
[0.75 0 0 0.75 244.62499 190.87247] CT
0.494 0.184 0.557 RC
N
f-1057828618
f
GR
GS
[0.75 0 0 0.75 244.62499 191.47034] CT
0.494 0.184 0.557 RC
N
f-1057828618
f
GR
GS
[0.75 0 0 0.75 244.62499 191.98504] CT
0.494 0.184 0.557 RC
N
f-1057828618
f
GR
GS
[0.75 0 0 0.75 244.62499 192.42723] CT
0.494 0.184 0.557 RC
N
f-1057828618
f
GR
GS
[0.75 0 0 0.75 244.62499 192.8063] CT
0.494 0.184 0.557 RC
N
f-1057828618
f
GR
GS
[0.75 0 0 0.75 244.62499 193.13056] CT
0.494 0.184 0.557 RC
N
f-1057828618
f
GR
GS
[0.75 0 0 0.75 244.62499 193.40723] CT
0.494 0.184 0.557 RC
N
f-1057828618
f
GR
GS
[0.75 0 0 0.75 244.62499 193.64271] CT
0.494 0.184 0.557 RC
N
f-1057828618
f
GR
GS
[0.75 0 0 0.75 244.62499 193.8425] CT
0.494 0.184 0.557 RC
N
f-1057828618
f
GR
GS
[0.75 0 0 0.75 244.62499 194.01146] CT
0.494 0.184 0.557 RC
N
f-1057828618
f
GR
GS
[0.75 0 0 0.75 244.62499 194.15385] CT
0.494 0.184 0.557 RC
N
f-1057828618
f
GR
GS
[0.75 0 0 0.75 244.62499 194.27328] CT
0.494 0.184 0.557 RC
N
f-1057828618
f
GR
GS
[0.75 0 0 0.75 244.62499 194.37298] CT
0.494 0.184 0.557 RC
N
f-1057828618
f
GR
GS
[0.75 0 0 0.75 244.62499 194.4557] CT
0.494 0.184 0.557 RC
N
f-1057828618
f
GR
GS
[0.75 0 0 0.75 244.62499 194.52386] CT
0.494 0.184 0.557 RC
N
f-1057828618
f
GR
GS
[0.75 0 0 0.75 244.62499 194.57954] CT
0.494 0.184 0.557 RC
N
f-1057828618
f
GR
GS
[0.75 0 0 0.75 244.62499 194.62457] CT
0.494 0.184 0.557 RC
N
f-1057828618
f
GR
GS
[0.75 0 0 0.75 244.62499 194.66048] CT
0.494 0.184 0.557 RC
N
f-1057828618
f
GR
GS
[0.75 0 0 0.75 244.62499 194.68863] CT
0.494 0.184 0.557 RC
N
f-1057828618
f
GR
GS
[0.75 0 0 0.75 244.62499 194.71019] CT
0.494 0.184 0.557 RC
N
f-1057828618
f
GR
GS
[0.75 0 0 0.75 244.62499 194.72617] CT
0.494 0.184 0.557 RC
N
f-1057828618
f
GR
GS
[0.75 0 0 0.75 244.62499 194.73745] CT
0.494 0.184 0.557 RC
N
f-1057828618
f
GR
GS
[0.75 0 0 0.75 244.62499 194.74477] CT
0.494 0.184 0.557 RC
N
f-1057828618
f
GR
GS
[0.75 0 0 0.75 244.62499 194.74876] CT
0.494 0.184 0.557 RC
N
f-1057828618
f
GR
GS
[0.75 0 0 0.75 244.62499 194.74999] CT
0.494 0.184 0.557 RC
N
f-1057828618
f
GR
GS
[0.75 0 0 0.75 244.62499 194.74999] CT
0.467 0.675 0.188 RC
N
f-1057828618
f
GR
GS
[0.75 0 0 0.75 244.62499 194.74999] CT
0.467 0.675 0.188 RC
N
f-1057828618
f
GR
GS
[0.75 0 0 0.75 244.62531 194.74999] CT
0.467 0.675 0.188 RC
N
f-1057828618
f
GR
GS
[0.75 0 0 0.75 244.63369 194.74999] CT
0.467 0.675 0.188 RC
N
f-1057828618
f
GR
GS
[0.75 0 0 0.75 244.6897 194.74999] CT
0.467 0.675 0.188 RC
N
f-1057828618
f
GR
GS
[0.75 0 0 0.75 244.8734 194.74999] CT
0.467 0.675 0.188 RC
N
f-1057828618
f
GR
GS
[0.75 0 0 0.75 245.27671 194.74999] CT
0.467 0.675 0.188 RC
N
f-1057828618
f
GR
GS
[0.75 0 0 0.75 245.9677 194.74999] CT
0.467 0.675 0.188 RC
N
f-1057828618
f
GR
GS
[0.75 0 0 0.75 246.97318 194.74999] CT
0.467 0.675 0.188 RC
N
f-1057828618
f
GR
GS
[0.75 0 0 0.75 248.27989 194.74999] CT
0.467 0.675 0.188 RC
N
f-1057828618
f
GR
GS
[0.75 0 0 0.75 249.84549 194.74999] CT
0.467 0.675 0.188 RC
N
f-1057828618
f
GR
GS
[0.75 0 0 0.75 251.60724 194.74999] CT
0.467 0.675 0.188 RC
N
f-1057828618
f
GR
GS
[0.75 0 0 0.75 253.48141 194.74999] CT
0.467 0.675 0.188 RC
N
f-1057828618
f
GR
GS
[0.75 0 0 0.75 255.37674 194.74999] CT
0.467 0.675 0.188 RC
N
f-1057828618
f
GR
GS
[0.75 0 0 0.75 257.21651 194.74999] CT
0.467 0.675 0.188 RC
N
f-1057828618
f
GR
GS
[0.75 0 0 0.75 258.94821 194.74999] CT
0.467 0.675 0.188 RC
N
f-1057828618
f
GR
GS
[0.75 0 0 0.75 260.54201 194.74999] CT
0.467 0.675 0.188 RC
N
f-1057828618
f
GR
GS
[0.75 0 0 0.75 261.98527 194.74999] CT
0.467 0.675 0.188 RC
N
f-1057828618
f
GR
GS
[0.75 0 0 0.75 263.27689 194.74999] CT
0.467 0.675 0.188 RC
N
f-1057828618
f
GR
GS
[0.75 0 0 0.75 264.42288 194.74999] CT
0.467 0.675 0.188 RC
N
f-1057828618
f
GR
GS
[0.75 0 0 0.75 265.43303 194.74999] CT
0.467 0.675 0.188 RC
N
f-1057828618
f
GR
GS
[0.75 0 0 0.75 266.31903 194.74999] CT
0.467 0.675 0.188 RC
N
f-1057828618
f
GR
GS
[0.75 0 0 0.75 267.09304 194.74999] CT
0.467 0.675 0.188 RC
N
f-1057828618
f
GR
GS
[0.75 0 0 0.75 267.76707 194.74999] CT
0.467 0.675 0.188 RC
N
f-1057828618
f
GR
GS
[0.75 0 0 0.75 268.35242 194.74999] CT
0.467 0.675 0.188 RC
N
f-1057828618
f
GR
GS
[0.75 0 0 0.75 268.8595 194.74999] CT
0.467 0.675 0.188 RC
N
f-1057828618
f
GR
GS
[0.75 0 0 0.75 269.29786 194.74999] CT
0.467 0.675 0.188 RC
N
f-1057828618
f
GR
GS
[0.75 0 0 0.75 269.67599 194.74999] CT
0.467 0.675 0.188 RC
N
f-1057828618
f
GR
GS
[0.75 0 0 0.75 270.00153 194.74999] CT
0.467 0.675 0.188 RC
N
f-1057828618
f
GR
GS
[0.75 0 0 0.75 270.2812 194.74999] CT
0.467 0.675 0.188 RC
N
f-1057828618
f
GR
GS
[0.75 0 0 0.75 270.52094 194.74999] CT
0.467 0.675 0.188 RC
N
f-1057828618
f
GR
GS
[0.75 0 0 0.75 270.72601 194.74999] CT
0.467 0.675 0.188 RC
N
f-1057828618
f
GR
GS
[0.75 0 0 0.75 270.90099 194.74999] CT
0.467 0.675 0.188 RC
N
f-1057828618
f
GR
GS
[0.75 0 0 0.75 271.04988 194.74999] CT
0.467 0.675 0.188 RC
N
f-1057828618
f
GR
GS
[0.75 0 0 0.75 271.17625 194.74999] CT
0.467 0.675 0.188 RC
N
f-1057828618
f
GR
GS
[0.75 0 0 0.75 271.28309 194.74999] CT
0.467 0.675 0.188 RC
N
f-1057828618
f
GR
GS
[0.75 0 0 0.75 271.37311 194.74999] CT
0.467 0.675 0.188 RC
N
f-1057828618
f
GR
GS
[0.75 0 0 0.75 271.44864 194.74999] CT
0.467 0.675 0.188 RC
N
f-1057828618
f
GR
GS
[0.75 0 0 0.75 271.51167 194.74999] CT
0.467 0.675 0.188 RC
N
f-1057828618
f
GR
GS
[0.75 0 0 0.75 271.56397 194.74999] CT
0.467 0.675 0.188 RC
N
f-1057828618
f
GR
GS
[0.75 0 0 0.75 271.60707 194.74999] CT
0.467 0.675 0.188 RC
N
f-1057828618
f
GR
GS
[0.75 0 0 0.75 271.6423 194.74999] CT
0.467 0.675 0.188 RC
N
f-1057828618
f
GR
GS
[0.75 0 0 0.75 271.67075 194.74999] CT
0.467 0.675 0.188 RC
N
f-1057828618
f
GR
GS
[0.75 0 0 0.75 271.69345 194.74999] CT
0.467 0.675 0.188 RC
N
f-1057828618
f
GR
GS
[0.75 0 0 0.75 271.71124 194.74999] CT
0.467 0.675 0.188 RC
N
f-1057828618
f
GR
GS
[0.75 0 0 0.75 271.72485 194.74999] CT
0.467 0.675 0.188 RC
N
f-1057828618
f
GR
GS
[0.75 0 0 0.75 271.73497 194.74999] CT
0.467 0.675 0.188 RC
N
f-1057828618
f
GR
GS
[0.75 0 0 0.75 271.74209 194.74999] CT
0.467 0.675 0.188 RC
N
f-1057828618
f
GR
GS
[0.75 0 0 0.75 271.74671 194.74999] CT
0.467 0.675 0.188 RC
N
f-1057828618
f
GR
GS
[0.75 0 0 0.75 271.74923 194.74999] CT
0.467 0.675 0.188 RC
N
f-1057828618
f
GR
GS
[0.75 0 0 0.75 271.75001 194.74999] CT
0.467 0.675 0.188 RC
N
f-1057828618
f
GR
GS
[0.75 0 0 0.75 0 0] CT
0.302 0.745 0.933 RC
[10 6] 0 setdash
2 LJ
0.667 LW
N
362.333 259.667 M
362.333 259.667 L
362.334 259.667 L
362.351 259.667 L
362.463 259.667 L
362.83 259.667 L
363.636 259.667 L
365.018 259.667 L
367.028 259.667 L
369.641 259.667 L
372.771 259.667 L
376.294 259.667 L
380.042 259.667 L
383.832 259.667 L
387.512 259.667 L
390.975 259.667 L
394.163 259.667 L
397.049 259.667 L
399.633 259.667 L
401.925 259.667 L
403.946 259.667 L
405.718 259.667 L
407.266 259.667 L
408.615 259.667 L
409.786 259.667 L
410.8 259.667 L
411.677 259.667 L
412.434 259.667 L
413.085 259.667 L
413.644 259.667 L
414.124 259.667 L
414.534 259.667 L
414.884 259.667 L
415.182 259.667 L
415.435 259.667 L
415.649 259.667 L
415.829 259.667 L
415.98 259.667 L
416.106 259.667 L
416.211 259.667 L
416.297 259.667 L
416.368 259.667 L
416.425 259.667 L
416.47 259.667 L
416.506 259.667 L
416.533 259.667 L
416.553 259.667 L
416.567 259.667 L
416.577 259.667 L
416.582 259.667 L
416.583 259.667 L
S
GR
GS
[0.75 0 0 0.75 312.43751 194.74999] CT
0.635 0.078 0.184 RC
N
f-1057828618
f
GR
GS
[0.75 0 0 0.75 312.43751 194.74999] CT
0.635 0.078 0.184 RC
N
f-1057828618
f
GR
GS
[0.75 0 0 0.75 312.43751 194.74976] CT
0.635 0.078 0.184 RC
N
f-1057828618
f
GR
GS
[0.75 0 0 0.75 312.43751 194.74313] CT
0.635 0.078 0.184 RC
N
f-1057828618
f
GR
GS
[0.75 0 0 0.75 312.43751 194.69886] CT
0.635 0.078 0.184 RC
N
f-1057828618
f
GR
GS
[0.75 0 0 0.75 312.43751 194.55368] CT
0.635 0.078 0.184 RC
N
f-1057828618
f
GR
GS
[0.75 0 0 0.75 312.43751 194.23494] CT
0.635 0.078 0.184 RC
N
f-1057828618
f
GR
GS
[0.75 0 0 0.75 312.43751 193.68883] CT
0.635 0.078 0.184 RC
N
f-1057828618
f
GR
GS
[0.75 0 0 0.75 312.43751 192.89417] CT
0.635 0.078 0.184 RC
N
f-1057828618
f
GR
GS
[0.75 0 0 0.75 312.43751 191.86145] CT
0.635 0.078 0.184 RC
N
f-1057828618
f
GR
GS
[0.75 0 0 0.75 312.43751 190.62412] CT
0.635 0.078 0.184 RC
N
f-1057828618
f
GR
GS
[0.75 0 0 0.75 312.43751 189.23177] CT
0.635 0.078 0.184 RC
N
f-1057828618
f
GR
GS
[0.75 0 0 0.75 312.43751 187.75058] CT
0.635 0.078 0.184 RC
N
f-1057828618
f
GR
GS
[0.75 0 0 0.75 312.43751 186.25266] CT
0.635 0.078 0.184 RC
N
f-1057828618
f
GR
GS
[0.75 0 0 0.75 312.43751 184.79863] CT
0.635 0.078 0.184 RC
N
f-1057828618
f
GR
GS
[0.75 0 0 0.75 312.43751 183.43003] CT
0.635 0.078 0.184 RC
N
f-1057828618
f
GR
GS
[0.75 0 0 0.75 312.43751 182.17043] CT
0.635 0.078 0.184 RC
N
f-1057828618
f
GR
GS
[0.75 0 0 0.75 312.43751 181.0298] CT
0.635 0.078 0.184 RC
N
f-1057828618
f
GR
GS
[0.75 0 0 0.75 312.43751 180.00898] CT
0.635 0.078 0.184 RC
N
f-1057828618
f
GR
GS
[0.75 0 0 0.75 312.43751 179.10329] CT
0.635 0.078 0.184 RC
N
f-1057828618
f
GR
GS
[0.75 0 0 0.75 312.43751 178.30495] CT
0.635 0.078 0.184 RC
N
f-1057828618
f
GR
GS
[0.75 0 0 0.75 312.43751 177.60473] CT
0.635 0.078 0.184 RC
N
f-1057828618
f
GR
GS
[0.75 0 0 0.75 312.43751 176.993] CT
0.635 0.078 0.184 RC
N
f-1057828618
f
GR
GS
[0.75 0 0 0.75 312.43751 176.46031] CT
0.635 0.078 0.184 RC
N
f-1057828618
f
GR
GS
[0.75 0 0 0.75 312.43751 175.99769] CT
0.635 0.078 0.184 RC
N
f-1057828618
f
GR
GS
[0.75 0 0 0.75 312.43751 175.59692] CT
0.635 0.078 0.184 RC
N
f-1057828618
f
GR
GS
[0.75 0 0 0.75 312.43751 175.25047] CT
0.635 0.078 0.184 RC
N
f-1057828618
f
GR
GS
[0.75 0 0 0.75 312.43751 174.95162] CT
0.635 0.078 0.184 RC
N
f-1057828618
f
GR
GS
[0.75 0 0 0.75 312.43751 174.69435] CT
0.635 0.078 0.184 RC
N
f-1057828618
f
GR
GS
[0.75 0 0 0.75 312.43751 174.47333] CT
0.635 0.078 0.184 RC
N
f-1057828618
f
GR
GS
[0.75 0 0 0.75 312.43751 174.28385] CT
0.635 0.078 0.184 RC
N
f-1057828618
f
GR
GS
[0.75 0 0 0.75 312.43751 174.12179] CT
0.635 0.078 0.184 RC
N
f-1057828618
f
GR
GS
[0.75 0 0 0.75 312.43751 173.9835] CT
0.635 0.078 0.184 RC
N
f-1057828618
f
GR
GS
[0.75 0 0 0.75 312.43751 173.86582] CT
0.635 0.078 0.184 RC
N
f-1057828618
f
GR
GS
[0.75 0 0 0.75 312.43751 173.76596] CT
0.635 0.078 0.184 RC
N
f-1057828618
f
GR
GS
[0.75 0 0 0.75 312.43751 173.68151] CT
0.635 0.078 0.184 RC
N
f-1057828618
f
GR
GS
[0.75 0 0 0.75 312.43751 173.61036] CT
0.635 0.078 0.184 RC
N
f-1057828618
f
GR
GS
[0.75 0 0 0.75 312.43751 173.55067] CT
0.635 0.078 0.184 RC
N
f-1057828618
f
GR
GS
[0.75 0 0 0.75 312.43751 173.50085] CT
0.635 0.078 0.184 RC
N
f-1057828618
f
GR
GS
[0.75 0 0 0.75 312.43751 173.45952] CT
0.635 0.078 0.184 RC
N
f-1057828618
f
GR
GS
[0.75 0 0 0.75 312.43751 173.42545] CT
0.635 0.078 0.184 RC
N
f-1057828618
f
GR
GS
[0.75 0 0 0.75 312.43751 173.39763] CT
0.635 0.078 0.184 RC
N
f-1057828618
f
GR
GS
[0.75 0 0 0.75 312.43751 173.37514] CT
0.635 0.078 0.184 RC
N
f-1057828618
f
GR
GS
[0.75 0 0 0.75 312.43751 173.3572] CT
0.635 0.078 0.184 RC
N
f-1057828618
f
GR
GS
[0.75 0 0 0.75 312.43751 173.34313] CT
0.635 0.078 0.184 RC
N
f-1057828618
f
GR
GS
[0.75 0 0 0.75 312.43751 173.33236] CT
0.635 0.078 0.184 RC
N
f-1057828618
f
GR
GS
[0.75 0 0 0.75 312.43751 173.32439] CT
0.635 0.078 0.184 RC
N
f-1057828618
f
GR
GS
[0.75 0 0 0.75 312.43751 173.31876] CT
0.635 0.078 0.184 RC
N
f-1057828618
f
GR
GS
[0.75 0 0 0.75 312.43751 173.31511] CT
0.635 0.078 0.184 RC
N
f-1057828618
f
GR
GS
[0.75 0 0 0.75 312.43751 173.31311] CT
0.635 0.078 0.184 RC
N
f-1057828618
f
GR
GS
[0.75 0 0 0.75 312.43751 173.3125] CT
0.635 0.078 0.184 RC
N
f-1057828618
f
GR
GS
[0.75 0 0 0.75 312.43751 173.3125] CT
0 0.447 0.741 RC
N
f-1057828618
f
GR
GS
[0.75 0 0 0.75 312.43751 173.3125] CT
0 0.447 0.741 RC
N
f-1057828618
f
GR
GS
[0.75 0 0 0.75 312.43735 173.31227] CT
0 0.447 0.741 RC
N
f-1057828618
f
GR
GS
[0.75 0 0 0.75 312.43316 173.30564] CT
0 0.447 0.741 RC
N
f-1057828618
f
GR
GS
[0.75 0 0 0.75 312.40517 173.2614] CT
0 0.447 0.741 RC
N
f-1057828618
f
GR
GS
[0.75 0 0 0.75 312.31336 173.11628] CT
0 0.447 0.741 RC
N
f-1057828618
f
GR
GS
[0.75 0 0 0.75 312.11179 172.79767] CT
0 0.447 0.741 RC
N
f-1057828618
f
GR
GS
[0.75 0 0 0.75 311.76643 172.25178] CT
0 0.447 0.741 RC
N
f-1057828618
f
GR
GS
[0.75 0 0 0.75 311.26385 171.45737] CT
0 0.447 0.741 RC
N
f-1057828618
f
GR
GS
[0.75 0 0 0.75 310.61066 170.42492] CT
0 0.447 0.741 RC
N
f-1057828618
f
GR
GS
[0.75 0 0 0.75 309.82805 169.18787] CT
0 0.447 0.741 RC
N
f-1057828618
f
GR
GS
[0.75 0 0 0.75 308.94733 167.79577] CT
0 0.447 0.741 RC
N
f-1057828618
f
GR
GS
[0.75 0 0 0.75 308.01036 166.31478] CT
0 0.447 0.741 RC
N
f-1057828618
f
GR
GS
[0.75 0 0 0.75 307.06279 164.81699] CT
0 0.447 0.741 RC
N
f-1057828618
f
GR
GS
[0.75 0 0 0.75 306.14291 163.36301] CT
0 0.447 0.741 RC
N
f-1057828618
f
GR
GS
[0.75 0 0 0.75 305.27708 161.9944] CT
0 0.447 0.741 RC
N
f-1057828618
f
GR
GS
[0.75 0 0 0.75 304.48016 160.73474] CT
0 0.447 0.741 RC
N
f-1057828618
f
GR
GS
[0.75 0 0 0.75 303.75847 159.59403] CT
0 0.447 0.741 RC
N
f-1057828618
f
GR
GS
[0.75 0 0 0.75 303.11259 158.57311] CT
0 0.447 0.741 RC
N
f-1057828618
f
GR
GS
[0.75 0 0 0.75 302.53951 157.66731] CT
0 0.447 0.741 RC
N
f-1057828618
f
GR
GS
[0.75 0 0 0.75 302.03437 156.86885] CT
0 0.447 0.741 RC
N
f-1057828618
f
GR
GS
[0.75 0 0 0.75 301.5913 156.16853] CT
0 0.447 0.741 RC
N
f-1057828618
f
GR
GS
[0.75 0 0 0.75 301.20424 155.55668] CT
0 0.447 0.741 RC
N
f-1057828618
f
GR
GS
[0.75 0 0 0.75 300.86714 155.02388] CT
0 0.447 0.741 RC
N
f-1057828618
f
GR
GS
[0.75 0 0 0.75 300.5744 154.56117] CT
0 0.447 0.741 RC
N
f-1057828618
f
GR
GS
[0.75 0 0 0.75 300.3208 154.16029] CT
0 0.447 0.741 RC
N
f-1057828618
f
GR
GS
[0.75 0 0 0.75 300.10158 153.81377] CT
0 0.447 0.741 RC
N
f-1057828618
f
GR
GS
[0.75 0 0 0.75 299.91245 153.51484] CT
0 0.447 0.741 RC
N
f-1057828618
f
GR
GS
[0.75 0 0 0.75 299.74963 153.25748] CT
0 0.447 0.741 RC
N
f-1057828618
f
GR
GS
[0.75 0 0 0.75 299.60976 153.03639] CT
0 0.447 0.741 RC
N
f-1057828618
f
GR
GS
[0.75 0 0 0.75 299.48985 152.84684] CT
0 0.447 0.741 RC
N
f-1057828618
f
GR
GS
[0.75 0 0 0.75 299.38726 152.68473] CT
0 0.447 0.741 RC
N
f-1057828618
f
GR
GS
[0.75 0 0 0.75 299.29976 152.54638] CT
0 0.447 0.741 RC
N
f-1057828618
f
GR
GS
[0.75 0 0 0.75 299.22528 152.42865] CT
0 0.447 0.741 RC
N
f-1057828618
f
GR
GS
[0.75 0 0 0.75 299.16206 152.32876] CT
0 0.447 0.741 RC
N
f-1057828618
f
GR
GS
[0.75 0 0 0.75 299.10862 152.24427] CT
0 0.447 0.741 RC
N
f-1057828618
f
GR
GS
[0.75 0 0 0.75 299.06358 152.17308] CT
0 0.447 0.741 RC
N
f-1057828618
f
GR
GS
[0.75 0 0 0.75 299.02581 152.11337] CT
0 0.447 0.741 RC
N
f-1057828618
f
GR
GS
[0.75 0 0 0.75 298.99427 152.06352] CT
0 0.447 0.741 RC
N
f-1057828618
f
GR
GS
[0.75 0 0 0.75 298.96809 152.02215] CT
0 0.447 0.741 RC
N
f-1057828618
f
GR
GS
[0.75 0 0 0.75 298.94655 151.98807] CT
0 0.447 0.741 RC
N
f-1057828618
f
GR
GS
[0.75 0 0 0.75 298.92892 151.96022] CT
0 0.447 0.741 RC
N
f-1057828618
f
GR
GS
[0.75 0 0 0.75 298.91469 151.93771] CT
0 0.447 0.741 RC
N
f-1057828618
f
GR
GS
[0.75 0 0 0.75 298.90331 151.91976] CT
0 0.447 0.741 RC
N
f-1057828618
f
GR
GS
[0.75 0 0 0.75 298.89441 151.90568] CT
0 0.447 0.741 RC
N
f-1057828618
f
GR
GS
[0.75 0 0 0.75 298.88759 151.8949] CT
0 0.447 0.741 RC
N
f-1057828618
f
GR
GS
[0.75 0 0 0.75 298.88253 151.88691] CT
0 0.447 0.741 RC
N
f-1057828618
f
GR
GS
[0.75 0 0 0.75 298.87898 151.88127] CT
0 0.447 0.741 RC
N
f-1057828618
f
GR
GS
[0.75 0 0 0.75 298.87665 151.87762] CT
0 0.447 0.741 RC
N
f-1057828618
f
GR
GS
[0.75 0 0 0.75 298.87539 151.87562] CT
0 0.447 0.741 RC
N
f-1057828618
f
GR
GS
[0.75 0 0 0.75 298.875 151.875] CT
0 0.447 0.741 RC
N
f-1057828618
f
GR
GS
[0.75 0 0 0.75 0 0] CT
0.851 0.325 0.098 RC
[10 6] 0 setdash
2 LJ
0.667 LW
N
398.5 202.5 M
398.5 202.5 L
398.5 202.5 L
398.512 202.5 L
398.586 202.5 L
398.831 202.5 L
399.369 202.5 L
400.29 202.5 L
401.631 202.5 L
403.373 202.5 L
405.461 202.5 L
407.81 202.5 L
410.309 202.5 L
412.836 202.5 L
415.289 202.5 L
417.598 202.5 L
419.723 202.5 L
421.647 202.5 L
423.369 202.5 L
424.897 202.5 L
426.244 202.5 L
427.425 202.5 L
428.457 202.5 L
429.356 202.5 L
430.137 202.5 L
430.813 202.5 L
431.397 202.5 L
431.901 202.5 L
432.335 202.5 L
432.708 202.5 L
433.028 202.5 L
433.301 202.5 L
433.535 202.5 L
433.733 202.5 L
433.902 202.5 L
434.044 202.5 L
434.164 202.5 L
434.265 202.5 L
434.349 202.5 L
434.419 202.5 L
434.476 202.5 L
434.523 202.5 L
434.561 202.5 L
434.591 202.5 L
434.615 202.5 L
434.633 202.5 L
434.647 202.5 L
434.656 202.5 L
434.662 202.5 L
434.666 202.5 L
434.667 202.5 L
S
GR
GS
[0.75 0 0 0.75 325.99999 151.875] CT
0.929 0.694 0.125 RC
N
f-1057828618
f
GR
GS
[0.75 0 0 0.75 325.99999 151.875] CT
0.929 0.694 0.125 RC
N
f-1057828618
f
GR
GS
[0.75 0 0 0.75 325.99986 151.87524] CT
0.929 0.694 0.125 RC
N
f-1057828618
f
GR
GS
[0.75 0 0 0.75 325.99567 151.88187] CT
0.929 0.694 0.125 RC
N
f-1057828618
f
GR
GS
[0.75 0 0 0.75 325.96767 151.9261] CT
0.929 0.694 0.125 RC
N
f-1057828618
f
GR
GS
[0.75 0 0 0.75 325.87585 152.07122] CT
0.929 0.694 0.125 RC
N
f-1057828618
f
GR
GS
[0.75 0 0 0.75 325.67429 152.38982] CT
0.929 0.694 0.125 RC
N
f-1057828618
f
GR
GS
[0.75 0 0 0.75 325.32893 152.93573] CT
0.929 0.694 0.125 RC
N
f-1057828618
f
GR
GS
[0.75 0 0 0.75 324.82635 153.73012] CT
0.929 0.694 0.125 RC
N
f-1057828618
f
GR
GS
[0.75 0 0 0.75 324.17317 154.76258] CT
0.929 0.694 0.125 RC
N
f-1057828618
f
GR
GS
[0.75 0 0 0.75 323.39053 155.99962] CT
0.929 0.694 0.125 RC
N
f-1057828618
f
GR
GS
[0.75 0 0 0.75 322.50982 157.39173] CT
0.929 0.694 0.125 RC
N
f-1057828618
f
GR
GS
[0.75 0 0 0.75 321.57287 158.87272] CT
0.929 0.694 0.125 RC
N
f-1057828618
f
GR
GS
[0.75 0 0 0.75 320.6253 160.37051] CT
0.929 0.694 0.125 RC
N
f-1057828618
f
GR
GS
[0.75 0 0 0.75 319.70542 161.82449] CT
0.929 0.694 0.125 RC
N
f-1057828618
f
GR
GS
[0.75 0 0 0.75 318.83956 163.1931] CT
0.929 0.694 0.125 RC
N
f-1057828618
f
GR
GS
[0.75 0 0 0.75 318.04264 164.45275] CT
0.929 0.694 0.125 RC
N
f-1057828618
f
GR
GS
[0.75 0 0 0.75 317.32095 165.59348] CT
0.929 0.694 0.125 RC
N
f-1057828618
f
GR
GS
[0.75 0 0 0.75 316.67509 166.61438] CT
0.929 0.694 0.125 RC
N
f-1057828618
f
GR
GS
[0.75 0 0 0.75 316.10202 167.52018] CT
0.929 0.694 0.125 RC
N
f-1057828618
f
GR
GS
[0.75 0 0 0.75 315.59688 168.31865] CT
0.929 0.694 0.125 RC
N
f-1057828618
f
GR
GS
[0.75 0 0 0.75 315.15381 169.01898] CT
0.929 0.694 0.125 RC
N
f-1057828618
f
GR
GS
[0.75 0 0 0.75 314.76672 169.63082] CT
0.929 0.694 0.125 RC
N
f-1057828618
f
GR
GS
[0.75 0 0 0.75 314.42965 170.16362] CT
0.929 0.694 0.125 RC
N
f-1057828618
f
GR
GS
[0.75 0 0 0.75 314.13691 170.62633] CT
0.929 0.694 0.125 RC
N
f-1057828618
f
GR
GS
[0.75 0 0 0.75 313.88331 171.0272] CT
0.929 0.694 0.125 RC
N
f-1057828618
f
GR
GS
[0.75 0 0 0.75 313.66406 171.37373] CT
0.929 0.694 0.125 RC
N
f-1057828618
f
GR
GS
[0.75 0 0 0.75 313.47494 171.67267] CT
0.929 0.694 0.125 RC
N
f-1057828618
f
GR
GS
[0.75 0 0 0.75 313.31213 171.93002] CT
0.929 0.694 0.125 RC
N
f-1057828618
f
GR
GS
[0.75 0 0 0.75 313.17226 172.15112] CT
0.929 0.694 0.125 RC
N
f-1057828618
f
GR
GS
[0.75 0 0 0.75 313.05235 172.34065] CT
0.929 0.694 0.125 RC
N
f-1057828618
f
GR
GS
[0.75 0 0 0.75 312.94977 172.50278] CT
0.929 0.694 0.125 RC
N
f-1057828618
f
GR
GS
[0.75 0 0 0.75 312.86224 172.64112] CT
0.929 0.694 0.125 RC
N
f-1057828618
f
GR
GS
[0.75 0 0 0.75 312.78777 172.75885] CT
0.929 0.694 0.125 RC
N
f-1057828618
f
GR
GS
[0.75 0 0 0.75 312.72457 172.85875] CT
0.929 0.694 0.125 RC
N
f-1057828618
f
GR
GS
[0.75 0 0 0.75 312.6711 172.94323] CT
0.929 0.694 0.125 RC
N
f-1057828618
f
GR
GS
[0.75 0 0 0.75 312.62608 173.01442] CT
0.929 0.694 0.125 RC
N
f-1057828618
f
GR
GS
[0.75 0 0 0.75 312.58829 173.07414] CT
0.929 0.694 0.125 RC
N
f-1057828618
f
GR
GS
[0.75 0 0 0.75 312.55678 173.12399] CT
0.929 0.694 0.125 RC
N
f-1057828618
f
GR
GS
[0.75 0 0 0.75 312.53059 173.16535] CT
0.929 0.694 0.125 RC
N
f-1057828618
f
GR
GS
[0.75 0 0 0.75 312.50903 173.19943] CT
0.929 0.694 0.125 RC
N
f-1057828618
f
GR
GS
[0.75 0 0 0.75 312.49141 173.22727] CT
0.929 0.694 0.125 RC
N
f-1057828618
f
GR
GS
[0.75 0 0 0.75 312.47717 173.24978] CT
0.929 0.694 0.125 RC
N
f-1057828618
f
GR
GS
[0.75 0 0 0.75 312.46582 173.26774] CT
0.929 0.694 0.125 RC
N
f-1057828618
f
GR
GS
[0.75 0 0 0.75 312.45692 173.28181] CT
0.929 0.694 0.125 RC
N
f-1057828618
f
GR
GS
[0.75 0 0 0.75 312.4501 173.29259] CT
0.929 0.694 0.125 RC
N
f-1057828618
f
GR
GS
[0.75 0 0 0.75 312.44504 173.30058] CT
0.929 0.694 0.125 RC
N
f-1057828618
f
GR
GS
[0.75 0 0 0.75 312.44147 173.30622] CT
0.929 0.694 0.125 RC
N
f-1057828618
f
GR
GS
[0.75 0 0 0.75 312.43916 173.30989] CT
0.929 0.694 0.125 RC
N
f-1057828618
f
GR
GS
[0.75 0 0 0.75 312.4379 173.31188] CT
0.929 0.694 0.125 RC
N
f-1057828618
f
GR
GS
[0.75 0 0 0.75 312.43751 173.3125] CT
0.929 0.694 0.125 RC
N
f-1057828618
f
GR
%%Trailer
%%Pages: 1
%%EOF
