%!PS-Adobe-2.0 EPSF-2.0
%%Title: /home/jcano/cours/nonlin/projet/modelisation/schemas/general.dia
%%Creator: Dia v0.97+git
%%CreationDate: Sat Oct 26 13:46:03 2019
%%For: jcano
%%Orientation: Portrait
%%Magnification: 1.0000
%%BoundingBox: 0 0 1251 233
%%BeginSetup
%%EndSetup
%%EndComments
%%BeginProlog
[ /.notdef /.notdef /.notdef /.notdef /.notdef /.notdef /.notdef /.notdef /.notdef /.notdef
/.notdef /.notdef /.notdef /.notdef /.notdef /.notdef /.notdef /.notdef /.notdef /.notdef
/.notdef /.notdef /.notdef /.notdef /.notdef /.notdef /.notdef /.notdef /.notdef /.notdef
/.notdef /.notdef /space /exclam /quotedbl /numbersign /dollar /percent /ampersand /quoteright
/parenleft /parenright /asterisk /plus /comma /hyphen /period /slash /zero /one
/two /three /four /five /six /seven /eight /nine /colon /semicolon
/less /equal /greater /question /at /A /B /C /D /E
/F /G /H /I /J /K /L /M /N /O
/P /Q /R /S /T /U /V /W /X /Y
/Z /bracketleft /backslash /bracketright /asciicircum /underscore /quoteleft /a /b /c
/d /e /f /g /h /i /j /k /l /m
/n /o /p /q /r /s /t /u /v /w
/x /y /z /braceleft /bar /braceright /asciitilde /.notdef /.notdef /.notdef
/.notdef /.notdef /.notdef /.notdef /.notdef /.notdef /.notdef /.notdef /.notdef /.notdef
/.notdef /.notdef /.notdef /.notdef /.notdef /.notdef /.notdef /.notdef /.notdef /.notdef
/.notdef /.notdef /.notdef /.notdef /.notdef /.notdef /.notdef /.notdef /.notdef /.notdef
/space /exclamdown /cent /sterling /currency /yen /brokenbar /section /dieresis /copyright
/ordfeminine /guillemotleft /logicalnot /hyphen /registered /macron /degree /plusminus /twosuperior /threesuperior
/acute /mu /paragraph /periodcentered /cedilla /onesuperior /ordmasculine /guillemotright /onequarter /onehalf
/threequarters /questiondown /Agrave /Aacute /Acircumflex /Atilde /Adieresis /Aring /AE /Ccedilla
/Egrave /Eacute /Ecircumflex /Edieresis /Igrave /Iacute /Icircumflex /Idieresis /Eth /Ntilde
/Ograve /Oacute /Ocircumflex /Otilde /Odieresis /multiply /Oslash /Ugrave /Uacute /Ucircumflex
/Udieresis /Yacute /Thorn /germandbls /agrave /aacute /acircumflex /atilde /adieresis /aring
/ae /ccedilla /egrave /eacute /ecircumflex /edieresis /igrave /iacute /icircumflex /idieresis
/eth /ntilde /ograve /oacute /ocircumflex /otilde /odieresis /divide /oslash /ugrave
/uacute /ucircumflex /udieresis /yacute /thorn /ydieresis] /isolatin1encoding exch def
/cp {closepath} bind def
/c {curveto} bind def
/f {fill} bind def
/a {arc} bind def
/ef {eofill} bind def
/ex {exch} bind def
/gr {grestore} bind def
/gs {gsave} bind def
/sa {save} bind def
/rs {restore} bind def
/l {lineto} bind def
/m {moveto} bind def
/rm {rmoveto} bind def
/n {newpath} bind def
/s {stroke} bind def
/sh {show} bind def
/slc {setlinecap} bind def
/slj {setlinejoin} bind def
/slw {setlinewidth} bind def
/srgb {setrgbcolor} bind def
/rot {rotate} bind def
/sc {scale} bind def
/sd {setdash} bind def
/ff {findfont} bind def
/sf {setfont} bind def
/scf {scalefont} bind def
/sw {stringwidth pop} bind def
/tr {translate} bind def

/ellipsedict 8 dict def
ellipsedict /mtrx matrix put
/ellipse
{ ellipsedict begin
   /endangle exch def
   /startangle exch def
   /yrad exch def
   /xrad exch def
   /y exch def
   /x exch def   /savematrix mtrx currentmatrix def
   x y tr xrad yrad sc
   0 0 1 startangle endangle arc
   savematrix setmatrix
   end
} def

/mergeprocs {
dup length
3 -1 roll
dup
length
dup
5 1 roll
3 -1 roll
add
array cvx
dup
3 -1 roll
0 exch
putinterval
dup
4 2 roll
putinterval
} bind def
/dpi_x 300 def
/dpi_y 300 def
/conicto {
    /to_y exch def
    /to_x exch def
    /conic_cntrl_y exch def
    /conic_cntrl_x exch def
    currentpoint
    /p0_y exch def
    /p0_x exch def
    /p1_x p0_x conic_cntrl_x p0_x sub 2 3 div mul add def
    /p1_y p0_y conic_cntrl_y p0_y sub 2 3 div mul add def
    /p2_x p1_x to_x p0_x sub 1 3 div mul add def
    /p2_y p1_y to_y p0_y sub 1 3 div mul add def
    p1_x p1_y p2_x p2_y to_x to_y curveto
} bind def
/start_ol { gsave 1.1 dpi_x div dup scale} bind def
/end_ol { closepath fill grestore } bind def
28.346000 -28.346000 scale
-3.950000 -15.152500 translate
%%EndProlog


0.100000 slw
[] 0 sd
0 slj
0 slc
1.000000 1.000000 1.000000 srgb
n 4.000000 6.987410 m 9.000000 6.987410 l 9.000000 10.987410 l 4.000000 10.987410 l ef
0.000000 0.000000 0.000000 srgb
n 4.000000 6.987410 m 9.000000 6.987410 l 9.000000 10.987410 l 4.000000 10.987410 l cp s
gsave 4.242500 9.173660 translate 0.035278 -0.035278 scale
start_ol
3196 2709 moveto
2904 2709 lineto
2904 3264 lineto
1863 3264 lineto
1863 253 lineto
2315 253 lineto
2315 0 lineto
929 0 lineto
929 253 lineto
1381 253 lineto
1381 3264 lineto
340 3264 lineto
340 2709 lineto
49 2709 lineto
49 3546 lineto
3196 3546 lineto
3196 2709 lineto
end_ol grestore 
gsave 4.669595 9.173660 translate 0.035278 -0.035278 scale
start_ol
2121 1469 moveto
2106 1907 1936 2135 conicto
1761 2359 1440 2359 conicto
1133 2359 963 2130 conicto
788 1907 754 1469 conicto
2121 1469 lineto
2636 1216 moveto
754 1216 lineto
754 1197 lineto
754 681 944 428 conicto
1138 165 1513 165 conicto
1805 165 1985 316 conicto
2169 472 2242 764 conicto
2593 764 lineto
2490 350 2208 141 conicto
1926 -68 1469 -68 conicto
914 -68 578 297 conicto
243 662 243 1265 conicto
243 1858 574 2228 conicto
905 2593 1440 2593 conicto
2014 2593 2320 2237 conicto
2631 1882 2636 1216 conicto
end_ol grestore 
gsave 5.046742 9.173660 translate 0.035278 -0.035278 scale
start_ol
2685 0 moveto
1518 0 lineto
1518 253 lineto
1839 253 lineto
1289 1007 lineto
739 253 lineto
1065 253 lineto
1065 0 lineto
107 0 lineto
107 253 lineto
443 253 lineto
1138 1211 lineto
370 2271 lineto
58 2271 lineto
58 2524 lineto
1187 2524 lineto
1187 2271 lineto
885 2271 lineto
1415 1542 lineto
1946 2271 lineto
1605 2271 lineto
1605 2524 lineto
2578 2524 lineto
2578 2271 lineto
2242 2271 lineto
1566 1338 lineto
2354 253 lineto
2685 253 lineto
2685 0 lineto
end_ol grestore 
gsave 5.406402 9.173660 translate 0.035278 -0.035278 scale
start_ol
1916 593 moveto
1897 253 1732 88 conicto
1552 -68 1216 -68 conicto
837 -68 681 97 conicto
525 277 525 666 conicto
525 2271 lineto
141 2271 lineto
141 2524 lineto
525 2524 lineto
525 3308 lineto
963 3308 lineto
963 2524 lineto
1785 2524 lineto
1785 2271 lineto
963 2271 lineto
963 666 lineto
963 345 1026 253 conicto
1090 165 1255 165 conicto
1420 165 1503 268 conicto
1576 365 1586 593 conicto
1916 593 lineto
end_ol grestore 
gsave 5.663660 9.173660 translate 0.035278 -0.035278 scale
start_ol
2121 1469 moveto
2106 1907 1936 2135 conicto
1761 2359 1440 2359 conicto
1133 2359 963 2130 conicto
788 1907 754 1469 conicto
2121 1469 lineto
2636 1216 moveto
754 1216 lineto
754 1197 lineto
754 681 944 428 conicto
1138 165 1513 165 conicto
1805 165 1985 316 conicto
2169 472 2242 764 conicto
2593 764 lineto
2490 350 2208 141 conicto
1926 -68 1469 -68 conicto
914 -68 578 297 conicto
243 662 243 1265 conicto
243 1858 574 2228 conicto
905 2593 1440 2593 conicto
2014 2593 2320 2237 conicto
2631 1882 2636 1216 conicto
end_ol grestore 
gsave 6.040807 9.173660 translate 0.035278 -0.035278 scale
start_ol
end_ol grestore 
gsave 6.243114 9.173660 translate 0.035278 -0.035278 scale
start_ol
2763 0 moveto
1936 0 lineto
1936 272 lineto
1785 92 1600 15 conicto
1406 -68 1158 -68 conicto
734 -68 491 156 conicto
243 379 243 759 conicto
243 1158 525 1367 conicto
812 1581 1323 1581 conicto
1936 1581 lineto
1936 1756 lineto
1936 2048 1761 2199 conicto
1586 2359 1270 2359 conicto
997 2359 856 2237 conicto
700 2121 662 1887 conicto
438 1887 lineto
438 2398 lineto
657 2490 880 2544 conicto
1080 2593 1299 2593 conicto
1819 2593 2101 2335 conicto
2374 2072 2374 1576 conicto
2374 253 lineto
2763 253 lineto
2763 0 lineto
1936 793 moveto
1936 1328 lineto
1372 1328 lineto
1051 1328 885 1187 conicto
730 1046 730 759 conicto
730 496 890 340 conicto
1055 185 1328 185 conicto
1595 185 1770 350 conicto
1936 530 1936 793 conicto
1625 2991 moveto
1347 2991 lineto
540 3886 lineto
1007 3886 lineto
1625 2991 lineto
end_ol grestore 
gsave 6.625255 9.173660 translate 0.035278 -0.035278 scale
start_ol
end_ol grestore 
gsave 6.827562 9.173660 translate 0.035278 -0.035278 scale
start_ol
2121 1469 moveto
2106 1907 1936 2135 conicto
1761 2359 1440 2359 conicto
1133 2359 963 2130 conicto
788 1907 754 1469 conicto
2121 1469 lineto
2636 1216 moveto
754 1216 lineto
754 1197 lineto
754 681 944 428 conicto
1138 165 1513 165 conicto
1805 165 1985 316 conicto
2169 472 2242 764 conicto
2593 764 lineto
2490 350 2208 141 conicto
1926 -68 1469 -68 conicto
914 -68 578 297 conicto
243 662 243 1265 conicto
243 1858 574 2228 conicto
905 2593 1440 2593 conicto
2014 2593 2320 2237 conicto
2631 1882 2636 1216 conicto
2242 3891 moveto
1435 2996 lineto
1158 2996 lineto
1770 3891 lineto
2242 3891 lineto
end_ol grestore 
gsave 7.204709 9.173660 translate 0.035278 -0.035278 scale
start_ol
2500 759 moveto
2403 345 2145 146 conicto
1887 -68 1464 -68 conicto
914 -68 578 297 conicto
243 662 243 1265 conicto
243 1878 579 2233 conicto
914 2593 1464 2593 conicto
1688 2593 1941 2539 conicto
2160 2486 2417 2369 conicto
2417 1722 lineto
2164 1722 lineto
2116 2048 1946 2208 conicto
1770 2359 1469 2359 conicto
1119 2359 934 2082 conicto
754 1814 754 1264 conicto
754 715 934 443 conicto
1119 165 1469 165 conicto
1756 165 1916 311 conicto
2082 457 2150 759 conicto
2500 759 lineto
end_ol grestore 
gsave 7.561872 9.173660 translate 0.035278 -0.035278 scale
start_ol
2325 1897 moveto
2072 1897 lineto
2067 2082 1970 2179 conicto
1878 2271 1698 2271 conicto
1372 2271 1206 2048 conicto
1031 1819 1031 1406 conicto
1031 253 lineto
1537 253 lineto
1537 0 lineto
199 0 lineto
199 253 lineto
593 253 lineto
593 2276 lineto
175 2276 lineto
175 2524 lineto
1031 2524 lineto
1031 2077 lineto
1158 2340 1362 2466 conicto
1561 2593 1853 2593 conicto
1960 2593 2077 2578 conicto
2325 2529 lineto
2325 1897 lineto
end_ol grestore 
gsave 7.866581 9.173660 translate 0.035278 -0.035278 scale
start_ol
1445 0 moveto
175 0 lineto
175 253 lineto
593 253 lineto
593 2271 lineto
175 2271 lineto
175 2524 lineto
1031 2524 lineto
1031 253 lineto
1445 253 lineto
1445 0 lineto
1012 3308 moveto
1012 3196 934 3118 conicto
856 3040 744 3040 conicto
627 3040 554 3118 conicto
472 3196 472 3307 conicto
472 3419 554 3497 conicto
627 3580 744 3580 conicto
846 3580 934 3502 conicto
1012 3410 1012 3308 conicto
end_ol grestore 
gsave 8.071385 9.173660 translate 0.035278 -0.035278 scale
start_ol
2325 1897 moveto
2072 1897 lineto
2067 2082 1970 2179 conicto
1878 2271 1698 2271 conicto
1372 2271 1206 2048 conicto
1031 1819 1031 1406 conicto
1031 253 lineto
1537 253 lineto
1537 0 lineto
199 0 lineto
199 253 lineto
593 253 lineto
593 2276 lineto
175 2276 lineto
175 2524 lineto
1031 2524 lineto
1031 2077 lineto
1158 2340 1362 2466 conicto
1561 2593 1853 2593 conicto
1960 2593 2077 2578 conicto
2325 2529 lineto
2325 1897 lineto
end_ol grestore 
gsave 8.376094 9.173660 translate 0.035278 -0.035278 scale
start_ol
2121 1469 moveto
2106 1907 1936 2135 conicto
1761 2359 1440 2359 conicto
1133 2359 963 2130 conicto
788 1907 754 1469 conicto
2121 1469 lineto
2636 1216 moveto
754 1216 lineto
754 1197 lineto
754 681 944 428 conicto
1138 165 1513 165 conicto
1805 165 1985 316 conicto
2169 472 2242 764 conicto
2593 764 lineto
2490 350 2208 141 conicto
1926 -68 1469 -68 conicto
914 -68 578 297 conicto
243 662 243 1265 conicto
243 1858 574 2228 conicto
905 2593 1440 2593 conicto
2014 2593 2320 2237 conicto
2631 1882 2636 1216 conicto
end_ol grestore 
0.100000 slw
[] 0 sd
0 slj
0 slc
1.000000 1.000000 1.000000 srgb
n 13.000000 7.184650 m 19.150000 7.184650 l 19.150000 10.784650 l 13.000000 10.784650 l ef
0.000000 0.000000 0.000000 srgb
n 13.000000 7.184650 m 19.150000 7.184650 l 19.150000 10.784650 l 13.000000 10.784650 l cp s
gsave 13.782500 8.770900 translate 0.035278 -0.035278 scale
start_ol
3098 2549 moveto
3098 2087 2787 1819 conicto
2466 1552 1946 1552 conicto
1201 1552 lineto
1201 253 lineto
1751 253 lineto
1751 0 lineto
268 0 lineto
268 253 lineto
720 253 lineto
720 3293 lineto
268 3293 lineto
268 3546 lineto
1946 3546 lineto
2466 3546 2787 3278 conicto
3098 3001 3098 2549 conicto
2554 2549 moveto
2554 2909 2369 3103 conicto
2189 3293 1829 3293 conicto
1201 3293 lineto
1201 1805 lineto
1829 1805 lineto
2189 1805 2369 1994 conicto
2554 2194 2554 2549 conicto
end_ol grestore 
gsave 14.212092 8.770900 translate 0.035278 -0.035278 scale
start_ol
1411 0 moveto
141 0 lineto
141 253 lineto
559 253 lineto
559 3444 lineto
141 3444 lineto
141 3697 lineto
997 3697 lineto
997 253 lineto
1411 253 lineto
1411 0 lineto
end_ol grestore 
gsave 14.416896 8.770900 translate 0.035278 -0.035278 scale
start_ol
2763 0 moveto
1936 0 lineto
1936 272 lineto
1785 92 1600 15 conicto
1406 -68 1158 -68 conicto
734 -68 491 156 conicto
243 379 243 759 conicto
243 1158 525 1367 conicto
812 1581 1323 1581 conicto
1936 1581 lineto
1936 1756 lineto
1936 2048 1761 2199 conicto
1586 2359 1270 2359 conicto
997 2359 856 2237 conicto
700 2121 662 1887 conicto
438 1887 lineto
438 2398 lineto
657 2490 880 2544 conicto
1080 2593 1299 2593 conicto
1819 2593 2101 2335 conicto
2374 2072 2374 1576 conicto
2374 253 lineto
2763 253 lineto
2763 0 lineto
1936 793 moveto
1936 1328 lineto
1372 1328 lineto
1051 1328 885 1187 conicto
730 1046 730 759 conicto
730 496 890 340 conicto
1055 185 1328 185 conicto
1595 185 1770 350 conicto
1936 530 1936 793 conicto
end_ol grestore 
gsave 14.799037 8.770900 translate 0.035278 -0.035278 scale
start_ol
2996 0 moveto
1790 0 lineto
1790 253 lineto
2169 253 lineto
2169 1469 lineto
2169 1936 2053 2101 conicto
1941 2276 1654 2276 conicto
1352 2276 1191 2052 conicto
1031 1829 1031 1406 conicto
1031 253 lineto
1411 253 lineto
1411 0 lineto
199 0 lineto
199 253 lineto
593 253 lineto
593 2271 lineto
175 2271 lineto
175 2524 lineto
1031 2524 lineto
1031 2077 lineto
1158 2340 1342 2461 conicto
1537 2593 1795 2593 conicto
2218 2593 2413 2354 conicto
2607 2106 2607 1605 conicto
2607 253 lineto
2996 253 lineto
2996 0 lineto
end_ol grestore 
gsave 15.211151 8.770900 translate 0.035278 -0.035278 scale
start_ol
2996 0 moveto
1790 0 lineto
1790 253 lineto
2169 253 lineto
2169 1469 lineto
2169 1936 2053 2101 conicto
1941 2276 1654 2276 conicto
1352 2276 1191 2052 conicto
1031 1829 1031 1406 conicto
1031 253 lineto
1411 253 lineto
1411 0 lineto
199 0 lineto
199 253 lineto
593 253 lineto
593 2271 lineto
175 2271 lineto
175 2524 lineto
1031 2524 lineto
1031 2077 lineto
1158 2340 1342 2461 conicto
1537 2593 1795 2593 conicto
2218 2593 2413 2354 conicto
2607 2106 2607 1605 conicto
2607 253 lineto
2996 253 lineto
2996 0 lineto
end_ol grestore 
gsave 15.623264 8.770900 translate 0.035278 -0.035278 scale
start_ol
1445 0 moveto
175 0 lineto
175 253 lineto
593 253 lineto
593 2271 lineto
175 2271 lineto
175 2524 lineto
1031 2524 lineto
1031 253 lineto
1445 253 lineto
1445 0 lineto
1012 3308 moveto
1012 3196 934 3118 conicto
856 3040 744 3040 conicto
627 3040 554 3118 conicto
472 3196 472 3307 conicto
472 3419 554 3497 conicto
627 3580 744 3580 conicto
846 3580 934 3502 conicto
1012 3410 1012 3308 conicto
end_ol grestore 
gsave 15.828068 8.770900 translate 0.035278 -0.035278 scale
start_ol
2092 3098 moveto
1863 3098 lineto
1863 3278 1761 3371 conicto
1668 3463 1474 3463 conicto
1231 3463 1128 3327 conicto
1031 3191 1031 2850 conicto
1031 2524 lineto
1736 2524 lineto
1736 2271 lineto
1031 2271 lineto
1031 253 lineto
1591 253 lineto
1591 0 lineto
175 0 lineto
175 253 lineto
593 253 lineto
593 2271 lineto
175 2271 lineto
175 2524 lineto
593 2524 lineto
593 2841 lineto
593 3264 812 3483 conicto
1036 3697 1459 3697 conicto
1620 3697 1780 3667 conicto
1941 3638 2092 3580 conicto
2092 3098 lineto
end_ol grestore 
gsave 16.065342 8.770900 translate 0.035278 -0.035278 scale
start_ol
1445 0 moveto
175 0 lineto
175 253 lineto
593 253 lineto
593 2271 lineto
175 2271 lineto
175 2524 lineto
1031 2524 lineto
1031 253 lineto
1445 253 lineto
1445 0 lineto
1012 3308 moveto
1012 3196 934 3118 conicto
856 3040 744 3040 conicto
627 3040 554 3118 conicto
472 3196 472 3307 conicto
472 3419 554 3497 conicto
627 3580 744 3580 conicto
846 3580 934 3502 conicto
1012 3410 1012 3308 conicto
end_ol grestore 
gsave 16.270146 8.770900 translate 0.035278 -0.035278 scale
start_ol
2500 759 moveto
2403 345 2145 146 conicto
1887 -68 1464 -68 conicto
914 -68 578 297 conicto
243 662 243 1265 conicto
243 1878 579 2233 conicto
914 2593 1464 2593 conicto
1688 2593 1941 2539 conicto
2160 2486 2417 2369 conicto
2417 1722 lineto
2164 1722 lineto
2116 2048 1946 2208 conicto
1770 2359 1469 2359 conicto
1119 2359 934 2082 conicto
754 1814 754 1264 conicto
754 715 934 443 conicto
1119 165 1469 165 conicto
1756 165 1916 311 conicto
2082 457 2150 759 conicto
2500 759 lineto
end_ol grestore 
gsave 16.627308 8.770900 translate 0.035278 -0.035278 scale
start_ol
2763 0 moveto
1936 0 lineto
1936 272 lineto
1785 92 1600 15 conicto
1406 -68 1158 -68 conicto
734 -68 491 156 conicto
243 379 243 759 conicto
243 1158 525 1367 conicto
812 1581 1323 1581 conicto
1936 1581 lineto
1936 1756 lineto
1936 2048 1761 2199 conicto
1586 2359 1270 2359 conicto
997 2359 856 2237 conicto
700 2121 662 1887 conicto
438 1887 lineto
438 2398 lineto
657 2490 880 2544 conicto
1080 2593 1299 2593 conicto
1819 2593 2101 2335 conicto
2374 2072 2374 1576 conicto
2374 253 lineto
2763 253 lineto
2763 0 lineto
1936 793 moveto
1936 1328 lineto
1372 1328 lineto
1051 1328 885 1187 conicto
730 1046 730 759 conicto
730 496 890 340 conicto
1055 185 1328 185 conicto
1595 185 1770 350 conicto
1936 530 1936 793 conicto
end_ol grestore 
gsave 17.009449 8.770900 translate 0.035278 -0.035278 scale
start_ol
1916 593 moveto
1897 253 1732 88 conicto
1552 -68 1216 -68 conicto
837 -68 681 97 conicto
525 277 525 666 conicto
525 2271 lineto
141 2271 lineto
141 2524 lineto
525 2524 lineto
525 3308 lineto
963 3308 lineto
963 2524 lineto
1785 2524 lineto
1785 2271 lineto
963 2271 lineto
963 666 lineto
963 345 1026 253 conicto
1090 165 1255 165 conicto
1420 165 1503 268 conicto
1576 365 1586 593 conicto
1916 593 lineto
end_ol grestore 
gsave 17.266707 8.770900 translate 0.035278 -0.035278 scale
start_ol
2121 1469 moveto
2106 1907 1936 2135 conicto
1761 2359 1440 2359 conicto
1133 2359 963 2130 conicto
788 1907 754 1469 conicto
2121 1469 lineto
2636 1216 moveto
754 1216 lineto
754 1197 lineto
754 681 944 428 conicto
1138 165 1513 165 conicto
1805 165 1985 316 conicto
2169 472 2242 764 conicto
2593 764 lineto
2490 350 2208 141 conicto
1926 -68 1469 -68 conicto
914 -68 578 297 conicto
243 662 243 1265 conicto
243 1858 574 2228 conicto
905 2593 1440 2593 conicto
2014 2593 2320 2237 conicto
2631 1882 2636 1216 conicto
end_ol grestore 
gsave 17.643854 8.770900 translate 0.035278 -0.035278 scale
start_ol
2952 0 moveto
2101 0 lineto
2101 447 lineto
1980 195 1790 63 conicto
1595 -68 1342 -68 conicto
919 -68 725 170 conicto
525 413 525 919 conicto
525 2271 lineto
131 2271 lineto
131 2524 lineto
963 2524 lineto
963 1055 lineto
963 593 1080 423 conicto
1192 253 1479 253 conicto
1780 253 1941 477 conicto
2101 705 2101 1124 conicto
2101 2271 lineto
1722 2271 lineto
1722 2524 lineto
2539 2524 lineto
2539 253 lineto
2952 253 lineto
2952 0 lineto
end_ol grestore 
gsave 18.055967 8.770900 translate 0.035278 -0.035278 scale
start_ol
2325 1897 moveto
2072 1897 lineto
2067 2082 1970 2179 conicto
1878 2271 1698 2271 conicto
1372 2271 1206 2048 conicto
1031 1819 1031 1406 conicto
1031 253 lineto
1537 253 lineto
1537 0 lineto
199 0 lineto
199 253 lineto
593 253 lineto
593 2276 lineto
175 2276 lineto
175 2524 lineto
1031 2524 lineto
1031 2077 lineto
1158 2340 1362 2466 conicto
1561 2593 1853 2593 conicto
1960 2593 2077 2578 conicto
2325 2529 lineto
2325 1897 lineto
end_ol grestore 
gsave 13.502500 9.570900 translate 0.035278 -0.035278 scale
start_ol
2116 1138 moveto
2116 1386 lineto
2116 1834 1941 2082 conicto
1761 2320 1435 2320 conicto
1099 2320 924 2053 conicto
754 1785 754 1265 conicto
754 749 924 476 conicto
1094 204 1435 204 conicto
1766 204 1941 442 conicto
2116 681 2116 1138 conicto
2972 0 moveto
2116 0 lineto
2116 394 lineto
1994 156 1790 44 conicto
1591 -68 1299 -68 conicto
832 -68 535 302 conicto
243 671 243 1264 conicto
243 1858 535 2228 conicto
837 2593 1299 2593 conicto
1591 2593 1790 2481 conicto
1994 2369 2116 2130 conicto
2116 3444 lineto
1702 3444 lineto
1702 3697 lineto
2554 3697 lineto
2554 253 lineto
2972 253 lineto
2972 0 lineto
end_ol grestore 
gsave 13.912116 9.570900 translate 0.035278 -0.035278 scale
start_ol
2121 1469 moveto
2106 1907 1936 2135 conicto
1761 2359 1440 2359 conicto
1133 2359 963 2130 conicto
788 1907 754 1469 conicto
2121 1469 lineto
2636 1216 moveto
754 1216 lineto
754 1197 lineto
754 681 944 428 conicto
1138 165 1513 165 conicto
1805 165 1985 316 conicto
2169 472 2242 764 conicto
2593 764 lineto
2490 350 2208 141 conicto
1926 -68 1469 -68 conicto
914 -68 578 297 conicto
243 662 243 1265 conicto
243 1858 574 2228 conicto
905 2593 1440 2593 conicto
2014 2593 2320 2237 conicto
2631 1882 2636 1216 conicto
end_ol grestore 
gsave 14.289263 9.570900 translate 0.035278 -0.035278 scale
start_ol
1411 0 moveto
141 0 lineto
141 253 lineto
559 253 lineto
559 3444 lineto
141 3444 lineto
141 3697 lineto
997 3697 lineto
997 253 lineto
1411 253 lineto
1411 0 lineto
end_ol grestore 
gsave 14.494067 9.570900 translate 0.035278 -0.035278 scale
start_ol
1916 593 moveto
1897 253 1732 88 conicto
1552 -68 1216 -68 conicto
837 -68 681 97 conicto
525 277 525 666 conicto
525 2271 lineto
141 2271 lineto
141 2524 lineto
525 2524 lineto
525 3308 lineto
963 3308 lineto
963 2524 lineto
1785 2524 lineto
1785 2271 lineto
963 2271 lineto
963 666 lineto
963 345 1026 253 conicto
1090 165 1255 165 conicto
1420 165 1503 268 conicto
1576 365 1586 593 conicto
1916 593 lineto
end_ol grestore 
gsave 14.751325 9.570900 translate 0.035278 -0.035278 scale
start_ol
2763 0 moveto
1936 0 lineto
1936 272 lineto
1785 92 1600 15 conicto
1406 -68 1158 -68 conicto
734 -68 491 156 conicto
243 379 243 759 conicto
243 1158 525 1367 conicto
812 1581 1323 1581 conicto
1936 1581 lineto
1936 1756 lineto
1936 2048 1761 2199 conicto
1586 2359 1270 2359 conicto
997 2359 856 2237 conicto
700 2121 662 1887 conicto
438 1887 lineto
438 2398 lineto
657 2490 880 2544 conicto
1080 2593 1299 2593 conicto
1819 2593 2101 2335 conicto
2374 2072 2374 1576 conicto
2374 253 lineto
2763 253 lineto
2763 0 lineto
1936 793 moveto
1936 1328 lineto
1372 1328 lineto
1051 1328 885 1187 conicto
730 1046 730 759 conicto
730 496 890 340 conicto
1055 185 1328 185 conicto
1595 185 1770 350 conicto
1936 530 1936 793 conicto
end_ol grestore 
gsave 15.133466 9.570900 translate 0.035278 -0.035278 scale
start_ol
1430 1119 moveto
214 1119 lineto
214 1488 lineto
1430 1488 lineto
1430 1119 lineto
end_ol grestore 
gsave 15.348258 9.570900 translate 0.035278 -0.035278 scale
start_ol
1411 0 moveto
141 0 lineto
141 253 lineto
559 253 lineto
559 3444 lineto
141 3444 lineto
141 3697 lineto
997 3697 lineto
997 253 lineto
1411 253 lineto
1411 0 lineto
end_ol grestore 
gsave 15.553062 9.570900 translate 0.035278 -0.035278 scale
start_ol
2685 1265 moveto
2685 666 2354 297 conicto
2019 -68 1464 -68 conicto
914 -68 578 297 conicto
243 662 243 1265 conicto
243 1868 574 2228 conicto
910 2593 1464 2593 conicto
2019 2593 2354 2228 conicto
2685 1868 2685 1265 conicto
2174 1265 moveto
2174 1809 1994 2082 conicto
1809 2359 1464 2359 conicto
1119 2359 934 2082 conicto
754 1809 754 1264 conicto
754 720 934 447 conicto
1114 165 1464 165 conicto
1809 165 1994 443 conicto
2174 715 2174 1265 conicto
end_ol grestore 
gsave 15.937700 9.570900 translate 0.035278 -0.035278 scale
start_ol
2116 1138 moveto
2116 1386 lineto
2116 1834 1941 2082 conicto
1761 2320 1435 2320 conicto
1099 2320 924 2053 conicto
754 1785 754 1265 conicto
754 749 924 476 conicto
1094 204 1435 204 conicto
1766 204 1941 442 conicto
2116 681 2116 1138 conicto
2972 2271 moveto
2554 2271 lineto
2554 54 lineto
2554 -482 2257 -788 conicto
1950 -1080 1401 -1080 conicto
1148 -1080 924 -1036 conicto
691 -992 486 -900 conicto
486 -370 lineto
715 -370 lineto
759 -618 914 -730 conicto
1075 -846 1372 -846 conicto
1751 -846 1936 -627 conicto
2116 -413 2116 54 conicto
2116 394 lineto
1994 156 1790 44 conicto
1591 -68 1299 -68 conicto
832 -68 535 302 conicto
243 671 243 1264 conicto
243 1858 535 2228 conicto
837 2593 1299 2593 conicto
1591 2593 1790 2481 conicto
1994 2369 2116 2130 conicto
2116 2524 lineto
2972 2524 lineto
2972 2271 lineto
end_ol grestore 
gsave 16.347317 9.570900 translate 0.035278 -0.035278 scale
start_ol
2996 0 moveto
1790 0 lineto
1790 253 lineto
2169 253 lineto
2169 1469 lineto
2169 1936 2053 2101 conicto
1941 2276 1654 2276 conicto
1352 2276 1191 2052 conicto
1031 1829 1031 1406 conicto
1031 253 lineto
1411 253 lineto
1411 0 lineto
199 0 lineto
199 253 lineto
593 253 lineto
593 2271 lineto
175 2271 lineto
175 2524 lineto
1031 2524 lineto
1031 2077 lineto
1158 2340 1342 2461 conicto
1537 2593 1795 2593 conicto
2218 2593 2413 2354 conicto
2607 2106 2607 1605 conicto
2607 253 lineto
2996 253 lineto
2996 0 lineto
end_ol grestore 
gsave 16.759430 9.570900 translate 0.035278 -0.035278 scale
start_ol
2685 1265 moveto
2685 666 2354 297 conicto
2019 -68 1464 -68 conicto
914 -68 578 297 conicto
243 662 243 1265 conicto
243 1868 574 2228 conicto
910 2593 1464 2593 conicto
2019 2593 2354 2228 conicto
2685 1868 2685 1265 conicto
2174 1265 moveto
2174 1809 1994 2082 conicto
1809 2359 1464 2359 conicto
1119 2359 934 2082 conicto
754 1809 754 1264 conicto
754 720 934 447 conicto
1114 165 1464 165 conicto
1809 165 1994 443 conicto
2174 715 2174 1265 conicto
end_ol grestore 
gsave 17.144068 9.570900 translate 0.035278 -0.035278 scale
start_ol
2325 1897 moveto
2072 1897 lineto
2067 2082 1970 2179 conicto
1878 2271 1698 2271 conicto
1372 2271 1206 2048 conicto
1031 1819 1031 1406 conicto
1031 253 lineto
1537 253 lineto
1537 0 lineto
199 0 lineto
199 253 lineto
593 253 lineto
593 2276 lineto
175 2276 lineto
175 2524 lineto
1031 2524 lineto
1031 2077 lineto
1158 2340 1362 2466 conicto
1561 2593 1853 2593 conicto
1960 2593 2077 2578 conicto
2325 2529 lineto
2325 1897 lineto
end_ol grestore 
gsave 17.448777 9.570900 translate 0.035278 -0.035278 scale
start_ol
4480 0 moveto
3269 0 lineto
3269 253 lineto
3648 253 lineto
3648 1556 lineto
3648 1946 3531 2111 conicto
3424 2271 3157 2271 conicto
2860 2271 2714 2053 conicto
2558 1834 2558 1406 conicto
2558 253 lineto
2938 253 lineto
2938 0 lineto
1741 0 lineto
1741 253 lineto
2121 253 lineto
2121 1571 lineto
2121 1950 2004 2111 conicto
1892 2271 1629 2271 conicto
1333 2271 1187 2053 conicto
1031 1834 1031 1406 conicto
1031 253 lineto
1411 253 lineto
1411 0 lineto
199 0 lineto
199 253 lineto
593 253 lineto
593 2276 lineto
175 2276 lineto
175 2524 lineto
1031 2524 lineto
1031 2077 lineto
1153 2330 1342 2461 conicto
1527 2593 1766 2593 conicto
2062 2593 2257 2447 conicto
2456 2301 2520 2033 conicto
2641 2306 2841 2451 conicto
3050 2593 3298 2593 conicto
3697 2593 3891 2344 conicto
4086 2106 4086 1605 conicto
4086 253 lineto
4480 253 lineto
4480 0 lineto
end_ol grestore 
gsave 18.055706 9.570900 translate 0.035278 -0.035278 scale
start_ol
2763 0 moveto
1936 0 lineto
1936 272 lineto
1785 92 1600 15 conicto
1406 -68 1158 -68 conicto
734 -68 491 156 conicto
243 379 243 759 conicto
243 1158 525 1367 conicto
812 1581 1323 1581 conicto
1936 1581 lineto
1936 1756 lineto
1936 2048 1761 2199 conicto
1586 2359 1270 2359 conicto
997 2359 856 2237 conicto
700 2121 662 1887 conicto
438 1887 lineto
438 2398 lineto
657 2490 880 2544 conicto
1080 2593 1299 2593 conicto
1819 2593 2101 2335 conicto
2374 2072 2374 1576 conicto
2374 253 lineto
2763 253 lineto
2763 0 lineto
1936 793 moveto
1936 1328 lineto
1372 1328 lineto
1051 1328 885 1187 conicto
730 1046 730 759 conicto
730 496 890 340 conicto
1055 185 1328 185 conicto
1595 185 1770 350 conicto
1936 530 1936 793 conicto
end_ol grestore 
gsave 18.437847 9.570900 translate 0.035278 -0.035278 scale
start_ol
1411 0 moveto
141 0 lineto
141 253 lineto
559 253 lineto
559 3444 lineto
141 3444 lineto
141 3697 lineto
997 3697 lineto
997 253 lineto
1411 253 lineto
1411 0 lineto
end_ol grestore 
0.100000 slw
[] 0 sd
0 slc
0 slj
0.100000 slw
0 slc
0 slj
[] 0 sd
1.000000 1.000000 1.000000 srgb
n 24.501200 9.011030 1.000000 1.000000 0 360 ellipse f
0.000000 0.000000 0.000000 srgb
n 24.501200 9.011030 1.000000 1.000000 0 360 ellipse cp s
0 slc
0 slj
[] 0 sd
n 23.794093 8.303923 m 24.501200 9.011030 l 25.208310 8.303923 l s
0.000100 slw
0 slc
0 slj
[] 0 sd
n 23.794093 9.718140 m 23.794093 9.718140 24.053177 10.011030 24.501200 10.011030 c 24.949220 10.011030 25.208310 9.718140 25.208310 9.718140 c 24.501200 9.011030 l 23.794093 9.718140 l ef
n 23.794093 9.718140 m 23.794093 9.718140 24.053177 10.011030 24.501200 10.011030 c 24.949220 10.011030 25.208310 9.718140 25.208310 9.718140 c 24.501200 9.011030 l 23.794093 9.718140 l s
0.100000 slw
[] 0 sd
0 slj
0 slc
1.000000 1.000000 1.000000 srgb
n 27.500400 7.000000 m 32.500400 7.000000 l 32.500400 11.000000 l 27.500400 11.000000 l ef
0.000000 0.000000 0.000000 srgb
n 27.500400 7.000000 m 32.500400 7.000000 l 32.500400 11.000000 l 27.500400 11.000000 l cp s
gsave 28.231650 9.186250 translate 0.035278 -0.035278 scale
start_ol
3429 939 moveto
3278 447 2904 185 conicto
2524 -68 1970 -68 conicto
1629 -68 1323 49 conicto
1017 180 798 399 conicto
530 666 399 1002 conicto
272 1352 272 1770 conicto
272 2597 749 3103 conicto
1226 3609 2009 3609 conicto
2310 3609 2627 3531 conicto
2938 3463 3332 3303 conicto
3332 2486 lineto
3064 2486 lineto
2977 2938 2714 3142 conicto
2451 3356 1970 3356 conicto
1401 3356 1109 2952 conicto
817 2549 817 1770 conicto
817 992 1109 589 conicto
1401 185 1970 185 conicto
2364 185 2627 375 conicto
2884 569 2991 939 conicto
3429 939 lineto
end_ol grestore 
gsave 28.721187 9.186250 translate 0.035278 -0.035278 scale
start_ol
2685 1265 moveto
2685 666 2354 297 conicto
2019 -68 1464 -68 conicto
914 -68 578 297 conicto
243 662 243 1265 conicto
243 1868 574 2228 conicto
910 2593 1464 2593 conicto
2019 2593 2354 2228 conicto
2685 1868 2685 1265 conicto
2174 1265 moveto
2174 1809 1994 2082 conicto
1809 2359 1464 2359 conicto
1119 2359 934 2082 conicto
754 1809 754 1264 conicto
754 720 934 447 conicto
1114 165 1464 165 conicto
1809 165 1994 443 conicto
2174 715 2174 1265 conicto
end_ol grestore 
gsave 29.105825 9.186250 translate 0.035278 -0.035278 scale
start_ol
2996 0 moveto
1790 0 lineto
1790 253 lineto
2169 253 lineto
2169 1469 lineto
2169 1936 2053 2101 conicto
1941 2276 1654 2276 conicto
1352 2276 1191 2052 conicto
1031 1829 1031 1406 conicto
1031 253 lineto
1411 253 lineto
1411 0 lineto
199 0 lineto
199 253 lineto
593 253 lineto
593 2271 lineto
175 2271 lineto
175 2524 lineto
1031 2524 lineto
1031 2077 lineto
1158 2340 1342 2461 conicto
1537 2593 1795 2593 conicto
2218 2593 2413 2354 conicto
2607 2106 2607 1605 conicto
2607 253 lineto
2996 253 lineto
2996 0 lineto
end_ol grestore 
gsave 29.517938 9.186250 translate 0.035278 -0.035278 scale
start_ol
1916 593 moveto
1897 253 1732 88 conicto
1552 -68 1216 -68 conicto
837 -68 681 97 conicto
525 277 525 666 conicto
525 2271 lineto
141 2271 lineto
141 2524 lineto
525 2524 lineto
525 3308 lineto
963 3308 lineto
963 2524 lineto
1785 2524 lineto
1785 2271 lineto
963 2271 lineto
963 666 lineto
963 345 1026 253 conicto
1090 165 1255 165 conicto
1420 165 1503 268 conicto
1576 365 1586 593 conicto
1916 593 lineto
end_ol grestore 
gsave 29.775196 9.186250 translate 0.035278 -0.035278 scale
start_ol
2325 1897 moveto
2072 1897 lineto
2067 2082 1970 2179 conicto
1878 2271 1698 2271 conicto
1372 2271 1206 2048 conicto
1031 1819 1031 1406 conicto
1031 253 lineto
1537 253 lineto
1537 0 lineto
199 0 lineto
199 253 lineto
593 253 lineto
593 2276 lineto
175 2276 lineto
175 2524 lineto
1031 2524 lineto
1031 2077 lineto
1158 2340 1362 2466 conicto
1561 2593 1853 2593 conicto
1960 2593 2077 2578 conicto
2325 2529 lineto
2325 1897 lineto
end_ol grestore 
gsave 30.079905 9.186250 translate 0.035278 -0.035278 scale
start_ol
2685 1265 moveto
2685 666 2354 297 conicto
2019 -68 1464 -68 conicto
914 -68 578 297 conicto
243 662 243 1265 conicto
243 1868 574 2228 conicto
910 2593 1464 2593 conicto
2019 2593 2354 2228 conicto
2685 1868 2685 1265 conicto
2174 1265 moveto
2174 1809 1994 2082 conicto
1809 2359 1464 2359 conicto
1119 2359 934 2082 conicto
754 1809 754 1264 conicto
754 720 934 447 conicto
1114 165 1464 165 conicto
1809 165 1994 443 conicto
2174 715 2174 1265 conicto
2223 2996 moveto
1946 2996 lineto
1464 3614 lineto
983 2996 lineto
705 2996 lineto
1265 3891 lineto
1663 3891 lineto
2223 2996 lineto
end_ol grestore 
gsave 30.464543 9.186250 translate 0.035278 -0.035278 scale
start_ol
1411 0 moveto
141 0 lineto
141 253 lineto
559 253 lineto
559 3444 lineto
141 3444 lineto
141 3697 lineto
997 3697 lineto
997 253 lineto
1411 253 lineto
1411 0 lineto
end_ol grestore 
gsave 30.669347 9.186250 translate 0.035278 -0.035278 scale
start_ol
2121 1469 moveto
2106 1907 1936 2135 conicto
1761 2359 1440 2359 conicto
1133 2359 963 2130 conicto
788 1907 754 1469 conicto
2121 1469 lineto
2636 1216 moveto
754 1216 lineto
754 1197 lineto
754 681 944 428 conicto
1138 165 1513 165 conicto
1805 165 1985 316 conicto
2169 472 2242 764 conicto
2593 764 lineto
2490 350 2208 141 conicto
1926 -68 1469 -68 conicto
914 -68 578 297 conicto
243 662 243 1265 conicto
243 1858 574 2228 conicto
905 2593 1440 2593 conicto
2014 2593 2320 2237 conicto
2631 1882 2636 1216 conicto
end_ol grestore 
gsave 31.046494 9.186250 translate 0.035278 -0.035278 scale
start_ol
2952 0 moveto
2101 0 lineto
2101 447 lineto
1980 195 1790 63 conicto
1595 -68 1342 -68 conicto
919 -68 725 170 conicto
525 413 525 919 conicto
525 2271 lineto
131 2271 lineto
131 2524 lineto
963 2524 lineto
963 1055 lineto
963 593 1080 423 conicto
1192 253 1479 253 conicto
1780 253 1941 477 conicto
2101 705 2101 1124 conicto
2101 2271 lineto
1722 2271 lineto
1722 2524 lineto
2539 2524 lineto
2539 253 lineto
2952 253 lineto
2952 0 lineto
end_ol grestore 
gsave 31.458608 9.186250 translate 0.035278 -0.035278 scale
start_ol
2325 1897 moveto
2072 1897 lineto
2067 2082 1970 2179 conicto
1878 2271 1698 2271 conicto
1372 2271 1206 2048 conicto
1031 1819 1031 1406 conicto
1031 253 lineto
1537 253 lineto
1537 0 lineto
199 0 lineto
199 253 lineto
593 253 lineto
593 2276 lineto
175 2276 lineto
175 2524 lineto
1031 2524 lineto
1031 2077 lineto
1158 2340 1362 2466 conicto
1561 2593 1853 2593 conicto
1960 2593 2077 2578 conicto
2325 2529 lineto
2325 1897 lineto
end_ol grestore 
0.100000 slw
[] 0 sd
0 slj
0 slc
1.000000 1.000000 1.000000 srgb
n 37.500000 7.000000 m 42.500000 7.000000 l 42.500000 11.000000 l 37.500000 11.000000 l ef
0.000000 0.000000 0.000000 srgb
n 37.500000 7.000000 m 42.500000 7.000000 l 42.500000 11.000000 l 37.500000 11.000000 l cp s
gsave 39.257500 8.778219 translate 0.035278 -0.035278 scale
start_ol
3278 1026 moveto
3278 501 2948 253 conicto
2617 0 1907 0 conicto
268 0 lineto
268 253 lineto
720 253 lineto
720 3293 lineto
268 3293 lineto
268 3546 lineto
2019 3546 lineto
2558 3546 2826 3327 conicto
3098 3108 3098 2670 conicto
3098 2354 2909 2169 conicto
2729 1980 2359 1936 conicto
2811 1878 3045 1644 conicto
3278 1415 3278 1026 conicto
2374 2199 moveto
2554 2344 2554 2670 conicto
2554 2996 2374 3142 conicto
2194 3293 1805 3293 conicto
1201 3293 lineto
1201 2048 lineto
1805 2048 lineto
2194 2048 2374 2199 conicto
2734 1026 moveto
2734 1420 2539 1615 conicto
2330 1795 1912 1795 conicto
1201 1795 lineto
1201 253 lineto
1912 253 lineto
2330 253 2539 438 conicto
2734 623 2734 1026 conicto
end_ol grestore 
gsave 39.727061 8.778219 translate 0.035278 -0.035278 scale
start_ol
2325 1897 moveto
2072 1897 lineto
2067 2082 1970 2179 conicto
1878 2271 1698 2271 conicto
1372 2271 1206 2048 conicto
1031 1819 1031 1406 conicto
1031 253 lineto
1537 253 lineto
1537 0 lineto
199 0 lineto
199 253 lineto
593 253 lineto
593 2276 lineto
175 2276 lineto
175 2524 lineto
1031 2524 lineto
1031 2077 lineto
1158 2340 1362 2466 conicto
1561 2593 1853 2593 conicto
1960 2593 2077 2578 conicto
2325 2529 lineto
2325 1897 lineto
end_ol grestore 
gsave 40.031770 8.778219 translate 0.035278 -0.035278 scale
start_ol
2763 0 moveto
1936 0 lineto
1936 272 lineto
1785 92 1600 15 conicto
1406 -68 1158 -68 conicto
734 -68 491 156 conicto
243 379 243 759 conicto
243 1158 525 1367 conicto
812 1581 1323 1581 conicto
1936 1581 lineto
1936 1756 lineto
1936 2048 1761 2199 conicto
1586 2359 1270 2359 conicto
997 2359 856 2237 conicto
700 2121 662 1887 conicto
438 1887 lineto
438 2398 lineto
657 2490 880 2544 conicto
1080 2593 1299 2593 conicto
1819 2593 2101 2335 conicto
2374 2072 2374 1576 conicto
2374 253 lineto
2763 253 lineto
2763 0 lineto
1936 793 moveto
1936 1328 lineto
1372 1328 lineto
1051 1328 885 1187 conicto
730 1046 730 759 conicto
730 496 890 340 conicto
1055 185 1328 185 conicto
1595 185 1770 350 conicto
1936 530 1936 793 conicto
end_ol grestore 
gsave 40.413911 8.778219 translate 0.035278 -0.035278 scale
start_ol
2247 700 moveto
2247 340 1975 136 conicto
1698 -68 1216 -68 conicto
983 -68 739 -15 conicto
516 34 272 141 conicto
272 730 lineto
525 730 lineto
530 452 700 306 conicto
880 165 1197 165 conicto
1493 165 1644 277 conicto
1800 384 1800 598 conicto
1800 764 1688 866 conicto
1581 968 1211 1085 conicto
895 1192 lineto
574 1294 423 1449 conicto
277 1610 277 1853 conicto
277 2208 535 2393 conicto
778 2593 1235 2593 conicto
1454 2593 1654 2539 conicto
1858 2500 2111 2388 conicto
2111 1839 lineto
1858 1839 lineto
1848 2087 1688 2218 conicto
1532 2359 1250 2359 conicto
973 2359 832 2261 conicto
691 2164 691 1970 conicto
691 1814 798 1712 conicto
919 1615 1226 1518 conicto
1571 1411 lineto
1936 1299 2092 1128 conicto
2247 963 2247 700 conicto
end_ol grestore 
gsave 38.426250 9.578219 translate 0.035278 -0.035278 scale
start_ol
2325 1897 moveto
2072 1897 lineto
2067 2082 1970 2179 conicto
1878 2271 1698 2271 conicto
1372 2271 1206 2048 conicto
1031 1819 1031 1406 conicto
1031 253 lineto
1537 253 lineto
1537 0 lineto
199 0 lineto
199 253 lineto
593 253 lineto
593 2276 lineto
175 2276 lineto
175 2524 lineto
1031 2524 lineto
1031 2077 lineto
1158 2340 1362 2466 conicto
1561 2593 1853 2593 conicto
1960 2593 2077 2578 conicto
2325 2529 lineto
2325 1897 lineto
end_ol grestore 
gsave 38.730959 9.578219 translate 0.035278 -0.035278 scale
start_ol
2685 1265 moveto
2685 666 2354 297 conicto
2019 -68 1464 -68 conicto
914 -68 578 297 conicto
243 662 243 1265 conicto
243 1868 574 2228 conicto
910 2593 1464 2593 conicto
2019 2593 2354 2228 conicto
2685 1868 2685 1265 conicto
2174 1265 moveto
2174 1809 1994 2082 conicto
1809 2359 1464 2359 conicto
1119 2359 934 2082 conicto
754 1809 754 1264 conicto
754 720 934 447 conicto
1114 165 1464 165 conicto
1809 165 1994 443 conicto
2174 715 2174 1265 conicto
end_ol grestore 
gsave 39.115597 9.578219 translate 0.035278 -0.035278 scale
start_ol
2189 472 moveto
2359 744 2359 1264 conicto
2359 1785 2189 2053 conicto
2014 2320 1678 2320 conicto
1352 2320 1172 2082 conicto
997 1834 997 1386 conicto
997 1138 lineto
997 681 1172 442 conicto
1347 204 1678 204 conicto
2014 204 2189 472 conicto
2578 2228 moveto
2870 1858 2870 1264 conicto
2870 671 2578 302 conicto
2281 -68 1814 -68 conicto
1522 -68 1323 44 conicto
1119 156 997 394 conicto
997 0 lineto
141 0 lineto
141 253 lineto
559 253 lineto
559 3444 lineto
141 3444 lineto
141 3697 lineto
997 3697 lineto
997 2130 lineto
1119 2369 1323 2481 conicto
1522 2593 1814 2593 conicto
2276 2593 2578 2228 conicto
end_ol grestore 
gsave 39.525213 9.578219 translate 0.035278 -0.035278 scale
start_ol
2685 1265 moveto
2685 666 2354 297 conicto
2019 -68 1464 -68 conicto
914 -68 578 297 conicto
243 662 243 1265 conicto
243 1868 574 2228 conicto
910 2593 1464 2593 conicto
2019 2593 2354 2228 conicto
2685 1868 2685 1265 conicto
2174 1265 moveto
2174 1809 1994 2082 conicto
1809 2359 1464 2359 conicto
1119 2359 934 2082 conicto
754 1809 754 1264 conicto
754 720 934 447 conicto
1114 165 1464 165 conicto
1809 165 1994 443 conicto
2174 715 2174 1265 conicto
end_ol grestore 
gsave 39.909851 9.578219 translate 0.035278 -0.035278 scale
start_ol
1916 593 moveto
1897 253 1732 88 conicto
1552 -68 1216 -68 conicto
837 -68 681 97 conicto
525 277 525 666 conicto
525 2271 lineto
141 2271 lineto
141 2524 lineto
525 2524 lineto
525 3308 lineto
963 3308 lineto
963 2524 lineto
1785 2524 lineto
1785 2271 lineto
963 2271 lineto
963 666 lineto
963 345 1026 253 conicto
1090 165 1255 165 conicto
1420 165 1503 268 conicto
1576 365 1586 593 conicto
1916 593 lineto
end_ol grestore 
gsave 40.167109 9.578219 translate 0.035278 -0.035278 scale
start_ol
1445 0 moveto
175 0 lineto
175 253 lineto
593 253 lineto
593 2271 lineto
175 2271 lineto
175 2524 lineto
1031 2524 lineto
1031 253 lineto
1445 253 lineto
1445 0 lineto
1012 3308 moveto
1012 3196 934 3118 conicto
856 3040 744 3040 conicto
627 3040 554 3118 conicto
472 3196 472 3307 conicto
472 3419 554 3497 conicto
627 3580 744 3580 conicto
846 3580 934 3502 conicto
1012 3410 1012 3308 conicto
end_ol grestore 
gsave 40.371913 9.578219 translate 0.035278 -0.035278 scale
start_ol
2116 1138 moveto
2116 1386 lineto
2116 1834 1941 2082 conicto
1761 2320 1435 2320 conicto
1099 2320 924 2053 conicto
754 1785 754 1265 conicto
754 749 924 476 conicto
1094 204 1435 204 conicto
1766 204 1941 442 conicto
2116 681 2116 1138 conicto
2972 -1012 moveto
1702 -1012 lineto
1702 -759 lineto
2116 -759 lineto
2116 394 lineto
1994 156 1790 44 conicto
1591 -68 1299 -68 conicto
832 -68 535 302 conicto
243 671 243 1264 conicto
243 1858 535 2228 conicto
837 2593 1299 2593 conicto
1591 2593 1790 2481 conicto
1994 2369 2116 2130 conicto
2116 2524 lineto
2972 2524 lineto
2972 2271 lineto
2554 2271 lineto
2554 -759 lineto
2972 -759 lineto
2972 -1012 lineto
end_ol grestore 
gsave 40.781529 9.578219 translate 0.035278 -0.035278 scale
start_ol
2952 0 moveto
2101 0 lineto
2101 447 lineto
1980 195 1790 63 conicto
1595 -68 1342 -68 conicto
919 -68 725 170 conicto
525 413 525 919 conicto
525 2271 lineto
131 2271 lineto
131 2524 lineto
963 2524 lineto
963 1055 lineto
963 593 1080 423 conicto
1192 253 1479 253 conicto
1780 253 1941 477 conicto
2101 705 2101 1124 conicto
2101 2271 lineto
1722 2271 lineto
1722 2524 lineto
2539 2524 lineto
2539 253 lineto
2952 253 lineto
2952 0 lineto
end_ol grestore 
gsave 41.193643 9.578219 translate 0.035278 -0.035278 scale
start_ol
2121 1469 moveto
2106 1907 1936 2135 conicto
1761 2359 1440 2359 conicto
1133 2359 963 2130 conicto
788 1907 754 1469 conicto
2121 1469 lineto
2636 1216 moveto
754 1216 lineto
754 1197 lineto
754 681 944 428 conicto
1138 165 1513 165 conicto
1805 165 1985 316 conicto
2169 472 2242 764 conicto
2593 764 lineto
2490 350 2208 141 conicto
1926 -68 1469 -68 conicto
914 -68 578 297 conicto
243 662 243 1265 conicto
243 1858 574 2228 conicto
905 2593 1440 2593 conicto
2014 2593 2320 2237 conicto
2631 1882 2636 1216 conicto
end_ol grestore 
0.100000 slw
[] 0 sd
0 slj
0 slc
n 42.500000 9.000000 m 45.000000 9.000000 l 45.000000 14.000000 l 24.500000 14.000000 l 24.501054 10.497803 l s
[] 0 sd
0 slj
0 slc
n 24.501166 10.122803 m 24.751016 10.622879 l 24.501054 10.497803 l 24.251016 10.622728 l ef
n 24.501166 10.122803 m 24.751016 10.622879 l 24.501054 10.497803 l 24.251016 10.622728 l cp s
0.100000 slw
[] 0 sd
0 slc
n 9.049377 8.986327 m 12.513197 8.984857 l s
[] 0 sd
0 slj
0 slc
n 12.888197 8.984697 m 12.388303 9.234910 l 12.513197 8.984857 l 12.388091 8.734910 l ef
n 12.888197 8.984697 m 12.388303 9.234910 l 12.513197 8.984857 l 12.388091 8.734910 l cp s
0.100000 slw
[] 0 sd
0 slc
n 19.197050 8.995740 m 23.014400 9.009301 l s
[] 0 sd
0 slj
0 slc
n 23.389397 9.010633 m 22.888512 9.258855 l 23.014400 9.009301 l 22.890289 8.758858 l ef
n 23.389397 9.010633 m 22.888512 9.258855 l 23.014400 9.009301 l 22.890289 8.758858 l cp s
0.100000 slw
[] 0 sd
0 slj
0 slc
n 40.000000 11.000000 m 40.000000 13.000000 l 30.000000 13.000000 l 30.000303 11.486803 l s
[] 0 sd
0 slj
0 slc
n 30.000378 11.111803 m 30.250278 11.611853 l 30.000303 11.486803 l 29.750278 11.611753 l ef
n 30.000378 11.111803 m 30.250278 11.611853 l 30.000303 11.486803 l 29.750278 11.611753 l cp s
0.100000 slw
[] 0 sd
0 slc
n 25.501200 9.011030 m 27.013604 9.002686 l s
[] 0 sd
0 slj
0 slc
n 27.388598 9.000617 m 26.889985 9.253372 l 27.013604 9.002686 l 26.887227 8.753379 l ef
n 27.388598 9.000617 m 26.889985 9.253372 l 27.013604 9.002686 l 26.887227 8.753379 l cp s
0.100000 slw
[] 0 sd
0 slc
n 32.500400 9.000000 m 37.013197 9.000000 l s
[] 0 sd
0 slj
0 slc
n 37.388197 9.000000 m 36.888197 9.250000 l 37.013197 9.000000 l 36.888197 8.750000 l ef
n 37.388197 9.000000 m 36.888197 9.250000 l 37.013197 9.000000 l 36.888197 8.750000 l cp s
0.000000 0.000000 0.600000 srgb
gsave 9.496250 10.022450 translate 0.035278 -0.035278 scale
start_ol
3098 2549 moveto
3098 2087 2787 1819 conicto
2466 1552 1946 1552 conicto
1201 1552 lineto
1201 253 lineto
1751 253 lineto
1751 0 lineto
268 0 lineto
268 253 lineto
720 253 lineto
720 3293 lineto
268 3293 lineto
268 3546 lineto
1946 3546 lineto
2466 3546 2787 3278 conicto
3098 3001 3098 2549 conicto
2554 2549 moveto
2554 2909 2369 3103 conicto
2189 3293 1829 3293 conicto
1201 3293 lineto
1201 1805 lineto
1829 1805 lineto
2189 1805 2369 1994 conicto
2554 2194 2554 2549 conicto
end_ol grestore 
gsave 9.925842 10.022450 translate 0.035278 -0.035278 scale
start_ol
2685 1265 moveto
2685 666 2354 297 conicto
2019 -68 1464 -68 conicto
914 -68 578 297 conicto
243 662 243 1265 conicto
243 1868 574 2228 conicto
910 2593 1464 2593 conicto
2019 2593 2354 2228 conicto
2685 1868 2685 1265 conicto
2174 1265 moveto
2174 1809 1994 2082 conicto
1809 2359 1464 2359 conicto
1119 2359 934 2082 conicto
754 1809 754 1264 conicto
754 720 934 447 conicto
1114 165 1464 165 conicto
1809 165 1994 443 conicto
2174 715 2174 1265 conicto
end_ol grestore 
gsave 10.310480 10.022450 translate 0.035278 -0.035278 scale
start_ol
1445 0 moveto
175 0 lineto
175 253 lineto
593 253 lineto
593 2271 lineto
175 2271 lineto
175 2524 lineto
1031 2524 lineto
1031 253 lineto
1445 253 lineto
1445 0 lineto
1012 3308 moveto
1012 3196 934 3118 conicto
856 3040 744 3040 conicto
627 3040 554 3118 conicto
472 3196 472 3307 conicto
472 3419 554 3497 conicto
627 3580 744 3580 conicto
846 3580 934 3502 conicto
1012 3410 1012 3308 conicto
end_ol grestore 
gsave 10.515284 10.022450 translate 0.035278 -0.035278 scale
start_ol
2996 0 moveto
1790 0 lineto
1790 253 lineto
2169 253 lineto
2169 1469 lineto
2169 1936 2053 2101 conicto
1941 2276 1654 2276 conicto
1352 2276 1191 2052 conicto
1031 1829 1031 1406 conicto
1031 253 lineto
1411 253 lineto
1411 0 lineto
199 0 lineto
199 253 lineto
593 253 lineto
593 2271 lineto
175 2271 lineto
175 2524 lineto
1031 2524 lineto
1031 2077 lineto
1158 2340 1342 2461 conicto
1537 2593 1795 2593 conicto
2218 2593 2413 2354 conicto
2607 2106 2607 1605 conicto
2607 253 lineto
2996 253 lineto
2996 0 lineto
end_ol grestore 
gsave 10.927398 10.022450 translate 0.035278 -0.035278 scale
start_ol
1916 593 moveto
1897 253 1732 88 conicto
1552 -68 1216 -68 conicto
837 -68 681 97 conicto
525 277 525 666 conicto
525 2271 lineto
141 2271 lineto
141 2524 lineto
525 2524 lineto
525 3308 lineto
963 3308 lineto
963 2524 lineto
1785 2524 lineto
1785 2271 lineto
963 2271 lineto
963 666 lineto
963 345 1026 253 conicto
1090 165 1255 165 conicto
1420 165 1503 268 conicto
1576 365 1586 593 conicto
1916 593 lineto
end_ol grestore 
gsave 11.184655 10.022450 translate 0.035278 -0.035278 scale
start_ol
2247 700 moveto
2247 340 1975 136 conicto
1698 -68 1216 -68 conicto
983 -68 739 -15 conicto
516 34 272 141 conicto
272 730 lineto
525 730 lineto
530 452 700 306 conicto
880 165 1197 165 conicto
1493 165 1644 277 conicto
1800 384 1800 598 conicto
1800 764 1688 866 conicto
1581 968 1211 1085 conicto
895 1192 lineto
574 1294 423 1449 conicto
277 1610 277 1853 conicto
277 2208 535 2393 conicto
778 2593 1235 2593 conicto
1454 2593 1654 2539 conicto
1858 2500 2111 2388 conicto
2111 1839 lineto
1858 1839 lineto
1848 2087 1688 2218 conicto
1532 2359 1250 2359 conicto
973 2359 832 2261 conicto
691 2164 691 1970 conicto
691 1814 798 1712 conicto
919 1615 1226 1518 conicto
1571 1411 lineto
1936 1299 2092 1128 conicto
2247 963 2247 700 conicto
end_ol grestore 
gsave 11.511846 10.022450 translate 0.035278 -0.035278 scale
start_ol
end_ol grestore 
gsave 11.714153 10.022450 translate 0.035278 -0.035278 scale
start_ol
2116 1138 moveto
2116 1386 lineto
2116 1834 1941 2082 conicto
1761 2320 1435 2320 conicto
1099 2320 924 2053 conicto
754 1785 754 1265 conicto
754 749 924 476 conicto
1094 204 1435 204 conicto
1766 204 1941 442 conicto
2116 681 2116 1138 conicto
2972 0 moveto
2116 0 lineto
2116 394 lineto
1994 156 1790 44 conicto
1591 -68 1299 -68 conicto
832 -68 535 302 conicto
243 671 243 1264 conicto
243 1858 535 2228 conicto
837 2593 1299 2593 conicto
1591 2593 1790 2481 conicto
1994 2369 2116 2130 conicto
2116 3444 lineto
1702 3444 lineto
1702 3697 lineto
2554 3697 lineto
2554 253 lineto
2972 253 lineto
2972 0 lineto
end_ol grestore 
gsave 12.123769 10.022450 translate 0.035278 -0.035278 scale
start_ol
2121 1469 moveto
2106 1907 1936 2135 conicto
1761 2359 1440 2359 conicto
1133 2359 963 2130 conicto
788 1907 754 1469 conicto
2121 1469 lineto
2636 1216 moveto
754 1216 lineto
754 1197 lineto
754 681 944 428 conicto
1138 165 1513 165 conicto
1805 165 1985 316 conicto
2169 472 2242 764 conicto
2593 764 lineto
2490 350 2208 141 conicto
1926 -68 1469 -68 conicto
914 -68 578 297 conicto
243 662 243 1265 conicto
243 1858 574 2228 conicto
905 2593 1440 2593 conicto
2014 2593 2320 2237 conicto
2631 1882 2636 1216 conicto
end_ol grestore 
gsave 9.657500 10.822450 translate 0.035278 -0.035278 scale
start_ol
2500 759 moveto
2403 345 2145 146 conicto
1887 -68 1464 -68 conicto
914 -68 578 297 conicto
243 662 243 1265 conicto
243 1878 579 2233 conicto
914 2593 1464 2593 conicto
1688 2593 1941 2539 conicto
2160 2486 2417 2369 conicto
2417 1722 lineto
2164 1722 lineto
2116 2048 1946 2208 conicto
1770 2359 1469 2359 conicto
1119 2359 934 2082 conicto
754 1814 754 1264 conicto
754 715 934 443 conicto
1119 165 1469 165 conicto
1756 165 1916 311 conicto
2082 457 2150 759 conicto
2500 759 lineto
end_ol grestore 
gsave 10.014663 10.822450 translate 0.035278 -0.035278 scale
start_ol
2685 1265 moveto
2685 666 2354 297 conicto
2019 -68 1464 -68 conicto
914 -68 578 297 conicto
243 662 243 1265 conicto
243 1868 574 2228 conicto
910 2593 1464 2593 conicto
2019 2593 2354 2228 conicto
2685 1868 2685 1265 conicto
2174 1265 moveto
2174 1809 1994 2082 conicto
1809 2359 1464 2359 conicto
1119 2359 934 2082 conicto
754 1809 754 1264 conicto
754 720 934 447 conicto
1114 165 1464 165 conicto
1809 165 1994 443 conicto
2174 715 2174 1265 conicto
end_ol grestore 
gsave 10.399301 10.822450 translate 0.035278 -0.035278 scale
start_ol
2996 0 moveto
1790 0 lineto
1790 253 lineto
2169 253 lineto
2169 1469 lineto
2169 1936 2053 2101 conicto
1941 2276 1654 2276 conicto
1352 2276 1191 2052 conicto
1031 1829 1031 1406 conicto
1031 253 lineto
1411 253 lineto
1411 0 lineto
199 0 lineto
199 253 lineto
593 253 lineto
593 2271 lineto
175 2271 lineto
175 2524 lineto
1031 2524 lineto
1031 2077 lineto
1158 2340 1342 2461 conicto
1537 2593 1795 2593 conicto
2218 2593 2413 2354 conicto
2607 2106 2607 1605 conicto
2607 253 lineto
2996 253 lineto
2996 0 lineto
end_ol grestore 
gsave 10.811414 10.822450 translate 0.035278 -0.035278 scale
start_ol
1916 593 moveto
1897 253 1732 88 conicto
1552 -68 1216 -68 conicto
837 -68 681 97 conicto
525 277 525 666 conicto
525 2271 lineto
141 2271 lineto
141 2524 lineto
525 2524 lineto
525 3308 lineto
963 3308 lineto
963 2524 lineto
1785 2524 lineto
1785 2271 lineto
963 2271 lineto
963 666 lineto
963 345 1026 253 conicto
1090 165 1255 165 conicto
1420 165 1503 268 conicto
1576 365 1586 593 conicto
1916 593 lineto
end_ol grestore 
gsave 11.068672 10.822450 translate 0.035278 -0.035278 scale
start_ol
2325 1897 moveto
2072 1897 lineto
2067 2082 1970 2179 conicto
1878 2271 1698 2271 conicto
1372 2271 1206 2048 conicto
1031 1819 1031 1406 conicto
1031 253 lineto
1537 253 lineto
1537 0 lineto
199 0 lineto
199 253 lineto
593 253 lineto
593 2276 lineto
175 2276 lineto
175 2524 lineto
1031 2524 lineto
1031 2077 lineto
1158 2340 1362 2466 conicto
1561 2593 1853 2593 conicto
1960 2593 2077 2578 conicto
2325 2529 lineto
2325 1897 lineto
end_ol grestore 
gsave 11.373381 10.822450 translate 0.035278 -0.035278 scale
start_ol
2685 1265 moveto
2685 666 2354 297 conicto
2019 -68 1464 -68 conicto
914 -68 578 297 conicto
243 662 243 1265 conicto
243 1868 574 2228 conicto
910 2593 1464 2593 conicto
2019 2593 2354 2228 conicto
2685 1868 2685 1265 conicto
2174 1265 moveto
2174 1809 1994 2082 conicto
1809 2359 1464 2359 conicto
1119 2359 934 2082 conicto
754 1809 754 1264 conicto
754 720 934 447 conicto
1114 165 1464 165 conicto
1809 165 1994 443 conicto
2174 715 2174 1265 conicto
2223 2996 moveto
1946 2996 lineto
1464 3614 lineto
983 2996 lineto
705 2996 lineto
1265 3891 lineto
1663 3891 lineto
2223 2996 lineto
end_ol grestore 
gsave 11.758019 10.822450 translate 0.035278 -0.035278 scale
start_ol
1411 0 moveto
141 0 lineto
141 253 lineto
559 253 lineto
559 3444 lineto
141 3444 lineto
141 3697 lineto
997 3697 lineto
997 253 lineto
1411 253 lineto
1411 0 lineto
end_ol grestore 
gsave 11.962823 10.822450 translate 0.035278 -0.035278 scale
start_ol
2121 1469 moveto
2106 1907 1936 2135 conicto
1761 2359 1440 2359 conicto
1133 2359 963 2130 conicto
788 1907 754 1469 conicto
2121 1469 lineto
2636 1216 moveto
754 1216 lineto
754 1197 lineto
754 681 944 428 conicto
1138 165 1513 165 conicto
1805 165 1985 316 conicto
2169 472 2242 764 conicto
2593 764 lineto
2490 350 2208 141 conicto
1926 -68 1469 -68 conicto
914 -68 578 297 conicto
243 662 243 1265 conicto
243 1858 574 2228 conicto
905 2593 1440 2593 conicto
2014 2593 2320 2237 conicto
2631 1882 2636 1216 conicto
end_ol grestore 
gsave 19.547500 9.886250 translate 0.035278 -0.035278 scale
start_ol
3196 2709 moveto
2904 2709 lineto
2904 3264 lineto
1863 3264 lineto
1863 253 lineto
2315 253 lineto
2315 0 lineto
929 0 lineto
929 253 lineto
1381 253 lineto
1381 3264 lineto
340 3264 lineto
340 2709 lineto
49 2709 lineto
49 3546 lineto
3196 3546 lineto
3196 2709 lineto
end_ol grestore 
gsave 19.974595 9.886250 translate 0.035278 -0.035278 scale
start_ol
2325 1897 moveto
2072 1897 lineto
2067 2082 1970 2179 conicto
1878 2271 1698 2271 conicto
1372 2271 1206 2048 conicto
1031 1819 1031 1406 conicto
1031 253 lineto
1537 253 lineto
1537 0 lineto
199 0 lineto
199 253 lineto
593 253 lineto
593 2276 lineto
175 2276 lineto
175 2524 lineto
1031 2524 lineto
1031 2077 lineto
1158 2340 1362 2466 conicto
1561 2593 1853 2593 conicto
1960 2593 2077 2578 conicto
2325 2529 lineto
2325 1897 lineto
end_ol grestore 
gsave 20.279304 9.886250 translate 0.035278 -0.035278 scale
start_ol
2763 0 moveto
1936 0 lineto
1936 272 lineto
1785 92 1600 15 conicto
1406 -68 1158 -68 conicto
734 -68 491 156 conicto
243 379 243 759 conicto
243 1158 525 1367 conicto
812 1581 1323 1581 conicto
1936 1581 lineto
1936 1756 lineto
1936 2048 1761 2199 conicto
1586 2359 1270 2359 conicto
997 2359 856 2237 conicto
700 2121 662 1887 conicto
438 1887 lineto
438 2398 lineto
657 2490 880 2544 conicto
1080 2593 1299 2593 conicto
1819 2593 2101 2335 conicto
2374 2072 2374 1576 conicto
2374 253 lineto
2763 253 lineto
2763 0 lineto
1936 793 moveto
1936 1328 lineto
1372 1328 lineto
1051 1328 885 1187 conicto
730 1046 730 759 conicto
730 496 890 340 conicto
1055 185 1328 185 conicto
1595 185 1770 350 conicto
1936 530 1936 793 conicto
end_ol grestore 
gsave 20.661445 9.886250 translate 0.035278 -0.035278 scale
start_ol
1031 -248 moveto
1031 -637 798 -856 conicto
574 -1080 161 -1080 conicto
0 -1080 -165 -1041 conicto
-321 -1002 -467 -924 conicto
-467 -404 lineto
-243 -404 lineto
-229 -632 -126 -739 conicto
-24 -846 170 -846 conicto
384 -846 486 -700 conicto
593 -559 593 -248 conicto
593 2271 lineto
180 2271 lineto
180 2524 lineto
1031 2524 lineto
1031 -248 lineto
944 3502 moveto
1026 3419 1026 3307 conicto
1026 3196 948 3118 conicto
871 3040 759 3040 conicto
642 3040 564 3118 conicto
486 3205 486 3307 conicto
486 3410 564 3497 conicto
657 3580 759 3580 conicto
866 3580 944 3502 conicto
end_ol grestore 
gsave 20.858758 9.886250 translate 0.035278 -0.035278 scale
start_ol
2121 1469 moveto
2106 1907 1936 2135 conicto
1761 2359 1440 2359 conicto
1133 2359 963 2130 conicto
788 1907 754 1469 conicto
2121 1469 lineto
2636 1216 moveto
754 1216 lineto
754 1197 lineto
754 681 944 428 conicto
1138 165 1513 165 conicto
1805 165 1985 316 conicto
2169 472 2242 764 conicto
2593 764 lineto
2490 350 2208 141 conicto
1926 -68 1469 -68 conicto
914 -68 578 297 conicto
243 662 243 1265 conicto
243 1858 574 2228 conicto
905 2593 1440 2593 conicto
2014 2593 2320 2237 conicto
2631 1882 2636 1216 conicto
end_ol grestore 
gsave 21.235905 9.886250 translate 0.035278 -0.035278 scale
start_ol
2500 759 moveto
2403 345 2145 146 conicto
1887 -68 1464 -68 conicto
914 -68 578 297 conicto
243 662 243 1265 conicto
243 1878 579 2233 conicto
914 2593 1464 2593 conicto
1688 2593 1941 2539 conicto
2160 2486 2417 2369 conicto
2417 1722 lineto
2164 1722 lineto
2116 2048 1946 2208 conicto
1770 2359 1469 2359 conicto
1119 2359 934 2082 conicto
754 1814 754 1264 conicto
754 715 934 443 conicto
1119 165 1469 165 conicto
1756 165 1916 311 conicto
2082 457 2150 759 conicto
2500 759 lineto
end_ol grestore 
gsave 21.593068 9.886250 translate 0.035278 -0.035278 scale
start_ol
1916 593 moveto
1897 253 1732 88 conicto
1552 -68 1216 -68 conicto
837 -68 681 97 conicto
525 277 525 666 conicto
525 2271 lineto
141 2271 lineto
141 2524 lineto
525 2524 lineto
525 3308 lineto
963 3308 lineto
963 2524 lineto
1785 2524 lineto
1785 2271 lineto
963 2271 lineto
963 666 lineto
963 345 1026 253 conicto
1090 165 1255 165 conicto
1420 165 1503 268 conicto
1576 365 1586 593 conicto
1916 593 lineto
end_ol grestore 
gsave 21.850326 9.886250 translate 0.035278 -0.035278 scale
start_ol
2685 1265 moveto
2685 666 2354 297 conicto
2019 -68 1464 -68 conicto
914 -68 578 297 conicto
243 662 243 1265 conicto
243 1868 574 2228 conicto
910 2593 1464 2593 conicto
2019 2593 2354 2228 conicto
2685 1868 2685 1265 conicto
2174 1265 moveto
2174 1809 1994 2082 conicto
1809 2359 1464 2359 conicto
1119 2359 934 2082 conicto
754 1809 754 1264 conicto
754 720 934 447 conicto
1114 165 1464 165 conicto
1809 165 1994 443 conicto
2174 715 2174 1265 conicto
end_ol grestore 
gsave 22.234964 9.886250 translate 0.035278 -0.035278 scale
start_ol
1445 0 moveto
175 0 lineto
175 253 lineto
593 253 lineto
593 2271 lineto
175 2271 lineto
175 2524 lineto
1031 2524 lineto
1031 253 lineto
1445 253 lineto
1445 0 lineto
1012 3308 moveto
1012 3196 934 3118 conicto
856 3040 744 3040 conicto
627 3040 554 3118 conicto
472 3196 472 3307 conicto
472 3419 554 3497 conicto
627 3580 744 3580 conicto
846 3580 934 3502 conicto
1012 3410 1012 3308 conicto
end_ol grestore 
gsave 22.439768 9.886250 translate 0.035278 -0.035278 scale
start_ol
2325 1897 moveto
2072 1897 lineto
2067 2082 1970 2179 conicto
1878 2271 1698 2271 conicto
1372 2271 1206 2048 conicto
1031 1819 1031 1406 conicto
1031 253 lineto
1537 253 lineto
1537 0 lineto
199 0 lineto
199 253 lineto
593 253 lineto
593 2276 lineto
175 2276 lineto
175 2524 lineto
1031 2524 lineto
1031 2077 lineto
1158 2340 1362 2466 conicto
1561 2593 1853 2593 conicto
1960 2593 2077 2578 conicto
2325 2529 lineto
2325 1897 lineto
end_ol grestore 
gsave 22.744477 9.886250 translate 0.035278 -0.035278 scale
start_ol
2121 1469 moveto
2106 1907 1936 2135 conicto
1761 2359 1440 2359 conicto
1133 2359 963 2130 conicto
788 1907 754 1469 conicto
2121 1469 lineto
2636 1216 moveto
754 1216 lineto
754 1197 lineto
754 681 944 428 conicto
1138 165 1513 165 conicto
1805 165 1985 316 conicto
2169 472 2242 764 conicto
2593 764 lineto
2490 350 2208 141 conicto
1926 -68 1469 -68 conicto
914 -68 578 297 conicto
243 662 243 1265 conicto
243 1858 574 2228 conicto
905 2593 1440 2593 conicto
2014 2593 2320 2237 conicto
2631 1882 2636 1216 conicto
end_ol grestore 
gsave 23.121624 9.886250 translate 0.035278 -0.035278 scale
start_ol
2247 700 moveto
2247 340 1975 136 conicto
1698 -68 1216 -68 conicto
983 -68 739 -15 conicto
516 34 272 141 conicto
272 730 lineto
525 730 lineto
530 452 700 306 conicto
880 165 1197 165 conicto
1493 165 1644 277 conicto
1800 384 1800 598 conicto
1800 764 1688 866 conicto
1581 968 1211 1085 conicto
895 1192 lineto
574 1294 423 1449 conicto
277 1610 277 1853 conicto
277 2208 535 2393 conicto
778 2593 1235 2593 conicto
1454 2593 1654 2539 conicto
1858 2500 2111 2388 conicto
2111 1839 lineto
1858 1839 lineto
1848 2087 1688 2218 conicto
1532 2359 1250 2359 conicto
973 2359 832 2261 conicto
691 2164 691 1970 conicto
691 1814 798 1712 conicto
919 1615 1226 1518 conicto
1571 1411 lineto
1936 1299 2092 1128 conicto
2247 963 2247 700 conicto
end_ol grestore 
gsave 20.562500 10.686250 translate 0.035278 -0.035278 scale
start_ol
1805 -856 moveto
1153 -530 914 -78 conicto
584 564 584 1167 conicto
584 1508 lineto
584 2111 914 2753 conicto
1153 3205 1805 3531 conicto
1805 3249 lineto
1474 3084 1216 2597 conicto
1114 2398 1084 2150 conicto
1055 1902 1055 1508 conicto
1055 1167 lineto
1055 773 1084 525 conicto
1114 277 1216 78 conicto
1474 -409 1805 -574 conicto
1805 -856 lineto
end_ol grestore 
gsave 20.834740 10.686250 translate 0.035278 -0.035278 scale
start_ol
2121 1469 moveto
2106 1907 1936 2135 conicto
1761 2359 1440 2359 conicto
1133 2359 963 2130 conicto
788 1907 754 1469 conicto
2121 1469 lineto
2636 1216 moveto
754 1216 lineto
754 1197 lineto
754 681 944 428 conicto
1138 165 1513 165 conicto
1805 165 1985 316 conicto
2169 472 2242 764 conicto
2593 764 lineto
2490 350 2208 141 conicto
1926 -68 1469 -68 conicto
914 -68 578 297 conicto
243 662 243 1265 conicto
243 1858 574 2228 conicto
905 2593 1440 2593 conicto
2014 2593 2320 2237 conicto
2631 1882 2636 1216 conicto
2242 3891 moveto
1435 2996 lineto
1158 2996 lineto
1770 3891 lineto
2242 3891 lineto
end_ol grestore 
gsave 21.211887 10.686250 translate 0.035278 -0.035278 scale
start_ol
1916 593 moveto
1897 253 1732 88 conicto
1552 -68 1216 -68 conicto
837 -68 681 97 conicto
525 277 525 666 conicto
525 2271 lineto
141 2271 lineto
141 2524 lineto
525 2524 lineto
525 3308 lineto
963 3308 lineto
963 2524 lineto
1785 2524 lineto
1785 2271 lineto
963 2271 lineto
963 666 lineto
963 345 1026 253 conicto
1090 165 1255 165 conicto
1420 165 1503 268 conicto
1576 365 1586 593 conicto
1916 593 lineto
end_ol grestore 
gsave 21.469144 10.686250 translate 0.035278 -0.035278 scale
start_ol
2763 0 moveto
1936 0 lineto
1936 272 lineto
1785 92 1600 15 conicto
1406 -68 1158 -68 conicto
734 -68 491 156 conicto
243 379 243 759 conicto
243 1158 525 1367 conicto
812 1581 1323 1581 conicto
1936 1581 lineto
1936 1756 lineto
1936 2048 1761 2199 conicto
1586 2359 1270 2359 conicto
997 2359 856 2237 conicto
700 2121 662 1887 conicto
438 1887 lineto
438 2398 lineto
657 2490 880 2544 conicto
1080 2593 1299 2593 conicto
1819 2593 2101 2335 conicto
2374 2072 2374 1576 conicto
2374 253 lineto
2763 253 lineto
2763 0 lineto
1936 793 moveto
1936 1328 lineto
1372 1328 lineto
1051 1328 885 1187 conicto
730 1046 730 759 conicto
730 496 890 340 conicto
1055 185 1328 185 conicto
1595 185 1770 350 conicto
1936 530 1936 793 conicto
end_ol grestore 
gsave 21.851285 10.686250 translate 0.035278 -0.035278 scale
start_ol
1916 593 moveto
1897 253 1732 88 conicto
1552 -68 1216 -68 conicto
837 -68 681 97 conicto
525 277 525 666 conicto
525 2271 lineto
141 2271 lineto
141 2524 lineto
525 2524 lineto
525 3308 lineto
963 3308 lineto
963 2524 lineto
1785 2524 lineto
1785 2271 lineto
963 2271 lineto
963 666 lineto
963 345 1026 253 conicto
1090 165 1255 165 conicto
1420 165 1503 268 conicto
1576 365 1586 593 conicto
1916 593 lineto
end_ol grestore 
gsave 22.108543 10.686250 translate 0.035278 -0.035278 scale
start_ol
2247 700 moveto
2247 340 1975 136 conicto
1698 -68 1216 -68 conicto
983 -68 739 -15 conicto
516 34 272 141 conicto
272 730 lineto
525 730 lineto
530 452 700 306 conicto
880 165 1197 165 conicto
1493 165 1644 277 conicto
1800 384 1800 598 conicto
1800 764 1688 866 conicto
1581 968 1211 1085 conicto
895 1192 lineto
574 1294 423 1449 conicto
277 1610 277 1853 conicto
277 2208 535 2393 conicto
778 2593 1235 2593 conicto
1454 2593 1654 2539 conicto
1858 2500 2111 2388 conicto
2111 1839 lineto
1858 1839 lineto
1848 2087 1688 2218 conicto
1532 2359 1250 2359 conicto
973 2359 832 2261 conicto
691 2164 691 1970 conicto
691 1814 798 1712 conicto
919 1615 1226 1518 conicto
1571 1411 lineto
1936 1299 2092 1128 conicto
2247 963 2247 700 conicto
end_ol grestore 
gsave 19.197500 11.486250 translate 0.035278 -0.035278 scale
start_ol
2500 759 moveto
2403 345 2145 146 conicto
1887 -68 1464 -68 conicto
914 -68 578 297 conicto
243 662 243 1265 conicto
243 1878 579 2233 conicto
914 2593 1464 2593 conicto
1688 2593 1941 2539 conicto
2160 2486 2417 2369 conicto
2417 1722 lineto
2164 1722 lineto
2116 2048 1946 2208 conicto
1770 2359 1469 2359 conicto
1119 2359 934 2082 conicto
754 1814 754 1264 conicto
754 715 934 443 conicto
1119 165 1469 165 conicto
1756 165 1916 311 conicto
2082 457 2150 759 conicto
2500 759 lineto
end_ol grestore 
gsave 19.554663 11.486250 translate 0.035278 -0.035278 scale
start_ol
1445 0 moveto
175 0 lineto
175 253 lineto
593 253 lineto
593 2271 lineto
175 2271 lineto
175 2524 lineto
1031 2524 lineto
1031 253 lineto
1445 253 lineto
1445 0 lineto
1012 3308 moveto
1012 3196 934 3118 conicto
856 3040 744 3040 conicto
627 3040 554 3118 conicto
472 3196 472 3307 conicto
472 3419 554 3497 conicto
627 3580 744 3580 conicto
846 3580 934 3502 conicto
1012 3410 1012 3308 conicto
end_ol grestore 
gsave 19.759467 11.486250 translate 0.035278 -0.035278 scale
start_ol
2996 0 moveto
1790 0 lineto
1790 253 lineto
2169 253 lineto
2169 1469 lineto
2169 1936 2053 2101 conicto
1941 2276 1654 2276 conicto
1352 2276 1191 2052 conicto
1031 1829 1031 1406 conicto
1031 253 lineto
1411 253 lineto
1411 0 lineto
199 0 lineto
199 253 lineto
593 253 lineto
593 2271 lineto
175 2271 lineto
175 2524 lineto
1031 2524 lineto
1031 2077 lineto
1158 2340 1342 2461 conicto
1537 2593 1795 2593 conicto
2218 2593 2413 2354 conicto
2607 2106 2607 1605 conicto
2607 253 lineto
2996 253 lineto
2996 0 lineto
end_ol grestore 
gsave 20.171580 11.486250 translate 0.035278 -0.035278 scale
start_ol
2121 1469 moveto
2106 1907 1936 2135 conicto
1761 2359 1440 2359 conicto
1133 2359 963 2130 conicto
788 1907 754 1469 conicto
2121 1469 lineto
2636 1216 moveto
754 1216 lineto
754 1197 lineto
754 681 944 428 conicto
1138 165 1513 165 conicto
1805 165 1985 316 conicto
2169 472 2242 764 conicto
2593 764 lineto
2490 350 2208 141 conicto
1926 -68 1469 -68 conicto
914 -68 578 297 conicto
243 662 243 1265 conicto
243 1858 574 2228 conicto
905 2593 1440 2593 conicto
2014 2593 2320 2237 conicto
2631 1882 2636 1216 conicto
2242 3891 moveto
1435 2996 lineto
1158 2996 lineto
1770 3891 lineto
2242 3891 lineto
end_ol grestore 
gsave 20.548727 11.486250 translate 0.035278 -0.035278 scale
start_ol
4480 0 moveto
3269 0 lineto
3269 253 lineto
3648 253 lineto
3648 1556 lineto
3648 1946 3531 2111 conicto
3424 2271 3157 2271 conicto
2860 2271 2714 2053 conicto
2558 1834 2558 1406 conicto
2558 253 lineto
2938 253 lineto
2938 0 lineto
1741 0 lineto
1741 253 lineto
2121 253 lineto
2121 1571 lineto
2121 1950 2004 2111 conicto
1892 2271 1629 2271 conicto
1333 2271 1187 2053 conicto
1031 1834 1031 1406 conicto
1031 253 lineto
1411 253 lineto
1411 0 lineto
199 0 lineto
199 253 lineto
593 253 lineto
593 2276 lineto
175 2276 lineto
175 2524 lineto
1031 2524 lineto
1031 2077 lineto
1153 2330 1342 2461 conicto
1527 2593 1766 2593 conicto
2062 2593 2257 2447 conicto
2456 2301 2520 2033 conicto
2641 2306 2841 2451 conicto
3050 2593 3298 2593 conicto
3697 2593 3891 2344 conicto
4086 2106 4086 1605 conicto
4086 253 lineto
4480 253 lineto
4480 0 lineto
end_ol grestore 
gsave 21.155656 11.486250 translate 0.035278 -0.035278 scale
start_ol
2763 0 moveto
1936 0 lineto
1936 272 lineto
1785 92 1600 15 conicto
1406 -68 1158 -68 conicto
734 -68 491 156 conicto
243 379 243 759 conicto
243 1158 525 1367 conicto
812 1581 1323 1581 conicto
1936 1581 lineto
1936 1756 lineto
1936 2048 1761 2199 conicto
1586 2359 1270 2359 conicto
997 2359 856 2237 conicto
700 2121 662 1887 conicto
438 1887 lineto
438 2398 lineto
657 2490 880 2544 conicto
1080 2593 1299 2593 conicto
1819 2593 2101 2335 conicto
2374 2072 2374 1576 conicto
2374 253 lineto
2763 253 lineto
2763 0 lineto
1936 793 moveto
1936 1328 lineto
1372 1328 lineto
1051 1328 885 1187 conicto
730 1046 730 759 conicto
730 496 890 340 conicto
1055 185 1328 185 conicto
1595 185 1770 350 conicto
1936 530 1936 793 conicto
end_ol grestore 
gsave 21.537797 11.486250 translate 0.035278 -0.035278 scale
start_ol
1916 593 moveto
1897 253 1732 88 conicto
1552 -68 1216 -68 conicto
837 -68 681 97 conicto
525 277 525 666 conicto
525 2271 lineto
141 2271 lineto
141 2524 lineto
525 2524 lineto
525 3308 lineto
963 3308 lineto
963 2524 lineto
1785 2524 lineto
1785 2271 lineto
963 2271 lineto
963 666 lineto
963 345 1026 253 conicto
1090 165 1255 165 conicto
1420 165 1503 268 conicto
1576 365 1586 593 conicto
1916 593 lineto
end_ol grestore 
gsave 21.795055 11.486250 translate 0.035278 -0.035278 scale
start_ol
1445 0 moveto
175 0 lineto
175 253 lineto
593 253 lineto
593 2271 lineto
175 2271 lineto
175 2524 lineto
1031 2524 lineto
1031 253 lineto
1445 253 lineto
1445 0 lineto
1012 3308 moveto
1012 3196 934 3118 conicto
856 3040 744 3040 conicto
627 3040 554 3118 conicto
472 3196 472 3307 conicto
472 3419 554 3497 conicto
627 3580 744 3580 conicto
846 3580 934 3502 conicto
1012 3410 1012 3308 conicto
end_ol grestore 
gsave 21.999859 11.486250 translate 0.035278 -0.035278 scale
start_ol
2116 1138 moveto
2116 1386 lineto
2116 1834 1941 2082 conicto
1761 2320 1435 2320 conicto
1099 2320 924 2053 conicto
754 1785 754 1265 conicto
754 749 924 476 conicto
1094 204 1435 204 conicto
1766 204 1941 442 conicto
2116 681 2116 1138 conicto
2972 -1012 moveto
1702 -1012 lineto
1702 -759 lineto
2116 -759 lineto
2116 394 lineto
1994 156 1790 44 conicto
1591 -68 1299 -68 conicto
832 -68 535 302 conicto
243 671 243 1264 conicto
243 1858 535 2228 conicto
837 2593 1299 2593 conicto
1591 2593 1790 2481 conicto
1994 2369 2116 2130 conicto
2116 2524 lineto
2972 2524 lineto
2972 2271 lineto
2554 2271 lineto
2554 -759 lineto
2972 -759 lineto
2972 -1012 lineto
end_ol grestore 
gsave 22.409476 11.486250 translate 0.035278 -0.035278 scale
start_ol
2952 0 moveto
2101 0 lineto
2101 447 lineto
1980 195 1790 63 conicto
1595 -68 1342 -68 conicto
919 -68 725 170 conicto
525 413 525 919 conicto
525 2271 lineto
131 2271 lineto
131 2524 lineto
963 2524 lineto
963 1055 lineto
963 593 1080 423 conicto
1192 253 1479 253 conicto
1780 253 1941 477 conicto
2101 705 2101 1124 conicto
2101 2271 lineto
1722 2271 lineto
1722 2524 lineto
2539 2524 lineto
2539 253 lineto
2952 253 lineto
2952 0 lineto
end_ol grestore 
gsave 22.821589 11.486250 translate 0.035278 -0.035278 scale
start_ol
2121 1469 moveto
2106 1907 1936 2135 conicto
1761 2359 1440 2359 conicto
1133 2359 963 2130 conicto
788 1907 754 1469 conicto
2121 1469 lineto
2636 1216 moveto
754 1216 lineto
754 1197 lineto
754 681 944 428 conicto
1138 165 1513 165 conicto
1805 165 1985 316 conicto
2169 472 2242 764 conicto
2593 764 lineto
2490 350 2208 141 conicto
1926 -68 1469 -68 conicto
914 -68 578 297 conicto
243 662 243 1265 conicto
243 1858 574 2228 conicto
905 2593 1440 2593 conicto
2014 2593 2320 2237 conicto
2631 1882 2636 1216 conicto
end_ol grestore 
gsave 23.198736 11.486250 translate 0.035278 -0.035278 scale
start_ol
2247 700 moveto
2247 340 1975 136 conicto
1698 -68 1216 -68 conicto
983 -68 739 -15 conicto
516 34 272 141 conicto
272 730 lineto
525 730 lineto
530 452 700 306 conicto
880 165 1197 165 conicto
1493 165 1644 277 conicto
1800 384 1800 598 conicto
1800 764 1688 866 conicto
1581 968 1211 1085 conicto
895 1192 lineto
574 1294 423 1449 conicto
277 1610 277 1853 conicto
277 2208 535 2393 conicto
778 2593 1235 2593 conicto
1454 2593 1654 2539 conicto
1858 2500 2111 2388 conicto
2111 1839 lineto
1858 1839 lineto
1848 2087 1688 2218 conicto
1532 2359 1250 2359 conicto
973 2359 832 2261 conicto
691 2164 691 1970 conicto
691 1814 798 1712 conicto
919 1615 1226 1518 conicto
1571 1411 lineto
1936 1299 2092 1128 conicto
2247 963 2247 700 conicto
end_ol grestore 
gsave 23.525926 11.486250 translate 0.035278 -0.035278 scale
start_ol
1474 1167 moveto
1474 554 1148 -78 conicto
914 -525 258 -856 conicto
258 -574 lineto
593 -404 841 78 conicto
914 214 950 406 conicto
987 598 994 749 conicto
1002 900 1002 1167 conicto
1002 1508 lineto
1002 1775 994 1926 conicto
987 2077 950 2269 conicto
914 2461 841 2597 conicto
593 3079 258 3249 conicto
258 3531 lineto
914 3201 1148 2753 conicto
1474 2121 1474 1508 conicto
1474 1167 lineto
end_ol grestore 
gsave 38.235000 15.000000 translate 0.035278 -0.035278 scale
start_ol
957 3136 moveto
957 1792 lineto
1560 1792 lineto
1895 1792 2078 1967 conicto
2261 2142 2261 2465 conicto
2261 2786 2078 2961 conicto
1895 3136 1560 3136 conicto
957 3136 lineto
477 3520 moveto
1560 3520 lineto
2156 3520 2461 3251 conicto
2767 2983 2767 2465 conicto
2767 1943 2461 1675 conicto
2156 1408 1560 1408 conicto
957 1408 lineto
957 0 lineto
477 0 lineto
477 3520 lineto
end_ol grestore 
gsave 38.597157 15.000000 translate 0.035278 -0.035278 scale
start_ol
1489 2368 moveto
1138 2368 933 2094 conicto
729 1820 729 1344 conicto
729 868 932 594 conicto
1135 320 1489 320 conicto
1838 320 2042 595 conicto
2247 870 2247 1344 conicto
2247 1816 2042 2092 conicto
1838 2368 1489 2368 conicto
1489 2752 moveto
2059 2752 2384 2378 conicto
2710 2005 2710 1344 conicto
2710 685 2384 310 conicto
2059 -64 1489 -64 conicto
917 -64 592 310 conicto
268 685 268 1344 conicto
268 2005 592 2378 conicto
917 2752 1489 2752 conicto
end_ol grestore 
gsave 38.989286 15.000000 translate 0.035278 -0.035278 scale
start_ol
2154 2560 moveto
2154 2176 lineto
1969 2272 1769 2320 conicto
1570 2368 1356 2368 conicto
1030 2368 867 2269 conicto
705 2170 705 1972 conicto
705 1821 821 1735 conicto
938 1649 1290 1571 conicto
1439 1538 lineto
1905 1438 2101 1255 conicto
2297 1072 2297 744 conicto
2297 371 2003 153 conicto
1710 -64 1197 -64 conicto
984 -64 752 -16 conicto
521 32 264 128 conicto
264 576 lineto
506 448 741 384 conicto
976 320 1207 320 conicto
1516 320 1682 425 conicto
1848 531 1848 722 conicto
1848 900 1728 994 conicto
1608 1089 1202 1177 conicto
1050 1212 lineto
644 1298 463 1476 conicto
283 1654 283 1964 conicto
283 2341 549 2546 conicto
815 2752 1304 2752 conicto
1546 2752 1760 2704 conicto
1974 2656 2154 2560 conicto
end_ol grestore 
gsave 39.321470 15.000000 translate 0.035278 -0.035278 scale
start_ol
458 2688 moveto
895 2688 lineto
895 0 lineto
458 0 lineto
458 2688 lineto
458 3712 moveto
895 3712 lineto
895 3136 lineto
458 3136 lineto
458 3712 lineto
end_ol grestore 
gsave 39.498799 15.000000 translate 0.035278 -0.035278 scale
start_ol
891 3456 moveto
891 2688 lineto
1791 2688 lineto
1791 2368 lineto
891 2368 lineto
891 902 lineto
891 572 980 478 conicto
1069 384 1342 384 conicto
1791 384 lineto
1791 0 lineto
1342 0 lineto
836 0 643 194 conicto
451 389 451 902 conicto
451 2368 lineto
131 2368 lineto
131 2688 lineto
451 2688 lineto
451 3456 lineto
891 3456 lineto
end_ol grestore 
gsave 39.748565 15.000000 translate 0.035278 -0.035278 scale
start_ol
458 2688 moveto
895 2688 lineto
895 0 lineto
458 0 lineto
458 2688 lineto
458 3712 moveto
895 3712 lineto
895 3136 lineto
458 3136 lineto
458 3712 lineto
end_ol grestore 
gsave 39.925894 15.000000 translate 0.035278 -0.035278 scale
start_ol
1489 2368 moveto
1138 2368 933 2094 conicto
729 1820 729 1344 conicto
729 868 932 594 conicto
1135 320 1489 320 conicto
1838 320 2042 595 conicto
2247 870 2247 1344 conicto
2247 1816 2042 2092 conicto
1838 2368 1489 2368 conicto
1489 2752 moveto
2059 2752 2384 2378 conicto
2710 2005 2710 1344 conicto
2710 685 2384 310 conicto
2059 -64 1489 -64 conicto
917 -64 592 310 conicto
268 685 268 1344 conicto
268 2005 592 2378 conicto
917 2752 1489 2752 conicto
end_ol grestore 
gsave 40.318023 15.000000 translate 0.035278 -0.035278 scale
start_ol
2670 1646 moveto
2670 0 lineto
2233 0 lineto
2233 1632 lineto
2233 2001 2085 2184 conicto
1938 2368 1644 2368 conicto
1290 2368 1085 2146 conicto
881 1925 881 1542 conicto
881 0 lineto
442 0 lineto
442 2688 lineto
881 2688 lineto
881 2304 lineto
1038 2529 1250 2640 conicto
1463 2752 1741 2752 conicto
2200 2752 2435 2471 conicto
2670 2191 2670 1646 conicto
end_ol grestore 
gsave 40.722637 15.000000 translate 0.035278 -0.035278 scale
start_ol
2154 2560 moveto
2154 2176 lineto
1969 2272 1769 2320 conicto
1570 2368 1356 2368 conicto
1030 2368 867 2269 conicto
705 2170 705 1972 conicto
705 1821 821 1735 conicto
938 1649 1290 1571 conicto
1439 1538 lineto
1905 1438 2101 1255 conicto
2297 1072 2297 744 conicto
2297 371 2003 153 conicto
1710 -64 1197 -64 conicto
984 -64 752 -16 conicto
521 32 264 128 conicto
264 576 lineto
506 448 741 384 conicto
976 320 1207 320 conicto
1516 320 1682 425 conicto
1848 531 1848 722 conicto
1848 900 1728 994 conicto
1608 1089 1202 1177 conicto
1050 1212 lineto
644 1298 463 1476 conicto
283 1654 283 1964 conicto
283 2341 549 2546 conicto
815 2752 1304 2752 conicto
1546 2752 1760 2704 conicto
1974 2656 2154 2560 conicto
end_ol grestore 
gsave 41.054822 15.000000 translate 0.035278 -0.035278 scale
start_ol
end_ol grestore 
gsave 41.257129 15.000000 translate 0.035278 -0.035278 scale
start_ol
2734 1480 moveto
2734 1280 lineto
724 1280 lineto
753 811 996 565 conicto
1240 320 1674 320 conicto
1926 320 2162 384 conicto
2399 448 2632 576 conicto
2632 192 lineto
2397 67 2150 1 conicto
1903 -64 1648 -64 conicto
1012 -64 640 309 conicto
268 683 268 1320 conicto
268 1979 621 2365 conicto
974 2752 1572 2752 conicto
2109 2752 2421 2410 conicto
2734 2068 2734 1480 conicto
2297 1600 moveto
2292 1950 2096 2159 conicto
1900 2368 1577 2368 conicto
1212 2368 992 2166 conicto
772 1964 739 1597 conicto
2297 1600 lineto
end_ol grestore 
gsave 41.651755 15.000000 translate 0.035278 -0.035278 scale
start_ol
891 3456 moveto
891 2688 lineto
1791 2688 lineto
1791 2368 lineto
891 2368 lineto
891 902 lineto
891 572 980 478 conicto
1069 384 1342 384 conicto
1791 384 lineto
1791 0 lineto
1342 0 lineto
836 0 643 194 conicto
451 389 451 902 conicto
451 2368 lineto
131 2368 lineto
131 2688 lineto
451 2688 lineto
451 3456 lineto
891 3456 lineto
end_ol grestore 
gsave 41.901521 15.000000 translate 0.035278 -0.035278 scale
start_ol
end_ol grestore 
gsave 42.103828 15.000000 translate 0.035278 -0.035278 scale
start_ol
145 2688 moveto
608 2688 lineto
1439 432 lineto
2271 2688 lineto
2734 2688 lineto
1736 0 lineto
1142 0 lineto
145 2688 lineto
end_ol grestore 
gsave 42.483472 15.000000 translate 0.035278 -0.035278 scale
start_ol
458 2688 moveto
895 2688 lineto
895 0 lineto
458 0 lineto
458 2688 lineto
458 3712 moveto
895 3712 lineto
895 3136 lineto
458 3136 lineto
458 3712 lineto
end_ol grestore 
gsave 42.660801 15.000000 translate 0.035278 -0.035278 scale
start_ol
891 3456 moveto
891 2688 lineto
1791 2688 lineto
1791 2368 lineto
891 2368 lineto
891 902 lineto
891 572 980 478 conicto
1069 384 1342 384 conicto
1791 384 lineto
1791 0 lineto
1342 0 lineto
836 0 643 194 conicto
451 389 451 902 conicto
451 2368 lineto
131 2368 lineto
131 2688 lineto
451 2688 lineto
451 3456 lineto
891 3456 lineto
end_ol grestore 
gsave 42.910568 15.000000 translate 0.035278 -0.035278 scale
start_ol
2734 1480 moveto
2734 1280 lineto
724 1280 lineto
753 811 996 565 conicto
1240 320 1674 320 conicto
1926 320 2162 384 conicto
2399 448 2632 576 conicto
2632 192 lineto
2397 67 2150 1 conicto
1903 -64 1648 -64 conicto
1012 -64 640 309 conicto
268 683 268 1320 conicto
268 1979 621 2365 conicto
974 2752 1572 2752 conicto
2109 2752 2421 2410 conicto
2734 2068 2734 1480 conicto
2297 1600 moveto
2292 1950 2096 2159 conicto
1900 2368 1577 2368 conicto
1212 2368 992 2166 conicto
772 1964 739 1597 conicto
2297 1600 lineto
end_ol grestore 
gsave 43.305194 15.000000 translate 0.035278 -0.035278 scale
start_ol
2154 2560 moveto
2154 2176 lineto
1969 2272 1769 2320 conicto
1570 2368 1356 2368 conicto
1030 2368 867 2269 conicto
705 2170 705 1972 conicto
705 1821 821 1735 conicto
938 1649 1290 1571 conicto
1439 1538 lineto
1905 1438 2101 1255 conicto
2297 1072 2297 744 conicto
2297 371 2003 153 conicto
1710 -64 1197 -64 conicto
984 -64 752 -16 conicto
521 32 264 128 conicto
264 576 lineto
506 448 741 384 conicto
976 320 1207 320 conicto
1516 320 1682 425 conicto
1848 531 1848 722 conicto
1848 900 1728 994 conicto
1608 1089 1202 1177 conicto
1050 1212 lineto
644 1298 463 1476 conicto
283 1654 283 1964 conicto
283 2341 549 2546 conicto
815 2752 1304 2752 conicto
1546 2752 1760 2704 conicto
1974 2656 2154 2560 conicto
end_ol grestore 
gsave 43.637378 15.000000 translate 0.035278 -0.035278 scale
start_ol
2154 2560 moveto
2154 2176 lineto
1969 2272 1769 2320 conicto
1570 2368 1356 2368 conicto
1030 2368 867 2269 conicto
705 2170 705 1972 conicto
705 1821 821 1735 conicto
938 1649 1290 1571 conicto
1439 1538 lineto
1905 1438 2101 1255 conicto
2297 1072 2297 744 conicto
2297 371 2003 153 conicto
1710 -64 1197 -64 conicto
984 -64 752 -16 conicto
521 32 264 128 conicto
264 576 lineto
506 448 741 384 conicto
976 320 1207 320 conicto
1516 320 1682 425 conicto
1848 531 1848 722 conicto
1848 900 1728 994 conicto
1608 1089 1202 1177 conicto
1050 1212 lineto
644 1298 463 1476 conicto
283 1654 283 1964 conicto
283 2341 549 2546 conicto
815 2752 1304 2752 conicto
1546 2752 1760 2704 conicto
1974 2656 2154 2560 conicto
end_ol grestore 
gsave 43.969563 15.000000 translate 0.035278 -0.035278 scale
start_ol
2734 1480 moveto
2734 1280 lineto
724 1280 lineto
753 811 996 565 conicto
1240 320 1674 320 conicto
1926 320 2162 384 conicto
2399 448 2632 576 conicto
2632 192 lineto
2397 67 2150 1 conicto
1903 -64 1648 -64 conicto
1012 -64 640 309 conicto
268 683 268 1320 conicto
268 1979 621 2365 conicto
974 2752 1572 2752 conicto
2109 2752 2421 2410 conicto
2734 2068 2734 1480 conicto
2297 1600 moveto
2292 1950 2096 2159 conicto
1900 2368 1577 2368 conicto
1212 2368 992 2166 conicto
772 1964 739 1597 conicto
2297 1600 lineto
end_ol grestore 
gsave 44.364189 15.000000 translate 0.035278 -0.035278 scale
start_ol
2154 2560 moveto
2154 2176 lineto
1969 2272 1769 2320 conicto
1570 2368 1356 2368 conicto
1030 2368 867 2269 conicto
705 2170 705 1972 conicto
705 1821 821 1735 conicto
938 1649 1290 1571 conicto
1439 1538 lineto
1905 1438 2101 1255 conicto
2297 1072 2297 744 conicto
2297 371 2003 153 conicto
1710 -64 1197 -64 conicto
984 -64 752 -16 conicto
521 32 264 128 conicto
264 576 lineto
506 448 741 384 conicto
976 320 1207 320 conicto
1516 320 1682 425 conicto
1848 531 1848 722 conicto
1848 900 1728 994 conicto
1608 1089 1202 1177 conicto
1050 1212 lineto
644 1298 463 1476 conicto
283 1654 283 1964 conicto
283 2341 549 2546 conicto
815 2752 1304 2752 conicto
1546 2752 1760 2704 conicto
1974 2656 2154 2560 conicto
end_ol grestore 
gsave 32.606700 12.500000 translate 0.035278 -0.035278 scale
start_ol
1392 0 moveto
38 3520 lineto
539 3520 lineto
1663 556 lineto
2788 3520 lineto
3287 3520 lineto
1936 0 lineto
1392 0 lineto
end_ol grestore 
gsave 32.993835 12.500000 translate 0.035278 -0.035278 scale
start_ol
1667 1344 moveto
1137 1344 933 1225 conicto
729 1106 729 818 conicto
729 589 882 454 conicto
1035 320 1299 320 conicto
1663 320 1882 572 conicto
2102 825 2102 1244 conicto
2102 1344 lineto
1667 1344 lineto
2539 1513 moveto
2539 0 lineto
2102 0 lineto
2102 384 lineto
1952 154 1729 45 conicto
1506 -64 1183 -64 conicto
774 -64 533 162 conicto
292 389 292 769 conicto
292 1213 592 1438 conicto
893 1664 1489 1664 conicto
2102 1664 lineto
2102 1712 lineto
2102 2025 1903 2196 conicto
1705 2368 1347 2368 conicto
1119 2368 903 2320 conicto
687 2272 487 2176 conicto
487 2560 lineto
727 2656 952 2704 conicto
1178 2752 1392 2752 conicto
1969 2752 2254 2444 conicto
2539 2137 2539 1513 conicto
end_ol grestore 
gsave 33.385964 12.500000 translate 0.035278 -0.035278 scale
start_ol
2000 2304 moveto
1926 2337 1839 2352 conicto
1753 2368 1648 2368 conicto
1278 2368 1079 2127 conicto
881 1887 881 1437 conicto
881 0 lineto
442 0 lineto
442 2688 lineto
881 2688 lineto
881 2304 lineto
1019 2531 1240 2641 conicto
1461 2752 1777 2752 conicto
1822 2752 1876 2752 conicto
1931 2752 1998 2752 conicto
2000 2304 lineto
end_ol grestore 
gsave 33.648216 12.500000 translate 0.035278 -0.035278 scale
start_ol
458 2688 moveto
895 2688 lineto
895 0 lineto
458 0 lineto
458 2688 lineto
458 3712 moveto
895 3712 lineto
895 3136 lineto
458 3136 lineto
458 3712 lineto
end_ol grestore 
gsave 33.825544 12.500000 translate 0.035278 -0.035278 scale
start_ol
1667 1344 moveto
1137 1344 933 1225 conicto
729 1106 729 818 conicto
729 589 882 454 conicto
1035 320 1299 320 conicto
1663 320 1882 572 conicto
2102 825 2102 1244 conicto
2102 1344 lineto
1667 1344 lineto
2539 1513 moveto
2539 0 lineto
2102 0 lineto
2102 384 lineto
1952 154 1729 45 conicto
1506 -64 1183 -64 conicto
774 -64 533 162 conicto
292 389 292 769 conicto
292 1213 592 1438 conicto
893 1664 1489 1664 conicto
2102 1664 lineto
2102 1712 lineto
2102 2025 1903 2196 conicto
1705 2368 1347 2368 conicto
1119 2368 903 2320 conicto
687 2272 487 2176 conicto
487 2560 lineto
727 2656 952 2704 conicto
1178 2752 1392 2752 conicto
1969 2752 2254 2444 conicto
2539 2137 2539 1513 conicto
end_ol grestore 
gsave 34.217674 12.500000 translate 0.035278 -0.035278 scale
start_ol
2368 1344 moveto
2368 1823 2169 2095 conicto
1971 2368 1624 2368 conicto
1278 2368 1079 2095 conicto
881 1823 881 1344 conicto
881 865 1079 592 conicto
1278 320 1624 320 conicto
1971 320 2169 592 conicto
2368 865 2368 1344 conicto
881 2304 moveto
1019 2531 1229 2641 conicto
1439 2752 1732 2752 conicto
2216 2752 2519 2364 conicto
2822 1976 2822 1344 conicto
2822 712 2519 324 conicto
2216 -64 1732 -64 conicto
1439 -64 1229 46 conicto
1019 157 881 384 conicto
881 0 lineto
442 0 lineto
442 3712 lineto
881 3712 lineto
881 2304 lineto
end_ol grestore 
gsave 34.624793 12.500000 translate 0.035278 -0.035278 scale
start_ol
458 3712 moveto
895 3712 lineto
895 0 lineto
458 0 lineto
458 3712 lineto
end_ol grestore 
gsave 34.802122 12.500000 translate 0.035278 -0.035278 scale
start_ol
2734 1480 moveto
2734 1280 lineto
724 1280 lineto
753 811 996 565 conicto
1240 320 1674 320 conicto
1926 320 2162 384 conicto
2399 448 2632 576 conicto
2632 192 lineto
2397 67 2150 1 conicto
1903 -64 1648 -64 conicto
1012 -64 640 309 conicto
268 683 268 1320 conicto
268 1979 621 2365 conicto
974 2752 1572 2752 conicto
2109 2752 2421 2410 conicto
2734 2068 2734 1480 conicto
2297 1600 moveto
2292 1950 2096 2159 conicto
1900 2368 1577 2368 conicto
1212 2368 992 2166 conicto
772 1964 739 1597 conicto
2297 1600 lineto
end_ol grestore 
gsave 35.196748 12.500000 translate 0.035278 -0.035278 scale
start_ol
2154 2560 moveto
2154 2176 lineto
1969 2272 1769 2320 conicto
1570 2368 1356 2368 conicto
1030 2368 867 2269 conicto
705 2170 705 1972 conicto
705 1821 821 1735 conicto
938 1649 1290 1571 conicto
1439 1538 lineto
1905 1438 2101 1255 conicto
2297 1072 2297 744 conicto
2297 371 2003 153 conicto
1710 -64 1197 -64 conicto
984 -64 752 -16 conicto
521 32 264 128 conicto
264 576 lineto
506 448 741 384 conicto
976 320 1207 320 conicto
1516 320 1682 425 conicto
1848 531 1848 722 conicto
1848 900 1728 994 conicto
1608 1089 1202 1177 conicto
1050 1212 lineto
644 1298 463 1476 conicto
283 1654 283 1964 conicto
283 2341 549 2546 conicto
815 2752 1304 2752 conicto
1546 2752 1760 2704 conicto
1974 2656 2154 2560 conicto
end_ol grestore 
gsave 35.528932 12.500000 translate 0.035278 -0.035278 scale
start_ol
end_ol grestore 
gsave 35.731239 12.500000 translate 0.035278 -0.035278 scale
start_ol
2209 2304 moveto
2209 3712 lineto
2646 3712 lineto
2646 0 lineto
2209 0 lineto
2209 384 lineto
2071 157 1861 46 conicto
1651 -64 1356 -64 conicto
874 -64 571 324 conicto
268 712 268 1344 conicto
268 1976 571 2364 conicto
874 2752 1356 2752 conicto
1651 2752 1861 2641 conicto
2071 2531 2209 2304 conicto
720 1344 moveto
720 865 918 592 conicto
1117 320 1463 320 conicto
1810 320 2009 592 conicto
2209 865 2209 1344 conicto
2209 1823 2009 2095 conicto
1810 2368 1463 2368 conicto
1117 2368 918 2095 conicto
720 1823 720 1344 conicto
end_ol grestore 
gsave 36.138358 12.500000 translate 0.035278 -0.035278 scale
start_ol
872 3520 moveto
872 2176 lineto
468 2176 lineto
468 3520 lineto
872 3520 lineto
end_ol grestore 
gsave 36.313190 12.500000 translate 0.035278 -0.035278 scale
start_ol
2734 1480 moveto
2734 1280 lineto
724 1280 lineto
753 811 996 565 conicto
1240 320 1674 320 conicto
1926 320 2162 384 conicto
2399 448 2632 576 conicto
2632 192 lineto
2397 67 2150 1 conicto
1903 -64 1648 -64 conicto
1012 -64 640 309 conicto
268 683 268 1320 conicto
268 1979 621 2365 conicto
974 2752 1572 2752 conicto
2109 2752 2421 2410 conicto
2734 2068 2734 1480 conicto
2297 1600 moveto
2292 1950 2096 2159 conicto
1900 2368 1577 2368 conicto
1212 2368 992 2166 conicto
772 1964 739 1597 conicto
2297 1600 lineto
1866 3904 moveto
2339 3904 lineto
1564 3008 lineto
1201 3008 lineto
1866 3904 lineto
end_ol grestore 
gsave 36.707816 12.500000 translate 0.035278 -0.035278 scale
start_ol
891 3456 moveto
891 2688 lineto
1791 2688 lineto
1791 2368 lineto
891 2368 lineto
891 902 lineto
891 572 980 478 conicto
1069 384 1342 384 conicto
1791 384 lineto
1791 0 lineto
1342 0 lineto
836 0 643 194 conicto
451 389 451 902 conicto
451 2368 lineto
131 2368 lineto
131 2688 lineto
451 2688 lineto
451 3456 lineto
891 3456 lineto
end_ol grestore 
gsave 36.957583 12.500000 translate 0.035278 -0.035278 scale
start_ol
1667 1344 moveto
1137 1344 933 1225 conicto
729 1106 729 818 conicto
729 589 882 454 conicto
1035 320 1299 320 conicto
1663 320 1882 572 conicto
2102 825 2102 1244 conicto
2102 1344 lineto
1667 1344 lineto
2539 1513 moveto
2539 0 lineto
2102 0 lineto
2102 384 lineto
1952 154 1729 45 conicto
1506 -64 1183 -64 conicto
774 -64 533 162 conicto
292 389 292 769 conicto
292 1213 592 1438 conicto
893 1664 1489 1664 conicto
2102 1664 lineto
2102 1712 lineto
2102 2025 1903 2196 conicto
1705 2368 1347 2368 conicto
1119 2368 903 2320 conicto
687 2272 487 2176 conicto
487 2560 lineto
727 2656 952 2704 conicto
1178 2752 1392 2752 conicto
1969 2752 2254 2444 conicto
2539 2137 2539 1513 conicto
end_ol grestore 
gsave 37.349712 12.500000 translate 0.035278 -0.035278 scale
start_ol
891 3456 moveto
891 2688 lineto
1791 2688 lineto
1791 2368 lineto
891 2368 lineto
891 902 lineto
891 572 980 478 conicto
1069 384 1342 384 conicto
1791 384 lineto
1791 0 lineto
1342 0 lineto
836 0 643 194 conicto
451 389 451 902 conicto
451 2368 lineto
131 2368 lineto
131 2688 lineto
451 2688 lineto
451 3456 lineto
891 3456 lineto
end_ol grestore 
gsave 33.050400 8.473620 translate 0.035278 -0.035278 scale
start_ol
3133 3264 moveto
3133 2752 lineto
2891 2977 2616 3088 conicto
2342 3200 2033 3200 conicto
1425 3200 1102 2829 conicto
779 2459 779 1759 conicto
779 1061 1102 690 conicto
1425 320 2033 320 conicto
2342 320 2616 431 conicto
2891 543 3133 768 conicto
3133 256 lineto
2881 96 2599 16 conicto
2318 -64 2005 -64 conicto
1199 -64 736 424 conicto
273 913 273 1759 conicto
273 2607 736 3095 conicto
1199 3584 2005 3584 conicto
2323 3584 2604 3504 conicto
2886 3424 3133 3264 conicto
end_ol grestore 
gsave 33.497480 8.473620 translate 0.035278 -0.035278 scale
start_ol
1489 2368 moveto
1138 2368 933 2094 conicto
729 1820 729 1344 conicto
729 868 932 594 conicto
1135 320 1489 320 conicto
1838 320 2042 595 conicto
2247 870 2247 1344 conicto
2247 1816 2042 2092 conicto
1838 2368 1489 2368 conicto
1489 2752 moveto
2059 2752 2384 2378 conicto
2710 2005 2710 1344 conicto
2710 685 2384 310 conicto
2059 -64 1489 -64 conicto
917 -64 592 310 conicto
268 685 268 1344 conicto
268 2005 592 2378 conicto
917 2752 1489 2752 conicto
end_ol grestore 
gsave 33.889609 8.473620 translate 0.035278 -0.035278 scale
start_ol
2529 2204 moveto
2693 2485 2921 2618 conicto
3149 2752 3458 2752 conicto
3874 2752 4099 2464 conicto
4325 2177 4325 1646 conicto
4325 0 lineto
3886 0 lineto
3886 1632 lineto
3886 2006 3750 2187 conicto
3615 2368 3337 2368 conicto
2997 2368 2800 2146 conicto
2603 1925 2603 1542 conicto
2603 0 lineto
2164 0 lineto
2164 1632 lineto
2164 2008 2028 2188 conicto
1893 2368 1610 2368 conicto
1275 2368 1078 2145 conicto
881 1922 881 1542 conicto
881 0 lineto
442 0 lineto
442 2688 lineto
881 2688 lineto
881 2304 lineto
1031 2534 1240 2643 conicto
1449 2752 1736 2752 conicto
2026 2752 2229 2611 conicto
2432 2471 2529 2204 conicto
end_ol grestore 
gsave 34.511520 8.473620 translate 0.035278 -0.035278 scale
start_ol
2529 2204 moveto
2693 2485 2921 2618 conicto
3149 2752 3458 2752 conicto
3874 2752 4099 2464 conicto
4325 2177 4325 1646 conicto
4325 0 lineto
3886 0 lineto
3886 1632 lineto
3886 2006 3750 2187 conicto
3615 2368 3337 2368 conicto
2997 2368 2800 2146 conicto
2603 1925 2603 1542 conicto
2603 0 lineto
2164 0 lineto
2164 1632 lineto
2164 2008 2028 2188 conicto
1893 2368 1610 2368 conicto
1275 2368 1078 2145 conicto
881 1922 881 1542 conicto
881 0 lineto
442 0 lineto
442 2688 lineto
881 2688 lineto
881 2304 lineto
1031 2534 1240 2643 conicto
1449 2752 1736 2752 conicto
2026 2752 2229 2611 conicto
2432 2471 2529 2204 conicto
end_ol grestore 
gsave 35.133432 8.473620 translate 0.035278 -0.035278 scale
start_ol
1667 1344 moveto
1137 1344 933 1225 conicto
729 1106 729 818 conicto
729 589 882 454 conicto
1035 320 1299 320 conicto
1663 320 1882 572 conicto
2102 825 2102 1244 conicto
2102 1344 lineto
1667 1344 lineto
2539 1513 moveto
2539 0 lineto
2102 0 lineto
2102 384 lineto
1952 154 1729 45 conicto
1506 -64 1183 -64 conicto
774 -64 533 162 conicto
292 389 292 769 conicto
292 1213 592 1438 conicto
893 1664 1489 1664 conicto
2102 1664 lineto
2102 1712 lineto
2102 2025 1903 2196 conicto
1705 2368 1347 2368 conicto
1119 2368 903 2320 conicto
687 2272 487 2176 conicto
487 2560 lineto
727 2656 952 2704 conicto
1178 2752 1392 2752 conicto
1969 2752 2254 2444 conicto
2539 2137 2539 1513 conicto
end_ol grestore 
gsave 35.525561 8.473620 translate 0.035278 -0.035278 scale
start_ol
2670 1646 moveto
2670 0 lineto
2233 0 lineto
2233 1632 lineto
2233 2001 2085 2184 conicto
1938 2368 1644 2368 conicto
1290 2368 1085 2146 conicto
881 1925 881 1542 conicto
881 0 lineto
442 0 lineto
442 2688 lineto
881 2688 lineto
881 2304 lineto
1038 2529 1250 2640 conicto
1463 2752 1741 2752 conicto
2200 2752 2435 2471 conicto
2670 2191 2670 1646 conicto
end_ol grestore 
gsave 35.930175 8.473620 translate 0.035278 -0.035278 scale
start_ol
2209 2304 moveto
2209 3712 lineto
2646 3712 lineto
2646 0 lineto
2209 0 lineto
2209 384 lineto
2071 157 1861 46 conicto
1651 -64 1356 -64 conicto
874 -64 571 324 conicto
268 712 268 1344 conicto
268 1976 571 2364 conicto
874 2752 1356 2752 conicto
1651 2752 1861 2641 conicto
2071 2531 2209 2304 conicto
720 1344 moveto
720 865 918 592 conicto
1117 320 1463 320 conicto
1810 320 2009 592 conicto
2209 865 2209 1344 conicto
2209 1823 2009 2095 conicto
1810 2368 1463 2368 conicto
1117 2368 918 2095 conicto
720 1823 720 1344 conicto
end_ol grestore 
gsave 36.337294 8.473620 translate 0.035278 -0.035278 scale
start_ol
2734 1480 moveto
2734 1280 lineto
724 1280 lineto
753 811 996 565 conicto
1240 320 1674 320 conicto
1926 320 2162 384 conicto
2399 448 2632 576 conicto
2632 192 lineto
2397 67 2150 1 conicto
1903 -64 1648 -64 conicto
1012 -64 640 309 conicto
268 683 268 1320 conicto
268 1979 621 2365 conicto
974 2752 1572 2752 conicto
2109 2752 2421 2410 conicto
2734 2068 2734 1480 conicto
2297 1600 moveto
2292 1950 2096 2159 conicto
1900 2368 1577 2368 conicto
1212 2368 992 2166 conicto
772 1964 739 1597 conicto
2297 1600 lineto
end_ol grestore 
gsave 36.731920 8.473620 translate 0.035278 -0.035278 scale
start_ol
2154 2560 moveto
2154 2176 lineto
1969 2272 1769 2320 conicto
1570 2368 1356 2368 conicto
1030 2368 867 2269 conicto
705 2170 705 1972 conicto
705 1821 821 1735 conicto
938 1649 1290 1571 conicto
1439 1538 lineto
1905 1438 2101 1255 conicto
2297 1072 2297 744 conicto
2297 371 2003 153 conicto
1710 -64 1197 -64 conicto
984 -64 752 -16 conicto
521 32 264 128 conicto
264 576 lineto
506 448 741 384 conicto
976 320 1207 320 conicto
1516 320 1682 425 conicto
1848 531 1848 722 conicto
1848 900 1728 994 conicto
1608 1089 1202 1177 conicto
1050 1212 lineto
644 1298 463 1476 conicto
283 1654 283 1964 conicto
283 2341 549 2546 conicto
815 2752 1304 2752 conicto
1546 2752 1760 2704 conicto
1974 2656 2154 2560 conicto
end_ol grestore 
0.100000 slw
[] 0 sd
0 slc
0.000000 0.000000 0.000000 srgb
n 45.000000 9.000000 m 47.513197 9.000000 l s
[] 0 sd
0 slj
0 slc
n 47.888197 9.000000 m 47.388197 9.250000 l 47.513197 9.000000 l 47.388197 8.750000 l ef
n 47.888197 9.000000 m 47.388197 9.250000 l 47.513197 9.000000 l 47.388197 8.750000 l cp s
showpage
