%!PS-Adobe-3.0 EPSF-3.0
%%Creator: (MATLAB, The Mathworks, Inc. Version 9.4.0.813654 \(R2018a\). Operating System: Linux)
%%Title: /home/jcano/cours/nonlin/projet/rapport/fig/traj_des_poly.eps
%%CreationDate: 2019-11-21T19:24:21
%%Pages: (atend)
%%BoundingBox: 0 0 420 315
%%LanguageLevel: 3
%%EndComments
%%BeginProlog
%%BeginResource: procset (Apache XML Graphics Std ProcSet) 1.2 0
%%Version: 1.2 0
%%Copyright: (Copyright 2001-2003,2010 The Apache Software Foundation. License terms: http://www.apache.org/licenses/LICENSE-2.0)
/bd{bind def}bind def
/ld{load def}bd
/GR/grestore ld
/GS/gsave ld
/RM/rmoveto ld
/C/curveto ld
/t/show ld
/L/lineto ld
/ML/setmiterlimit ld
/CT/concat ld
/f/fill ld
/N/newpath ld
/S/stroke ld
/CC/setcmykcolor ld
/A/ashow ld
/cp/closepath ld
/RC/setrgbcolor ld
/LJ/setlinejoin ld
/GC/setgray ld
/LW/setlinewidth ld
/M/moveto ld
/re {4 2 roll M
1 index 0 rlineto
0 exch rlineto
neg 0 rlineto
cp } bd
/_ctm matrix def
/_tm matrix def
/BT { _ctm currentmatrix pop matrix _tm copy pop 0 0 moveto } bd
/ET { _ctm setmatrix } bd
/iTm { _ctm setmatrix _tm concat } bd
/Tm { _tm astore pop iTm 0 0 moveto } bd
/ux 0.0 def
/uy 0.0 def
/F {
  /Tp exch def
  /Tf exch def
  Tf findfont Tp scalefont setfont
  /cf Tf def  /cs Tp def
} bd
/ULS {currentpoint /uy exch def /ux exch def} bd
/ULE {
  /Tcx currentpoint pop def
  gsave
  newpath
  cf findfont cs scalefont dup
  /FontMatrix get 0 get /Ts exch def /FontInfo get dup
  /UnderlinePosition get Ts mul /To exch def
  /UnderlineThickness get Ts mul /Tt exch def
  ux uy To add moveto  Tcx uy To add lineto
  Tt setlinewidth stroke
  grestore
} bd
/OLE {
  /Tcx currentpoint pop def
  gsave
  newpath
  cf findfont cs scalefont dup
  /FontMatrix get 0 get /Ts exch def /FontInfo get dup
  /UnderlinePosition get Ts mul /To exch def
  /UnderlineThickness get Ts mul /Tt exch def
  ux uy To add cs add moveto Tcx uy To add cs add lineto
  Tt setlinewidth stroke
  grestore
} bd
/SOE {
  /Tcx currentpoint pop def
  gsave
  newpath
  cf findfont cs scalefont dup
  /FontMatrix get 0 get /Ts exch def /FontInfo get dup
  /UnderlinePosition get Ts mul /To exch def
  /UnderlineThickness get Ts mul /Tt exch def
  ux uy To add cs 10 mul 26 idiv add moveto Tcx uy To add cs 10 mul 26 idiv add lineto
  Tt setlinewidth stroke
  grestore
} bd
/QT {
/Y22 exch store
/X22 exch store
/Y21 exch store
/X21 exch store
currentpoint
/Y21 load 2 mul add 3 div exch
/X21 load 2 mul add 3 div exch
/X21 load 2 mul /X22 load add 3 div
/Y21 load 2 mul /Y22 load add 3 div
/X22 load /Y22 load curveto
} bd
/SSPD {
dup length /d exch dict def
{
/v exch def
/k exch def
currentpagedevice k known {
/cpdv currentpagedevice k get def
v cpdv ne {
/upd false def
/nullv v type /nulltype eq def
/nullcpdv cpdv type /nulltype eq def
nullv nullcpdv or
{
/upd true def
} {
/sametype v type cpdv type eq def
sametype {
v type /arraytype eq {
/vlen v length def
/cpdvlen cpdv length def
vlen cpdvlen eq {
0 1 vlen 1 sub {
/i exch def
/obj v i get def
/cpdobj cpdv i get def
obj cpdobj ne {
/upd true def
exit
} if
} for
} {
/upd true def
} ifelse
} {
v type /dicttype eq {
v {
/dv exch def
/dk exch def
/cpddv cpdv dk get def
dv cpddv ne {
/upd true def
exit
} if
} forall
} {
/upd true def
} ifelse
} ifelse
} if
} ifelse
upd true eq {
d k v put
} if
} if
} if
} forall
d length 0 gt {
d setpagedevice
} if
} bd
/RE { % /NewFontName [NewEncodingArray] /FontName RE -
  findfont dup length dict begin
  {
    1 index /FID ne
    {def} {pop pop} ifelse
  } forall
  /Encoding exch def
  /FontName 1 index def
  currentdict definefont pop
  end
} bind def
%%EndResource
%%BeginResource: procset (Apache XML Graphics EPS ProcSet) 1.0 0
%%Version: 1.0 0
%%Copyright: (Copyright 2002-2003 The Apache Software Foundation. License terms: http://www.apache.org/licenses/LICENSE-2.0)
/BeginEPSF { %def
/b4_Inc_state save def         % Save state for cleanup
/dict_count countdictstack def % Count objects on dict stack
/op_count count 1 sub def      % Count objects on operand stack
userdict begin                 % Push userdict on dict stack
/showpage { } def              % Redefine showpage, { } = null proc
0 setgray 0 setlinecap         % Prepare graphics state
1 setlinewidth 0 setlinejoin
10 setmiterlimit [ ] 0 setdash newpath
/languagelevel where           % If level not equal to 1 then
{pop languagelevel             % set strokeadjust and
1 ne                           % overprint to their defaults.
{false setstrokeadjust false setoverprint
} if
} if
} bd
/EndEPSF { %def
count op_count sub {pop} repeat            % Clean up stacks
countdictstack dict_count sub {end} repeat
b4_Inc_state restore
} bd
%%EndResource
%FOPBeginFontDict
%%IncludeResource: font Courier-Oblique
%%IncludeResource: font Courier-BoldOblique
%%IncludeResource: font Courier-Bold
%%IncludeResource: font ZapfDingbats
%%IncludeResource: font Symbol
%%IncludeResource: font Helvetica
%%IncludeResource: font Helvetica-Oblique
%%IncludeResource: font Helvetica-Bold
%%IncludeResource: font Helvetica-BoldOblique
%%IncludeResource: font Times-Roman
%%IncludeResource: font Times-Italic
%%IncludeResource: font Times-Bold
%%IncludeResource: font Times-BoldItalic
%%IncludeResource: font Courier
%FOPEndFontDict
%%BeginResource: encoding WinAnsiEncoding
/WinAnsiEncoding [
/.notdef /.notdef /.notdef /.notdef /.notdef
/.notdef /.notdef /.notdef /.notdef /.notdef
/.notdef /.notdef /.notdef /.notdef /.notdef
/.notdef /.notdef /.notdef /.notdef /.notdef
/.notdef /.notdef /.notdef /.notdef /.notdef
/.notdef /.notdef /.notdef /.notdef /.notdef
/.notdef /.notdef /space /exclam /quotedbl
/numbersign /dollar /percent /ampersand /quotesingle
/parenleft /parenright /asterisk /plus /comma
/hyphen /period /slash /zero /one
/two /three /four /five /six
/seven /eight /nine /colon /semicolon
/less /equal /greater /question /at
/A /B /C /D /E
/F /G /H /I /J
/K /L /M /N /O
/P /Q /R /S /T
/U /V /W /X /Y
/Z /bracketleft /backslash /bracketright /asciicircum
/underscore /quoteleft /a /b /c
/d /e /f /g /h
/i /j /k /l /m
/n /o /p /q /r
/s /t /u /v /w
/x /y /z /braceleft /bar
/braceright /asciitilde /bullet /Euro /bullet
/quotesinglbase /florin /quotedblbase /ellipsis /dagger
/daggerdbl /circumflex /perthousand /Scaron /guilsinglleft
/OE /bullet /Zcaron /bullet /bullet
/quoteleft /quoteright /quotedblleft /quotedblright /bullet
/endash /emdash /asciitilde /trademark /scaron
/guilsinglright /oe /bullet /zcaron /Ydieresis
/space /exclamdown /cent /sterling /currency
/yen /brokenbar /section /dieresis /copyright
/ordfeminine /guillemotleft /logicalnot /sfthyphen /registered
/macron /degree /plusminus /twosuperior /threesuperior
/acute /mu /paragraph /middot /cedilla
/onesuperior /ordmasculine /guillemotright /onequarter /onehalf
/threequarters /questiondown /Agrave /Aacute /Acircumflex
/Atilde /Adieresis /Aring /AE /Ccedilla
/Egrave /Eacute /Ecircumflex /Edieresis /Igrave
/Iacute /Icircumflex /Idieresis /Eth /Ntilde
/Ograve /Oacute /Ocircumflex /Otilde /Odieresis
/multiply /Oslash /Ugrave /Uacute /Ucircumflex
/Udieresis /Yacute /Thorn /germandbls /agrave
/aacute /acircumflex /atilde /adieresis /aring
/ae /ccedilla /egrave /eacute /ecircumflex
/edieresis /igrave /iacute /icircumflex /idieresis
/eth /ntilde /ograve /oacute /ocircumflex
/otilde /odieresis /divide /oslash /ugrave
/uacute /ucircumflex /udieresis /yacute /thorn
/ydieresis
] def
%%EndResource
%FOPBeginFontReencode
/Courier-Oblique findfont
dup length dict begin
  {1 index /FID ne {def} {pop pop} ifelse} forall
  /Encoding WinAnsiEncoding def
  currentdict
end
/Courier-Oblique exch definefont pop
/Courier-BoldOblique findfont
dup length dict begin
  {1 index /FID ne {def} {pop pop} ifelse} forall
  /Encoding WinAnsiEncoding def
  currentdict
end
/Courier-BoldOblique exch definefont pop
/Courier-Bold findfont
dup length dict begin
  {1 index /FID ne {def} {pop pop} ifelse} forall
  /Encoding WinAnsiEncoding def
  currentdict
end
/Courier-Bold exch definefont pop
/Helvetica findfont
dup length dict begin
  {1 index /FID ne {def} {pop pop} ifelse} forall
  /Encoding WinAnsiEncoding def
  currentdict
end
/Helvetica exch definefont pop
/Helvetica-Oblique findfont
dup length dict begin
  {1 index /FID ne {def} {pop pop} ifelse} forall
  /Encoding WinAnsiEncoding def
  currentdict
end
/Helvetica-Oblique exch definefont pop
/Helvetica-Bold findfont
dup length dict begin
  {1 index /FID ne {def} {pop pop} ifelse} forall
  /Encoding WinAnsiEncoding def
  currentdict
end
/Helvetica-Bold exch definefont pop
/Helvetica-BoldOblique findfont
dup length dict begin
  {1 index /FID ne {def} {pop pop} ifelse} forall
  /Encoding WinAnsiEncoding def
  currentdict
end
/Helvetica-BoldOblique exch definefont pop
/Times-Roman findfont
dup length dict begin
  {1 index /FID ne {def} {pop pop} ifelse} forall
  /Encoding WinAnsiEncoding def
  currentdict
end
/Times-Roman exch definefont pop
/Times-Italic findfont
dup length dict begin
  {1 index /FID ne {def} {pop pop} ifelse} forall
  /Encoding WinAnsiEncoding def
  currentdict
end
/Times-Italic exch definefont pop
/Times-Bold findfont
dup length dict begin
  {1 index /FID ne {def} {pop pop} ifelse} forall
  /Encoding WinAnsiEncoding def
  currentdict
end
/Times-Bold exch definefont pop
/Times-BoldItalic findfont
dup length dict begin
  {1 index /FID ne {def} {pop pop} ifelse} forall
  /Encoding WinAnsiEncoding def
  currentdict
end
/Times-BoldItalic exch definefont pop
/Courier findfont
dup length dict begin
  {1 index /FID ne {def} {pop pop} ifelse} forall
  /Encoding WinAnsiEncoding def
  currentdict
end
/Courier exch definefont pop
%FOPEndFontReencode
%%EndProlog
%%Page: 1 1
%%PageBoundingBox: 0 0 420 315
%%BeginPageSetup
[1 0 0 -1 0 315] CT
%%EndPageSetup
GS
[0.75 0 0 0.75 0 0] CT
1 GC
N
0 0 560 420 re
f
GR
GS
[0.75 0 0 0.75 0 0] CT
1 GC
N
0 0 560 420 re
f
GR
GS
[0.75 0 0 0.75 0 0] CT
1 GC
N
73 374 M
507 374 L
507 31 L
73 31 L
cp
f
GR
GS
[0.75 0 0 0.75 0 0] CT
0.873 GC
1 LJ
0.667 LW
N
73 374 M
73 31 L
S
GR
GS
[0.75 0 0 0.75 0 0] CT
0.873 GC
1 LJ
0.667 LW
N
109.167 374 M
109.167 31 L
S
GR
GS
[0.75 0 0 0.75 0 0] CT
0.873 GC
1 LJ
0.667 LW
N
145.333 374 M
145.333 31 L
S
GR
GS
[0.75 0 0 0.75 0 0] CT
0.873 GC
1 LJ
0.667 LW
N
181.5 374 M
181.5 31 L
S
GR
GS
[0.75 0 0 0.75 0 0] CT
0.873 GC
1 LJ
0.667 LW
N
217.667 374 M
217.667 31 L
S
GR
GS
[0.75 0 0 0.75 0 0] CT
0.873 GC
1 LJ
0.667 LW
N
253.833 374 M
253.833 31 L
S
GR
GS
[0.75 0 0 0.75 0 0] CT
0.873 GC
1 LJ
0.667 LW
N
290 374 M
290 31 L
S
GR
GS
[0.75 0 0 0.75 0 0] CT
0.873 GC
1 LJ
0.667 LW
N
326.167 374 M
326.167 31 L
S
GR
GS
[0.75 0 0 0.75 0 0] CT
0.873 GC
1 LJ
0.667 LW
N
362.333 374 M
362.333 31 L
S
GR
GS
[0.75 0 0 0.75 0 0] CT
0.873 GC
1 LJ
0.667 LW
N
398.5 374 M
398.5 31 L
S
GR
GS
[0.75 0 0 0.75 0 0] CT
0.873 GC
1 LJ
0.667 LW
N
434.667 374 M
434.667 31 L
S
GR
GS
[0.75 0 0 0.75 0 0] CT
0.873 GC
1 LJ
0.667 LW
N
470.833 374 M
470.833 31 L
S
GR
GS
[0.75 0 0 0.75 0 0] CT
0.873 GC
1 LJ
0.667 LW
N
507 374 M
507 31 L
S
GR
GS
[0.75 0 0 0.75 0 0] CT
0.873 GC
1 LJ
0.667 LW
N
507 374 M
73 374 L
S
GR
GS
[0.75 0 0 0.75 0 0] CT
0.873 GC
1 LJ
0.667 LW
N
507 345.417 M
73 345.417 L
S
GR
GS
[0.75 0 0 0.75 0 0] CT
0.873 GC
1 LJ
0.667 LW
N
507 316.833 M
73 316.833 L
S
GR
GS
[0.75 0 0 0.75 0 0] CT
0.873 GC
1 LJ
0.667 LW
N
507 288.25 M
73 288.25 L
S
GR
GS
[0.75 0 0 0.75 0 0] CT
0.873 GC
1 LJ
0.667 LW
N
507 259.667 M
73 259.667 L
S
GR
GS
[0.75 0 0 0.75 0 0] CT
0.873 GC
1 LJ
0.667 LW
N
507 231.083 M
73 231.083 L
S
GR
GS
[0.75 0 0 0.75 0 0] CT
0.873 GC
1 LJ
0.667 LW
N
507 202.5 M
73 202.5 L
S
GR
GS
[0.75 0 0 0.75 0 0] CT
0.873 GC
1 LJ
0.667 LW
N
507 173.917 M
73 173.917 L
S
GR
GS
[0.75 0 0 0.75 0 0] CT
0.873 GC
1 LJ
0.667 LW
N
507 145.333 M
73 145.333 L
S
GR
GS
[0.75 0 0 0.75 0 0] CT
0.873 GC
1 LJ
0.667 LW
N
507 116.75 M
73 116.75 L
S
GR
GS
[0.75 0 0 0.75 0 0] CT
0.873 GC
1 LJ
0.667 LW
N
507 88.167 M
73 88.167 L
S
GR
GS
[0.75 0 0 0.75 0 0] CT
0.873 GC
1 LJ
0.667 LW
N
507 59.583 M
73 59.583 L
S
GR
GS
[0.75 0 0 0.75 0 0] CT
0.873 GC
1 LJ
0.667 LW
N
507 31 M
73 31 L
S
GR
GS
[0.75 0 0 0.75 0 0] CT
0.149 GC
2 setlinecap
1 LJ
0.667 LW
N
73 374 M
507 374 L
S
GR
GS
[0.75 0 0 0.75 0 0] CT
0.149 GC
2 setlinecap
1 LJ
0.667 LW
N
73 31 M
507 31 L
S
GR
GS
[0.75 0 0 0.75 0 0] CT
0.149 GC
2 setlinecap
1 LJ
0.667 LW
N
73 374 M
73 369.66 L
S
GR
GS
[0.75 0 0 0.75 0 0] CT
0.149 GC
2 setlinecap
1 LJ
0.667 LW
N
109.167 374 M
109.167 369.66 L
S
GR
GS
[0.75 0 0 0.75 0 0] CT
0.149 GC
2 setlinecap
1 LJ
0.667 LW
N
145.333 374 M
145.333 369.66 L
S
GR
GS
[0.75 0 0 0.75 0 0] CT
0.149 GC
2 setlinecap
1 LJ
0.667 LW
N
181.5 374 M
181.5 369.66 L
S
GR
GS
[0.75 0 0 0.75 0 0] CT
0.149 GC
2 setlinecap
1 LJ
0.667 LW
N
217.667 374 M
217.667 369.66 L
S
GR
GS
[0.75 0 0 0.75 0 0] CT
0.149 GC
2 setlinecap
1 LJ
0.667 LW
N
253.833 374 M
253.833 369.66 L
S
GR
GS
[0.75 0 0 0.75 0 0] CT
0.149 GC
2 setlinecap
1 LJ
0.667 LW
N
290 374 M
290 369.66 L
S
GR
GS
[0.75 0 0 0.75 0 0] CT
0.149 GC
2 setlinecap
1 LJ
0.667 LW
N
326.167 374 M
326.167 369.66 L
S
GR
GS
[0.75 0 0 0.75 0 0] CT
0.149 GC
2 setlinecap
1 LJ
0.667 LW
N
362.333 374 M
362.333 369.66 L
S
GR
GS
[0.75 0 0 0.75 0 0] CT
0.149 GC
2 setlinecap
1 LJ
0.667 LW
N
398.5 374 M
398.5 369.66 L
S
GR
GS
[0.75 0 0 0.75 0 0] CT
0.149 GC
2 setlinecap
1 LJ
0.667 LW
N
434.667 374 M
434.667 369.66 L
S
GR
GS
[0.75 0 0 0.75 0 0] CT
0.149 GC
2 setlinecap
1 LJ
0.667 LW
N
470.833 374 M
470.833 369.66 L
S
GR
GS
[0.75 0 0 0.75 0 0] CT
0.149 GC
2 setlinecap
1 LJ
0.667 LW
N
507 374 M
507 369.66 L
S
GR
GS
[0.75 0 0 0.75 0 0] CT
0.149 GC
2 setlinecap
1 LJ
0.667 LW
N
73 31 M
73 35.34 L
S
GR
GS
[0.75 0 0 0.75 0 0] CT
0.149 GC
2 setlinecap
1 LJ
0.667 LW
N
109.167 31 M
109.167 35.34 L
S
GR
GS
[0.75 0 0 0.75 0 0] CT
0.149 GC
2 setlinecap
1 LJ
0.667 LW
N
145.333 31 M
145.333 35.34 L
S
GR
GS
[0.75 0 0 0.75 0 0] CT
0.149 GC
2 setlinecap
1 LJ
0.667 LW
N
181.5 31 M
181.5 35.34 L
S
GR
GS
[0.75 0 0 0.75 0 0] CT
0.149 GC
2 setlinecap
1 LJ
0.667 LW
N
217.667 31 M
217.667 35.34 L
S
GR
GS
[0.75 0 0 0.75 0 0] CT
0.149 GC
2 setlinecap
1 LJ
0.667 LW
N
253.833 31 M
253.833 35.34 L
S
GR
GS
[0.75 0 0 0.75 0 0] CT
0.149 GC
2 setlinecap
1 LJ
0.667 LW
N
290 31 M
290 35.34 L
S
GR
GS
[0.75 0 0 0.75 0 0] CT
0.149 GC
2 setlinecap
1 LJ
0.667 LW
N
326.167 31 M
326.167 35.34 L
S
GR
GS
[0.75 0 0 0.75 0 0] CT
0.149 GC
2 setlinecap
1 LJ
0.667 LW
N
362.333 31 M
362.333 35.34 L
S
GR
GS
[0.75 0 0 0.75 0 0] CT
0.149 GC
2 setlinecap
1 LJ
0.667 LW
N
398.5 31 M
398.5 35.34 L
S
GR
GS
[0.75 0 0 0.75 0 0] CT
0.149 GC
2 setlinecap
1 LJ
0.667 LW
N
434.667 31 M
434.667 35.34 L
S
GR
GS
[0.75 0 0 0.75 0 0] CT
0.149 GC
2 setlinecap
1 LJ
0.667 LW
N
470.833 31 M
470.833 35.34 L
S
GR
GS
[0.75 0 0 0.75 0 0] CT
0.149 GC
2 setlinecap
1 LJ
0.667 LW
N
507 31 M
507 35.34 L
S
GR
GS
[0.75 0 0 0.75 54.74999 284.50001] CT
0.149 GC
/Helvetica 13.333 F
GS
[1 0 0 1 0 0] CT
-13 13 moveto 
1 -1 scale
(-0.6) t 
GR
GR
GS
[0.75 0 0 0.75 81.875 284.50001] CT
0.149 GC
/Helvetica 13.333 F
GS
[1 0 0 1 0 0] CT
-13 13 moveto 
1 -1 scale
(-0.5) t 
GR
GR
GS
[0.75 0 0 0.75 109 284.50001] CT
0.149 GC
/Helvetica 13.333 F
GS
[1 0 0 1 0 0] CT
-13 13 moveto 
1 -1 scale
(-0.4) t 
GR
GR
GS
[0.75 0 0 0.75 136.125 284.50001] CT
0.149 GC
/Helvetica 13.333 F
GS
[1 0 0 1 0 0] CT
-13 13 moveto 
1 -1 scale
(-0.3) t 
GR
GR
GS
[0.75 0 0 0.75 163.25 284.50001] CT
0.149 GC
/Helvetica 13.333 F
GS
[1 0 0 1 0 0] CT
-13 13 moveto 
1 -1 scale
(-0.2) t 
GR
GR
GS
[0.75 0 0 0.75 190.375 284.50001] CT
0.149 GC
/Helvetica 13.333 F
GS
[1 0 0 1 0 0] CT
-13 13 moveto 
1 -1 scale
(-0.1) t 
GR
GR
GS
[0.75 0 0 0.75 217.5 284.50001] CT
0.149 GC
/Helvetica 13.333 F
GS
[1 0 0 1 0 0] CT
-4.5 13 moveto 
1 -1 scale
(0) t 
GR
GR
GS
[0.75 0 0 0.75 244.62499 284.50001] CT
0.149 GC
/Helvetica 13.333 F
GS
[1 0 0 1 0 0] CT
-11 13 moveto 
1 -1 scale
(0.1) t 
GR
GR
GS
[0.75 0 0 0.75 271.75001 284.50001] CT
0.149 GC
/Helvetica 13.333 F
GS
[1 0 0 1 0 0] CT
-11 13 moveto 
1 -1 scale
(0.2) t 
GR
GR
GS
[0.75 0 0 0.75 298.875 284.50001] CT
0.149 GC
/Helvetica 13.333 F
GS
[1 0 0 1 0 0] CT
-11 13 moveto 
1 -1 scale
(0.3) t 
GR
GR
GS
[0.75 0 0 0.75 325.99999 284.50001] CT
0.149 GC
/Helvetica 13.333 F
GS
[1 0 0 1 0 0] CT
-11 13 moveto 
1 -1 scale
(0.4) t 
GR
GR
GS
[0.75 0 0 0.75 353.12501 284.50001] CT
0.149 GC
/Helvetica 13.333 F
GS
[1 0 0 1 0 0] CT
-11 13 moveto 
1 -1 scale
(0.5) t 
GR
GR
GS
[0.75 0 0 0.75 380.25 284.50001] CT
0.149 GC
/Helvetica 13.333 F
GS
[1 0 0 1 0 0] CT
-11 13 moveto 
1 -1 scale
(0.6) t 
GR
GR
GS
[0.75 0 0 0.75 217.50016 298.24999] CT
0.149 GC
/Helvetica 14.667 F
GS
[1 0 0 1 0 0] CT
-20 14 moveto 
1 -1 scale
(x [m]) t 
GR
GR
GS
[0.75 0 0 0.75 0 0] CT
0.149 GC
2 setlinecap
1 LJ
0.667 LW
N
73 374 M
73 31 L
S
GR
GS
[0.75 0 0 0.75 0 0] CT
0.149 GC
2 setlinecap
1 LJ
0.667 LW
N
507 374 M
507 31 L
S
GR
GS
[0.75 0 0 0.75 0 0] CT
0.149 GC
2 setlinecap
1 LJ
0.667 LW
N
73 374 M
77.34 374 L
S
GR
GS
[0.75 0 0 0.75 0 0] CT
0.149 GC
2 setlinecap
1 LJ
0.667 LW
N
73 345.417 M
77.34 345.417 L
S
GR
GS
[0.75 0 0 0.75 0 0] CT
0.149 GC
2 setlinecap
1 LJ
0.667 LW
N
73 316.833 M
77.34 316.833 L
S
GR
GS
[0.75 0 0 0.75 0 0] CT
0.149 GC
2 setlinecap
1 LJ
0.667 LW
N
73 288.25 M
77.34 288.25 L
S
GR
GS
[0.75 0 0 0.75 0 0] CT
0.149 GC
2 setlinecap
1 LJ
0.667 LW
N
73 259.667 M
77.34 259.667 L
S
GR
GS
[0.75 0 0 0.75 0 0] CT
0.149 GC
2 setlinecap
1 LJ
0.667 LW
N
73 231.083 M
77.34 231.083 L
S
GR
GS
[0.75 0 0 0.75 0 0] CT
0.149 GC
2 setlinecap
1 LJ
0.667 LW
N
73 202.5 M
77.34 202.5 L
S
GR
GS
[0.75 0 0 0.75 0 0] CT
0.149 GC
2 setlinecap
1 LJ
0.667 LW
N
73 173.917 M
77.34 173.917 L
S
GR
GS
[0.75 0 0 0.75 0 0] CT
0.149 GC
2 setlinecap
1 LJ
0.667 LW
N
73 145.333 M
77.34 145.333 L
S
GR
GS
[0.75 0 0 0.75 0 0] CT
0.149 GC
2 setlinecap
1 LJ
0.667 LW
N
73 116.75 M
77.34 116.75 L
S
GR
GS
[0.75 0 0 0.75 0 0] CT
0.149 GC
2 setlinecap
1 LJ
0.667 LW
N
73 88.167 M
77.34 88.167 L
S
GR
GS
[0.75 0 0 0.75 0 0] CT
0.149 GC
2 setlinecap
1 LJ
0.667 LW
N
73 59.583 M
77.34 59.583 L
S
GR
GS
[0.75 0 0 0.75 0 0] CT
0.149 GC
2 setlinecap
1 LJ
0.667 LW
N
73 31 M
77.34 31 L
S
GR
GS
[0.75 0 0 0.75 0 0] CT
0.149 GC
2 setlinecap
1 LJ
0.667 LW
N
507 374 M
502.66 374 L
S
GR
GS
[0.75 0 0 0.75 0 0] CT
0.149 GC
2 setlinecap
1 LJ
0.667 LW
N
507 345.417 M
502.66 345.417 L
S
GR
GS
[0.75 0 0 0.75 0 0] CT
0.149 GC
2 setlinecap
1 LJ
0.667 LW
N
507 316.833 M
502.66 316.833 L
S
GR
GS
[0.75 0 0 0.75 0 0] CT
0.149 GC
2 setlinecap
1 LJ
0.667 LW
N
507 288.25 M
502.66 288.25 L
S
GR
GS
[0.75 0 0 0.75 0 0] CT
0.149 GC
2 setlinecap
1 LJ
0.667 LW
N
507 259.667 M
502.66 259.667 L
S
GR
GS
[0.75 0 0 0.75 0 0] CT
0.149 GC
2 setlinecap
1 LJ
0.667 LW
N
507 231.083 M
502.66 231.083 L
S
GR
GS
[0.75 0 0 0.75 0 0] CT
0.149 GC
2 setlinecap
1 LJ
0.667 LW
N
507 202.5 M
502.66 202.5 L
S
GR
GS
[0.75 0 0 0.75 0 0] CT
0.149 GC
2 setlinecap
1 LJ
0.667 LW
N
507 173.917 M
502.66 173.917 L
S
GR
GS
[0.75 0 0 0.75 0 0] CT
0.149 GC
2 setlinecap
1 LJ
0.667 LW
N
507 145.333 M
502.66 145.333 L
S
GR
GS
[0.75 0 0 0.75 0 0] CT
0.149 GC
2 setlinecap
1 LJ
0.667 LW
N
507 116.75 M
502.66 116.75 L
S
GR
GS
[0.75 0 0 0.75 0 0] CT
0.149 GC
2 setlinecap
1 LJ
0.667 LW
N
507 88.167 M
502.66 88.167 L
S
GR
GS
[0.75 0 0 0.75 0 0] CT
0.149 GC
2 setlinecap
1 LJ
0.667 LW
N
507 59.583 M
502.66 59.583 L
S
GR
GS
[0.75 0 0 0.75 0 0] CT
0.149 GC
2 setlinecap
1 LJ
0.667 LW
N
507 31 M
502.66 31 L
S
GR
GS
[0.75 0 0 0.75 50.74999 280.5] CT
0.149 GC
/Helvetica 13.333 F
GS
[1 0 0 1 0 0] CT
-26 4.5 moveto 
1 -1 scale
(-0.6) t 
GR
GR
GS
[0.75 0 0 0.75 50.74999 259.06249] CT
0.149 GC
/Helvetica 13.333 F
GS
[1 0 0 1 0 0] CT
-26 4.5 moveto 
1 -1 scale
(-0.5) t 
GR
GR
GS
[0.75 0 0 0.75 50.74999 237.62501] CT
0.149 GC
/Helvetica 13.333 F
GS
[1 0 0 1 0 0] CT
-26 4.5 moveto 
1 -1 scale
(-0.4) t 
GR
GR
GS
[0.75 0 0 0.75 50.74999 216.1875] CT
0.149 GC
/Helvetica 13.333 F
GS
[1 0 0 1 0 0] CT
-26 4.5 moveto 
1 -1 scale
(-0.3) t 
GR
GR
GS
[0.75 0 0 0.75 50.74999 194.74999] CT
0.149 GC
/Helvetica 13.333 F
GS
[1 0 0 1 0 0] CT
-26 4.5 moveto 
1 -1 scale
(-0.2) t 
GR
GR
GS
[0.75 0 0 0.75 50.74999 173.3125] CT
0.149 GC
/Helvetica 13.333 F
GS
[1 0 0 1 0 0] CT
-26 4.5 moveto 
1 -1 scale
(-0.1) t 
GR
GR
GS
[0.75 0 0 0.75 50.74999 151.875] CT
0.149 GC
/Helvetica 13.333 F
GS
[1 0 0 1 0 0] CT
-9 4.5 moveto 
1 -1 scale
(0) t 
GR
GR
GS
[0.75 0 0 0.75 50.74999 130.4375] CT
0.149 GC
/Helvetica 13.333 F
GS
[1 0 0 1 0 0] CT
-22 4.5 moveto 
1 -1 scale
(0.1) t 
GR
GR
GS
[0.75 0 0 0.75 50.74999 109] CT
0.149 GC
/Helvetica 13.333 F
GS
[1 0 0 1 0 0] CT
-22 4.5 moveto 
1 -1 scale
(0.2) t 
GR
GR
GS
[0.75 0 0 0.75 50.74999 87.5625] CT
0.149 GC
/Helvetica 13.333 F
GS
[1 0 0 1 0 0] CT
-22 4.5 moveto 
1 -1 scale
(0.3) t 
GR
GR
GS
[0.75 0 0 0.75 50.74999 66.125] CT
0.149 GC
/Helvetica 13.333 F
GS
[1 0 0 1 0 0] CT
-22 4.5 moveto 
1 -1 scale
(0.4) t 
GR
GR
GS
[0.75 0 0 0.75 50.74999 44.6875] CT
0.149 GC
/Helvetica 13.333 F
GS
[1 0 0 1 0 0] CT
-22 4.5 moveto 
1 -1 scale
(0.5) t 
GR
GR
GS
[0.75 0 0 0.75 50.74999 23.24999] CT
0.149 GC
/Helvetica 13.333 F
GS
[1 0 0 1 0 0] CT
-22 4.5 moveto 
1 -1 scale
(0.6) t 
GR
GR
GS
[0 -0.75 0.75 0 28.25 151.87487] CT
0.149 GC
/Helvetica 14.667 F
GS
[1 0 0 1 0 0] CT
-19.5 -4 moveto 
1 -1 scale
(z [m]) t 
GR
GR
GS
[0.75 0 0 0.75 0 0] CT
1 LJ
0.667 LW
N
507 202.5 M
506.892 197.086 L
506.567 191.677 L
506.027 186.28 L
505.272 180.898 L
504.302 175.538 L
503.118 170.205 L
501.721 164.904 L
500.114 159.64 L
498.298 154.419 L
496.273 149.246 L
494.043 144.126 L
491.61 139.065 L
488.975 134.066 L
486.143 129.136 L
483.115 124.279 L
479.894 119.5 L
476.484 114.804 L
472.888 110.195 L
469.11 105.678 L
465.153 101.257 L
461.022 96.938 L
456.72 92.723 L
452.252 88.619 L
447.622 84.627 L
442.835 80.754 L
437.896 77.001 L
432.81 73.374 L
427.581 69.875 L
422.214 66.509 L
416.717 63.278 L
411.092 60.186 L
405.347 57.235 L
399.487 54.43 L
393.518 51.772 L
387.446 49.265 L
381.277 46.91 L
375.016 44.71 L
368.671 42.667 L
362.248 40.784 L
355.752 39.062 L
349.191 37.503 L
342.571 36.109 L
335.898 34.88 L
329.18 33.819 L
322.423 32.925 L
315.633 32.201 L
308.818 31.646 L
301.984 31.262 L
295.138 31.048 L
288.287 31.005 L
281.438 31.134 L
274.597 31.433 L
267.772 31.902 L
260.968 32.542 L
254.194 33.351 L
247.455 34.328 L
240.759 35.474 L
234.112 36.785 L
227.521 38.262 L
220.992 39.903 L
214.531 41.706 L
208.146 43.669 L
201.842 45.79 L
195.627 48.068 L
189.505 50.499 L
183.484 53.082 L
177.569 55.814 L
171.765 58.693 L
166.08 61.714 L
160.518 64.876 L
155.086 68.175 L
149.787 71.608 L
144.629 75.172 L
139.615 78.862 L
134.752 82.675 L
130.043 86.609 L
125.494 90.657 L
121.108 94.817 L
116.891 99.085 L
112.846 103.455 L
108.979 107.924 L
105.291 112.488 L
101.788 117.141 L
98.472 121.879 L
95.347 126.698 L
92.416 131.592 L
89.682 136.557 L
87.148 141.588 L
84.816 146.679 L
82.689 151.826 L
80.768 157.024 L
79.056 162.267 L
77.554 167.55 L
76.264 172.867 L
75.187 178.215 L
74.324 183.586 L
73.676 188.977 L
73.243 194.381 L
73.027 199.793 L
73.027 205.207 L
73.243 210.619 L
73.676 216.023 L
74.324 221.414 L
75.187 226.785 L
76.264 232.133 L
77.554 237.45 L
79.056 242.733 L
80.768 247.976 L
82.689 253.174 L
84.816 258.321 L
87.148 263.412 L
89.682 268.443 L
92.416 273.408 L
95.347 278.302 L
98.472 283.121 L
101.788 287.859 L
105.291 292.512 L
108.979 297.076 L
112.846 301.545 L
116.891 305.915 L
121.108 310.183 L
125.494 314.343 L
130.043 318.391 L
134.752 322.324 L
139.615 326.138 L
144.629 329.828 L
149.787 333.392 L
155.086 336.825 L
160.518 340.124 L
166.08 343.286 L
171.765 346.307 L
177.569 349.186 L
183.484 351.918 L
189.505 354.501 L
195.627 356.932 L
201.842 359.21 L
208.146 361.331 L
214.531 363.294 L
220.992 365.097 L
227.521 366.738 L
234.112 368.215 L
240.759 369.526 L
247.455 370.672 L
254.194 371.649 L
260.968 372.458 L
267.772 373.098 L
274.597 373.567 L
281.438 373.866 L
288.287 373.995 L
295.138 373.952 L
301.984 373.738 L
308.818 373.354 L
315.633 372.799 L
322.423 372.075 L
329.18 371.181 L
335.898 370.12 L
342.571 368.891 L
349.191 367.497 L
355.752 365.938 L
362.248 364.216 L
368.671 362.333 L
375.016 360.29 L
381.277 358.09 L
387.446 355.736 L
393.518 353.228 L
399.487 350.57 L
405.347 347.765 L
411.092 344.814 L
416.717 341.722 L
422.214 338.491 L
427.581 335.125 L
432.81 331.626 L
437.896 327.999 L
442.835 324.246 L
447.622 320.373 L
452.252 316.381 L
456.72 312.276 L
461.022 308.062 L
465.153 303.743 L
469.11 299.322 L
472.888 294.805 L
476.484 290.196 L
479.894 285.5 L
483.115 280.721 L
486.143 275.864 L
488.975 270.934 L
491.61 265.935 L
494.043 260.874 L
496.273 255.754 L
498.298 250.581 L
500.114 245.36 L
501.721 240.096 L
503.118 234.795 L
504.302 229.462 L
505.272 224.102 L
506.027 218.72 L
506.567 213.323 L
506.892 207.914 L
507 202.5 L
S
GR
GS
[0.75 0 0 0.75 122.5625 216.1875] CT
0 0.447 0.741 RC
10.0 ML
N
4 0 M
4 -2.209 2.209 -4 0 -4 C
-2.209 -4 -4 -2.209 -4 0 C
-4 2.209 -2.209 4 0 4 C
2.209 4 4 2.209 4 0 C
cp
S
GR
GS
[0.75 0 0 0.75 125.27499 216.1875] CT
/Helvetica 13.333 F
GS
[1 0 0 1 0 0] CT
0 4.5 moveto 
1 -1 scale
(1) t 
GR
GR
GS
[0.75 0 0 0.75 122.5625 87.5625] CT
0.851 0.325 0.098 RC
10.0 ML
N
4 0 M
4 -2.209 2.209 -4 0 -4 C
-2.209 -4 -4 -2.209 -4 0 C
-4 2.209 -2.209 4 0 4 C
2.209 4 4 2.209 4 0 C
cp
S
GR
GS
[0.75 0 0 0.75 125.27499 87.5625] CT
/Helvetica 13.333 F
GS
[1 0 0 1 0 0] CT
0 4.5 moveto 
1 -1 scale
(2) t 
GR
GR
GS
[0.75 0 0 0.75 122.5625 151.875] CT
0.929 0.694 0.125 RC
10.0 ML
N
4 0 M
4 -2.209 2.209 -4 0 -4 C
-2.209 -4 -4 -2.209 -4 0 C
-4 2.209 -2.209 4 0 4 C
2.209 4 4 2.209 4 0 C
cp
S
GR
GS
[0.75 0 0 0.75 125.27499 151.875] CT
/Helvetica 13.333 F
GS
[1 0 0 1 0 0] CT
0 4.5 moveto 
1 -1 scale
(3) t 
GR
GR
GS
[0.75 0 0 0.75 190.375 173.3125] CT
0.494 0.184 0.557 RC
10.0 ML
N
4 0 M
4 -2.209 2.209 -4 0 -4 C
-2.209 -4 -4 -2.209 -4 0 C
-4 2.209 -2.209 4 0 4 C
2.209 4 4 2.209 4 0 C
cp
S
GR
GS
[0.75 0 0 0.75 193.08751 173.3125] CT
/Helvetica 13.333 F
GS
[1 0 0 1 0 0] CT
0 4.5 moveto 
1 -1 scale
(4) t 
GR
GR
GS
[0.75 0 0 0.75 190.375 216.1875] CT
0.467 0.675 0.188 RC
10.0 ML
N
4 0 M
4 -2.209 2.209 -4 0 -4 C
-2.209 -4 -4 -2.209 -4 0 C
-4 2.209 -2.209 4 0 4 C
2.209 4 4 2.209 4 0 C
cp
S
GR
GS
[0.75 0 0 0.75 193.08751 216.1875] CT
/Helvetica 13.333 F
GS
[1 0 0 1 0 0] CT
0 4.5 moveto 
1 -1 scale
(5) t 
GR
GR
GS
[0.75 0 0 0.75 244.62499 173.3125] CT
0.302 0.745 0.933 RC
10.0 ML
N
4 0 M
4 -2.209 2.209 -4 0 -4 C
-2.209 -4 -4 -2.209 -4 0 C
-4 2.209 -2.209 4 0 4 C
2.209 4 4 2.209 4 0 C
cp
S
GR
GS
[0.75 0 0 0.75 247.33749 173.3125] CT
/Helvetica 13.333 F
GS
[1 0 0 1 0 0] CT
0 4.5 moveto 
1 -1 scale
(6) t 
GR
GR
GS
[0.75 0 0 0.75 244.62499 216.1875] CT
0.635 0.078 0.184 RC
10.0 ML
N
4 0 M
4 -2.209 2.209 -4 0 -4 C
-2.209 -4 -4 -2.209 -4 0 C
-4 2.209 -2.209 4 0 4 C
2.209 4 4 2.209 4 0 C
cp
S
GR
GS
[0.75 0 0 0.75 247.33749 216.1875] CT
/Helvetica 13.333 F
GS
[1 0 0 1 0 0] CT
0 4.5 moveto 
1 -1 scale
(7) t 
GR
GR
GS
[0.75 0 0 0.75 271.75001 216.1875] CT
0 0.447 0.741 RC
10.0 ML
N
4 0 M
4 -2.209 2.209 -4 0 -4 C
-2.209 -4 -4 -2.209 -4 0 C
-4 2.209 -2.209 4 0 4 C
2.209 4 4 2.209 4 0 C
cp
S
GR
GS
[0.75 0 0 0.75 274.46251 216.1875] CT
/Helvetica 13.333 F
GS
[1 0 0 1 0 0] CT
0 4.5 moveto 
1 -1 scale
(8) t 
GR
GR
GS
[0.75 0 0 0.75 312.43751 216.1875] CT
0.851 0.325 0.098 RC
10.0 ML
N
4 0 M
4 -2.209 2.209 -4 0 -4 C
-2.209 -4 -4 -2.209 -4 0 C
-4 2.209 -2.209 4 0 4 C
2.209 4 4 2.209 4 0 C
cp
S
GR
GS
[0.75 0 0 0.75 315.15001 216.1875] CT
/Helvetica 13.333 F
GS
[1 0 0 1 0 0] CT
0 4.5 moveto 
1 -1 scale
(9) t 
GR
GR
GS
[0.75 0 0 0.75 312.43751 194.74999] CT
0.929 0.694 0.125 RC
10.0 ML
N
4 0 M
4 -2.209 2.209 -4 0 -4 C
-2.209 -4 -4 -2.209 -4 0 C
-4 2.209 -2.209 4 0 4 C
2.209 4 4 2.209 4 0 C
cp
S
GR
GS
[0.75 0 0 0.75 315.15001 194.74999] CT
/Helvetica 13.333 F
GS
[1 0 0 1 0 0] CT
0 4.5 moveto 
1 -1 scale
(10) t 
GR
GR
GS
[0.75 0 0 0.75 298.875 173.3125] CT
0.494 0.184 0.557 RC
10.0 ML
N
4 0 M
4 -2.209 2.209 -4 0 -4 C
-2.209 -4 -4 -2.209 -4 0 C
-4 2.209 -2.209 4 0 4 C
2.209 4 4 2.209 4 0 C
cp
S
GR
GS
[0.75 0 0 0.75 301.5875 173.3125] CT
/Helvetica 13.333 F
GS
[1 0 0 1 0 0] CT
0 4.5 moveto 
1 -1 scale
(11) t 
GR
GR
GS
[0.75 0 0 0.75 325.99999 173.3125] CT
0.467 0.675 0.188 RC
10.0 ML
N
4 0 M
4 -2.209 2.209 -4 0 -4 C
-2.209 -4 -4 -2.209 -4 0 C
-4 2.209 -2.209 4 0 4 C
2.209 4 4 2.209 4 0 C
cp
S
GR
GS
[0.75 0 0 0.75 328.71249 173.3125] CT
/Helvetica 13.333 F
GS
[1 0 0 1 0 0] CT
0 4.5 moveto 
1 -1 scale
(12) t 
GR
GR
GS
[0.75 0 0 0.75 122.5625 216.1875] CT
0.302 0.745 0.933 RC
N
1.333 0 M
1.333 0.736 0.736 1.333 0 1.333 C
-0.736 1.333 -1.333 0.736 -1.333 0 C
-1.333 -0.736 -0.736 -1.333 0 -1.333 C
0.736 -1.333 1.333 -0.736 1.333 0 C
cp
f
GR
GS
[0.75 0 0 0.75 122.5625 216.1875] CT
0.302 0.745 0.933 RC
N
/f-1057828618{1.333 0 M
1.333 0.736 0.736 1.333 0 1.333 C
-0.736 1.333 -1.333 0.736 -1.333 0 C
-1.333 -0.736 -0.736 -1.333 0 -1.333 C
0.736 -1.333 1.333 -0.736 1.333 0 C
cp}def
f-1057828618
f
GR
GS
[0.75 0 0 0.75 122.5625 216.18608] CT
0.302 0.745 0.933 RC
N
f-1057828618
f
GR
GS
[0.75 0 0 0.75 122.5625 216.14648] CT
0.302 0.745 0.933 RC
N
f-1057828618
f
GR
GS
[0.75 0 0 0.75 122.5625 215.88201] CT
0.302 0.745 0.933 RC
N
f-1057828618
f
GR
GS
[0.75 0 0 0.75 122.5625 215.01391] CT
0.302 0.745 0.933 RC
N
f-1057828618
f
GR
GS
[0.75 0 0 0.75 122.5625 213.10719] CT
0.302 0.745 0.933 RC
N
f-1057828618
f
GR
GS
[0.75 0 0 0.75 122.5625 209.83898] CT
0.302 0.745 0.933 RC
N
f-1057828618
f
GR
GS
[0.75 0 0 0.75 122.5625 205.08154] CT
0.302 0.745 0.933 RC
N
f-1057828618
f
GR
GS
[0.75 0 0 0.75 122.5625 198.89674] CT
0.302 0.745 0.933 RC
N
f-1057828618
f
GR
GS
[0.75 0 0 0.75 122.5625 191.4845] CT
0.302 0.745 0.933 RC
N
f-1057828618
f
GR
GS
[0.75 0 0 0.75 122.5625 183.141] CT
0.302 0.745 0.933 RC
N
f-1057828618
f
GR
GS
[0.75 0 0 0.75 122.5625 174.26207] CT
0.302 0.745 0.933 RC
N
f-1057828618
f
GR
GS
[0.75 0 0 0.75 122.5625 165.27966] CT
0.302 0.745 0.933 RC
N
f-1057828618
f
GR
GS
[0.75 0 0 0.75 122.5625 156.55761] CT
0.302 0.745 0.933 RC
N
f-1057828618
f
GR
GS
[0.75 0 0 0.75 122.5625 148.3457] CT
0.302 0.745 0.933 RC
N
f-1057828618
f
GR
GS
[0.75 0 0 0.75 122.5625 140.78596] CT
0.302 0.745 0.933 RC
N
f-1057828618
f
GR
GS
[0.75 0 0 0.75 122.5625 133.93878] CT
0.302 0.745 0.933 RC
N
f-1057828618
f
GR
GS
[0.75 0 0 0.75 122.5625 127.80977] CT
0.302 0.745 0.933 RC
N
f-1057828618
f
GR
GS
[0.75 0 0 0.75 122.5625 122.37104] CT
0.302 0.745 0.933 RC
N
f-1057828618
f
GR
GS
[0.75 0 0 0.75 122.5625 117.57621] CT
0.302 0.745 0.933 RC
N
f-1057828618
f
GR
GS
[0.75 0 0 0.75 122.5625 113.37013] CT
0.302 0.745 0.933 RC
N
f-1057828618
f
GR
GS
[0.75 0 0 0.75 122.5625 109.69509] CT
0.302 0.745 0.933 RC
N
f-1057828618
f
GR
GS
[0.75 0 0 0.75 122.5625 106.4944] CT
0.302 0.745 0.933 RC
N
f-1057828618
f
GR
GS
[0.75 0 0 0.75 122.5625 103.71447] CT
0.302 0.745 0.933 RC
N
f-1057828618
f
GR
GS
[0.75 0 0 0.75 122.5625 101.3058] CT
0.302 0.745 0.933 RC
N
f-1057828618
f
GR
GS
[0.75 0 0 0.75 122.5625 99.2234] CT
0.302 0.745 0.933 RC
N
f-1057828618
f
GR
GS
[0.75 0 0 0.75 122.5625 97.42682] CT
0.302 0.745 0.933 RC
N
f-1057828618
f
GR
GS
[0.75 0 0 0.75 122.5625 95.87998] CT
0.302 0.745 0.933 RC
N
f-1057828618
f
GR
GS
[0.75 0 0 0.75 122.5625 94.5509] CT
0.302 0.745 0.933 RC
N
f-1057828618
f
GR
GS
[0.75 0 0 0.75 122.5625 93.41137] CT
0.302 0.745 0.933 RC
N
f-1057828618
f
GR
GS
[0.75 0 0 0.75 122.5625 92.43653] CT
0.302 0.745 0.933 RC
N
f-1057828618
f
GR
GS
[0.75 0 0 0.75 122.5625 91.6046] CT
0.302 0.745 0.933 RC
N
f-1057828618
f
GR
GS
[0.75 0 0 0.75 122.5625 90.89651] CT
0.302 0.745 0.933 RC
N
f-1057828618
f
GR
GS
[0.75 0 0 0.75 122.5625 90.29559] CT
0.302 0.745 0.933 RC
N
f-1057828618
f
GR
GS
[0.75 0 0 0.75 122.5625 89.78729] CT
0.302 0.745 0.933 RC
N
f-1057828618
f
GR
GS
[0.75 0 0 0.75 122.5625 89.35894] CT
0.302 0.745 0.933 RC
N
f-1057828618
f
GR
GS
[0.75 0 0 0.75 122.5625 88.99952] CT
0.302 0.745 0.933 RC
N
f-1057828618
f
GR
GS
[0.75 0 0 0.75 122.5625 88.69944] CT
0.302 0.745 0.933 RC
N
f-1057828618
f
GR
GS
[0.75 0 0 0.75 122.5625 88.45037] CT
0.302 0.745 0.933 RC
N
f-1057828618
f
GR
GS
[0.75 0 0 0.75 122.5625 88.24509] CT
0.302 0.745 0.933 RC
N
f-1057828618
f
GR
GS
[0.75 0 0 0.75 122.5625 88.07733] CT
0.302 0.745 0.933 RC
N
f-1057828618
f
GR
GS
[0.75 0 0 0.75 122.5625 87.94167] CT
0.302 0.745 0.933 RC
N
f-1057828618
f
GR
GS
[0.75 0 0 0.75 122.5625 87.8334] CT
0.302 0.745 0.933 RC
N
f-1057828618
f
GR
GS
[0.75 0 0 0.75 122.5625 87.74847] CT
0.302 0.745 0.933 RC
N
f-1057828618
f
GR
GS
[0.75 0 0 0.75 122.5625 87.68335] CT
0.302 0.745 0.933 RC
N
f-1057828618
f
GR
GS
[0.75 0 0 0.75 122.5625 87.63503] CT
0.302 0.745 0.933 RC
N
f-1057828618
f
GR
GS
[0.75 0 0 0.75 122.5625 87.60088] CT
0.302 0.745 0.933 RC
N
f-1057828618
f
GR
GS
[0.75 0 0 0.75 122.5625 87.57866] CT
0.302 0.745 0.933 RC
N
f-1057828618
f
GR
GS
[0.75 0 0 0.75 122.5625 87.56643] CT
0.302 0.745 0.933 RC
N
f-1057828618
f
GR
GS
[0.75 0 0 0.75 122.5625 87.56251] CT
0.302 0.745 0.933 RC
N
f-1057828618
f
GR
GS
[0.75 0 0 0.75 122.5625 87.5625] CT
0.635 0.078 0.184 RC
N
f-1057828618
f
GR
GS
[0.75 0 0 0.75 122.5625 87.5625] CT
0.635 0.078 0.184 RC
N
f-1057828618
f
GR
GS
[0.75 0 0 0.75 122.56391 87.5625] CT
0.635 0.078 0.184 RC
N
f-1057828618
f
GR
GS
[0.75 0 0 0.75 122.60337 87.56252] CT
0.635 0.078 0.184 RC
N
f-1057828618
f
GR
GS
[0.75 0 0 0.75 122.86681 87.5634] CT
0.635 0.078 0.184 RC
N
f-1057828618
f
GR
GS
[0.75 0 0 0.75 123.73108 87.57577] CT
0.635 0.078 0.184 RC
N
f-1057828618
f
GR
GS
[0.75 0 0 0.75 125.62643 87.6538] CT
0.635 0.078 0.184 RC
N
f-1057828618
f
GR
GS
[0.75 0 0 0.75 128.85656 87.94958] CT
0.635 0.078 0.184 RC
N
f-1057828618
f
GR
GS
[0.75 0 0 0.75 133.48021 88.74177] CT
0.635 0.078 0.184 RC
N
f-1057828618
f
GR
GS
[0.75 0 0 0.75 139.26025 90.39515] CT
0.635 0.078 0.184 RC
N
f-1057828618
f
GR
GS
[0.75 0 0 0.75 145.67336 93.25343] CT
0.635 0.078 0.184 RC
N
f-1057828618
f
GR
GS
[0.75 0 0 0.75 151.97627 97.50094] CT
0.635 0.078 0.184 RC
N
f-1057828618
f
GR
GS
[0.75 0 0 0.75 157.33858 103.02634] CT
0.635 0.078 0.184 RC
N
f-1057828618
f
GR
GS
[0.75 0 0 0.75 161.10259 109.41015] CT
0.635 0.078 0.184 RC
N
f-1057828618
f
GR
GS
[0.75 0 0 0.75 162.98922 116.08389] CT
0.635 0.078 0.184 RC
N
f-1057828618
f
GR
GS
[0.75 0 0 0.75 163.0951 122.52203] CT
0.635 0.078 0.184 RC
N
f-1057828618
f
GR
GS
[0.75 0 0 0.75 161.75523 128.35471] CT
0.635 0.078 0.184 RC
N
f-1057828618
f
GR
GS
[0.75 0 0 0.75 159.39029 133.38896] CT
0.635 0.078 0.184 RC
N
f-1057828618
f
GR
GS
[0.75 0 0 0.75 156.40006 137.57536] CT
0.635 0.078 0.184 RC
N
f-1057828618
f
GR
GS
[0.75 0 0 0.75 153.11115 140.95849] CT
0.635 0.078 0.184 RC
N
f-1057828618
f
GR
GS
[0.75 0 0 0.75 149.76375 143.63256] CT
0.635 0.078 0.184 RC
N
f-1057828618
f
GR
GS
[0.75 0 0 0.75 146.51952 145.70983] CT
0.635 0.078 0.184 RC
N
f-1057828618
f
GR
GS
[0.75 0 0 0.75 143.47739 147.30135] CT
0.635 0.078 0.184 RC
N
f-1057828618
f
GR
GS
[0.75 0 0 0.75 140.69024 148.50708] CT
0.635 0.078 0.184 RC
N
f-1057828618
f
GR
GS
[0.75 0 0 0.75 138.17934 149.41203] CT
0.635 0.078 0.184 RC
N
f-1057828618
f
GR
GS
[0.75 0 0 0.75 135.94544 150.08575] CT
0.635 0.078 0.184 RC
N
f-1057828618
f
GR
GS
[0.75 0 0 0.75 133.97673 150.58374] CT
0.635 0.078 0.184 RC
N
f-1057828618
f
GR
GS
[0.75 0 0 0.75 132.25451 150.94937] CT
0.635 0.078 0.184 RC
N
f-1057828618
f
GR
GS
[0.75 0 0 0.75 130.75677 151.21612] CT
0.635 0.078 0.184 RC
N
f-1057828618
f
GR
GS
[0.75 0 0 0.75 129.46059 151.40949] CT
0.635 0.078 0.184 RC
N
f-1057828618
f
GR
GS
[0.75 0 0 0.75 128.34352 151.54876] CT
0.635 0.078 0.184 RC
N
f-1057828618
f
GR
GS
[0.75 0 0 0.75 127.3844 151.64838] CT
0.635 0.078 0.184 RC
N
f-1057828618
f
GR
GS
[0.75 0 0 0.75 126.56379 151.71913] CT
0.635 0.078 0.184 RC
N
f-1057828618
f
GR
GS
[0.75 0 0 0.75 125.86409 151.76896] CT
0.635 0.078 0.184 RC
N
f-1057828618
f
GR
GS
[0.75 0 0 0.75 125.26956 151.80375] CT
0.635 0.078 0.184 RC
N
f-1057828618
f
GR
GS
[0.75 0 0 0.75 124.76627 151.82779] CT
0.635 0.078 0.184 RC
N
f-1057828618
f
GR
GS
[0.75 0 0 0.75 124.34192 151.84424] CT
0.635 0.078 0.184 RC
N
f-1057828618
f
GR
GS
[0.75 0 0 0.75 123.98575 151.85532] CT
0.635 0.078 0.184 RC
N
f-1057828618
f
GR
GS
[0.75 0 0 0.75 123.68834 151.86269] CT
0.635 0.078 0.184 RC
N
f-1057828618
f
GR
GS
[0.75 0 0 0.75 123.44149 151.86749] CT
0.635 0.078 0.184 RC
N
f-1057828618
f
GR
GS
[0.75 0 0 0.75 123.23805 151.87057] CT
0.635 0.078 0.184 RC
N
f-1057828618
f
GR
GS
[0.75 0 0 0.75 123.07181 151.87248] CT
0.635 0.078 0.184 RC
N
f-1057828618
f
GR
GS
[0.75 0 0 0.75 122.93741 151.87364] CT
0.635 0.078 0.184 RC
N
f-1057828618
f
GR
GS
[0.75 0 0 0.75 122.83017 151.8743] CT
0.635 0.078 0.184 RC
N
f-1057828618
f
GR
GS
[0.75 0 0 0.75 122.74609 151.87467] CT
0.635 0.078 0.184 RC
N
f-1057828618
f
GR
GS
[0.75 0 0 0.75 122.68166 151.87486] CT
0.635 0.078 0.184 RC
N
f-1057828618
f
GR
GS
[0.75 0 0 0.75 122.63388 151.87495] CT
0.635 0.078 0.184 RC
N
f-1057828618
f
GR
GS
[0.75 0 0 0.75 122.60015 151.87499] CT
0.635 0.078 0.184 RC
N
f-1057828618
f
GR
GS
[0.75 0 0 0.75 122.57826 151.875] CT
0.635 0.078 0.184 RC
N
f-1057828618
f
GR
GS
[0.75 0 0 0.75 122.56626 151.875] CT
0.635 0.078 0.184 RC
N
f-1057828618
f
GR
GS
[0.75 0 0 0.75 122.5625 151.875] CT
0.635 0.078 0.184 RC
N
f-1057828618
f
GR
GS
[0.75 0 0 0.75 0 0] CT
0 0.447 0.741 RC
[10 6] 0 setdash
2 LJ
0.667 LW
N
163.417 202.5 M
163.417 202.5 L
163.418 202.5 L
163.446 202.509 L
163.632 202.568 L
164.243 202.761 L
165.586 203.186 L
167.887 203.913 L
171.235 204.972 L
175.587 206.348 L
180.803 207.996 L
186.672 209.852 L
192.917 211.826 L
199.233 213.823 L
205.365 215.761 L
211.137 217.586 L
216.45 219.266 L
221.262 220.787 L
225.569 222.148 L
229.39 223.356 L
232.759 224.421 L
235.714 225.355 L
238.295 226.171 L
240.543 226.882 L
242.496 227.499 L
244.187 228.034 L
245.65 228.496 L
246.911 228.895 L
247.997 229.238 L
248.93 229.533 L
249.73 229.786 L
250.415 230.003 L
250.998 230.187 L
251.495 230.344 L
251.917 230.478 L
252.274 230.59 L
252.574 230.685 L
252.826 230.765 L
253.037 230.832 L
253.212 230.887 L
253.355 230.932 L
253.473 230.969 L
253.568 230.999 L
253.644 231.023 L
253.703 231.042 L
253.749 231.057 L
253.783 231.067 L
253.807 231.075 L
253.822 231.08 L
253.831 231.082 L
253.833 231.083 L
S
GR
GS
[0.75 0 0 0.75 190.375 173.3125] CT
0.851 0.325 0.098 RC
N
f-1057828618
f
GR
GS
[0.75 0 0 0.75 190.375 173.3125] CT
0.851 0.325 0.098 RC
N
f-1057828618
f
GR
GS
[0.75 0 0 0.75 190.37311 173.3125] CT
0.851 0.325 0.098 RC
N
f-1057828618
f
GR
GS
[0.75 0 0 0.75 190.32043 173.31254] CT
0.851 0.325 0.098 RC
N
f-1057828618
f
GR
GS
[0.75 0 0 0.75 189.96877 173.3149] CT
0.851 0.325 0.098 RC
N
f-1057828618
f
GR
GS
[0.75 0 0 0.75 188.81589 173.34794] CT
0.851 0.325 0.098 RC
N
f-1057828618
f
GR
GS
[0.75 0 0 0.75 186.29758 173.55608] CT
0.851 0.325 0.098 RC
N
f-1057828618
f
GR
GS
[0.75 0 0 0.75 182.07726 174.34019] CT
0.851 0.325 0.098 RC
N
f-1057828618
f
GR
GS
[0.75 0 0 0.75 176.3425 176.40405] CT
0.851 0.325 0.098 RC
N
f-1057828618
f
GR
GS
[0.75 0 0 0.75 170.06234 180.54261] CT
0.851 0.325 0.098 RC
N
f-1057828618
f
GR
GS
[0.75 0 0 0.75 165.00697 187.16008] CT
0.851 0.325 0.098 RC
N
f-1057828618
f
GR
GS
[0.75 0 0 0.75 163.27884 195.7383] CT
0.851 0.325 0.098 RC
N
f-1057828618
f
GR
GS
[0.75 0 0 0.75 166.3176 204.65295] CT
0.851 0.325 0.098 RC
N
f-1057828618
f
GR
GS
[0.75 0 0 0.75 173.92446 211.79507] CT
0.851 0.325 0.098 RC
N
f-1057828618
f
GR
GS
[0.75 0 0 0.75 184.31096 215.64494] CT
0.851 0.325 0.098 RC
N
f-1057828618
f
GR
GS
[0.75 0 0 0.75 195.11545 215.85759] CT
0.851 0.325 0.098 RC
N
f-1057828618
f
GR
GS
[0.75 0 0 0.75 204.43389 213.08334] CT
0.851 0.325 0.098 RC
N
f-1057828618
f
GR
GS
[0.75 0 0 0.75 211.26743 208.42216] CT
0.851 0.325 0.098 RC
N
f-1057828618
f
GR
GS
[0.75 0 0 0.75 215.4386 202.94735] CT
0.851 0.325 0.098 RC
N
f-1057828618
f
GR
GS
[0.75 0 0 0.75 217.28192 197.46293] CT
0.851 0.325 0.098 RC
N
f-1057828618
f
GR
GS
[0.75 0 0 0.75 217.3445 192.45774] CT
0.851 0.325 0.098 RC
N
f-1057828618
f
GR
GS
[0.75 0 0 0.75 216.18716 188.16145] CT
0.851 0.325 0.098 RC
N
f-1057828618
f
GR
GS
[0.75 0 0 0.75 214.28629 184.62844] CT
0.851 0.325 0.098 RC
N
f-1057828618
f
GR
GS
[0.75 0 0 0.75 212.00352 181.8125] CT
0.851 0.325 0.098 RC
N
f-1057828618
f
GR
GS
[0.75 0 0 0.75 209.59167 179.62023] CT
0.851 0.325 0.098 RC
N
f-1057828618
f
GR
GS
[0.75 0 0 0.75 207.2151 177.94424] CT
0.851 0.325 0.098 RC
N
f-1057828618
f
GR
GS
[0.75 0 0 0.75 204.97229 176.68141] CT
0.851 0.325 0.098 RC
N
f-1057828618
f
GR
GS
[0.75 0 0 0.75 202.91576 175.74122] CT
0.851 0.325 0.098 RC
N
f-1057828618
f
GR
GS
[0.75 0 0 0.75 201.06763 175.04839] CT
0.851 0.325 0.098 RC
N
f-1057828618
f
GR
GS
[0.75 0 0 0.75 199.43092 174.54252] CT
0.851 0.325 0.098 RC
N
f-1057828618
f
GR
GS
[0.75 0 0 0.75 197.99728 174.1763] CT
0.851 0.325 0.098 RC
N
f-1057828618
f
GR
GS
[0.75 0 0 0.75 196.75216 173.91338] CT
0.851 0.325 0.098 RC
N
f-1057828618
f
GR
GS
[0.75 0 0 0.75 195.6782 173.72621] CT
0.851 0.325 0.098 RC
N
f-1057828618
f
GR
GS
[0.75 0 0 0.75 194.75732 173.59412] CT
0.851 0.325 0.098 RC
N
f-1057828618
f
GR
GS
[0.75 0 0 0.75 193.97177 173.5018] CT
0.851 0.325 0.098 RC
N
f-1057828618
f
GR
GS
[0.75 0 0 0.75 193.30499 173.43793] CT
0.851 0.325 0.098 RC
N
f-1057828618
f
GR
GS
[0.75 0 0 0.75 192.74178 173.39426] CT
0.851 0.325 0.098 RC
N
f-1057828618
f
GR
GS
[0.75 0 0 0.75 192.2685 173.3648] CT
0.851 0.325 0.098 RC
N
f-1057828618
f
GR
GS
[0.75 0 0 0.75 191.87297 173.34521] CT
0.851 0.325 0.098 RC
N
f-1057828618
f
GR
GS
[0.75 0 0 0.75 191.54453 173.33243] CT
0.851 0.325 0.098 RC
N
f-1057828618
f
GR
GS
[0.75 0 0 0.75 191.27376 173.32427] CT
0.851 0.325 0.098 RC
N
f-1057828618
f
GR
GS
[0.75 0 0 0.75 191.05249 173.31919] CT
0.851 0.325 0.098 RC
N
f-1057828618
f
GR
GS
[0.75 0 0 0.75 190.87358 173.31612] CT
0.851 0.325 0.098 RC
N
f-1057828618
f
GR
GS
[0.75 0 0 0.75 190.73086 173.31435] CT
0.851 0.325 0.098 RC
N
f-1057828618
f
GR
GS
[0.75 0 0 0.75 190.61896 173.31337] CT
0.851 0.325 0.098 RC
N
f-1057828618
f
GR
GS
[0.75 0 0 0.75 190.53325 173.31286] CT
0.851 0.325 0.098 RC
N
f-1057828618
f
GR
GS
[0.75 0 0 0.75 190.46971 173.31263] CT
0.851 0.325 0.098 RC
N
f-1057828618
f
GR
GS
[0.75 0 0 0.75 190.42489 173.31254] CT
0.851 0.325 0.098 RC
N
f-1057828618
f
GR
GS
[0.75 0 0 0.75 190.39581 173.31251] CT
0.851 0.325 0.098 RC
N
f-1057828618
f
GR
GS
[0.75 0 0 0.75 190.37992 173.3125] CT
0.851 0.325 0.098 RC
N
f-1057828618
f
GR
GS
[0.75 0 0 0.75 190.375 173.3125] CT
0.851 0.325 0.098 RC
N
f-1057828618
f
GR
GS
[0.75 0 0 0.75 0 0] CT
0.929 0.694 0.125 RC
[10 6] 0 setdash
2 LJ
0.667 LW
N
253.833 231.083 M
253.833 231.083 L
253.834 231.083 L
253.856 231.083 L
254.006 231.083 L
254.495 231.083 L
255.57 231.083 L
257.412 231.083 L
260.093 231.083 L
263.576 231.083 L
267.75 231.083 L
272.448 231.083 L
277.445 231.083 L
282.498 231.083 L
287.404 231.083 L
292.022 231.083 L
296.273 231.083 L
300.122 231.083 L
303.566 231.083 L
306.623 231.083 L
309.317 231.083 L
311.68 231.083 L
313.744 231.083 L
315.542 231.083 L
317.103 231.083 L
318.456 231.083 L
319.625 231.083 L
320.634 231.083 L
321.502 231.083 L
322.248 231.083 L
322.888 231.083 L
323.435 231.083 L
323.901 231.083 L
324.299 231.083 L
324.636 231.083 L
324.921 231.083 L
325.161 231.083 L
325.362 231.083 L
325.531 231.083 L
325.67 231.083 L
325.785 231.083 L
325.879 231.083 L
325.955 231.083 L
326.016 231.083 L
326.063 231.083 L
326.1 231.083 L
326.126 231.083 L
326.146 231.083 L
326.158 231.083 L
326.165 231.083 L
326.167 231.083 L
S
GR
GS
[0.75 0 0 0.75 244.62499 173.3125] CT
0.494 0.184 0.557 RC
N
f-1057828618
f
GR
GS
[0.75 0 0 0.75 244.62499 173.3125] CT
0.494 0.184 0.557 RC
N
f-1057828618
f
GR
GS
[0.75 0 0 0.75 244.62499 173.31298] CT
0.494 0.184 0.557 RC
N
f-1057828618
f
GR
GS
[0.75 0 0 0.75 244.62499 173.32623] CT
0.494 0.184 0.557 RC
N
f-1057828618
f
GR
GS
[0.75 0 0 0.75 244.62499 173.4147] CT
0.494 0.184 0.557 RC
N
f-1057828618
f
GR
GS
[0.75 0 0 0.75 244.62499 173.70494] CT
0.494 0.184 0.557 RC
N
f-1057828618
f
GR
GS
[0.75 0 0 0.75 244.62499 174.34216] CT
0.494 0.184 0.557 RC
N
f-1057828618
f
GR
GS
[0.75 0 0 0.75 244.62499 175.43396] CT
0.494 0.184 0.557 RC
N
f-1057828618
f
GR
GS
[0.75 0 0 0.75 244.62499 177.02275] CT
0.494 0.184 0.557 RC
N
f-1057828618
f
GR
GS
[0.75 0 0 0.75 244.62499 179.08767] CT
0.494 0.184 0.557 RC
N
f-1057828618
f
GR
GS
[0.75 0 0 0.75 244.62499 181.56175] CT
0.494 0.184 0.557 RC
N
f-1057828618
f
GR
GS
[0.75 0 0 0.75 244.62499 184.34595] CT
0.494 0.184 0.557 RC
N
f-1057828618
f
GR
GS
[0.75 0 0 0.75 244.62499 187.30793] CT
0.494 0.184 0.557 RC
N
f-1057828618
f
GR
GS
[0.75 0 0 0.75 244.62499 190.30353] CT
0.494 0.184 0.557 RC
N
f-1057828618
f
GR
GS
[0.75 0 0 0.75 244.62499 193.21149] CT
0.494 0.184 0.557 RC
N
f-1057828618
f
GR
GS
[0.75 0 0 0.75 244.62499 195.94869] CT
0.494 0.184 0.557 RC
N
f-1057828618
f
GR
GS
[0.75 0 0 0.75 244.62499 198.46802] CT
0.494 0.184 0.557 RC
N
f-1057828618
f
GR
GS
[0.75 0 0 0.75 244.62499 200.74944] CT
0.494 0.184 0.557 RC
N
f-1057828618
f
GR
GS
[0.75 0 0 0.75 244.62499 202.79128] CT
0.494 0.184 0.557 RC
N
f-1057828618
f
GR
GS
[0.75 0 0 0.75 244.62499 204.60287] CT
0.494 0.184 0.557 RC
N
f-1057828618
f
GR
GS
[0.75 0 0 0.75 244.62499 206.19981] CT
0.494 0.184 0.557 RC
N
f-1057828618
f
GR
GS
[0.75 0 0 0.75 244.62499 207.60045] CT
0.494 0.184 0.557 RC
N
f-1057828618
f
GR
GS
[0.75 0 0 0.75 244.62499 208.82414] CT
0.494 0.184 0.557 RC
N
f-1057828618
f
GR
GS
[0.75 0 0 0.75 244.62499 209.88975] CT
0.494 0.184 0.557 RC
N
f-1057828618
f
GR
GS
[0.75 0 0 0.75 244.62499 210.81516] CT
0.494 0.184 0.557 RC
N
f-1057828618
f
GR
GS
[0.75 0 0 0.75 244.62499 211.61691] CT
0.494 0.184 0.557 RC
N
f-1057828618
f
GR
GS
[0.75 0 0 0.75 244.62499 212.30997] CT
0.494 0.184 0.557 RC
N
f-1057828618
f
GR
GS
[0.75 0 0 0.75 244.62499 212.90783] CT
0.494 0.184 0.557 RC
N
f-1057828618
f
GR
GS
[0.75 0 0 0.75 244.62499 213.42254] CT
0.494 0.184 0.557 RC
N
f-1057828618
f
GR
GS
[0.75 0 0 0.75 244.62499 213.86472] CT
0.494 0.184 0.557 RC
N
f-1057828618
f
GR
GS
[0.75 0 0 0.75 244.62499 214.24381] CT
0.494 0.184 0.557 RC
N
f-1057828618
f
GR
GS
[0.75 0 0 0.75 244.62499 214.56805] CT
0.494 0.184 0.557 RC
N
f-1057828618
f
GR
GS
[0.75 0 0 0.75 244.62499 214.84474] CT
0.494 0.184 0.557 RC
N
f-1057828618
f
GR
GS
[0.75 0 0 0.75 244.62499 215.08019] CT
0.494 0.184 0.557 RC
N
f-1057828618
f
GR
GS
[0.75 0 0 0.75 244.62499 215.28001] CT
0.494 0.184 0.557 RC
N
f-1057828618
f
GR
GS
[0.75 0 0 0.75 244.62499 215.44897] CT
0.494 0.184 0.557 RC
N
f-1057828618
f
GR
GS
[0.75 0 0 0.75 244.62499 215.59133] CT
0.494 0.184 0.557 RC
N
f-1057828618
f
GR
GS
[0.75 0 0 0.75 244.62499 215.71076] CT
0.494 0.184 0.557 RC
N
f-1057828618
f
GR
GS
[0.75 0 0 0.75 244.62499 215.81046] CT
0.494 0.184 0.557 RC
N
f-1057828618
f
GR
GS
[0.75 0 0 0.75 244.62499 215.8932] CT
0.494 0.184 0.557 RC
N
f-1057828618
f
GR
GS
[0.75 0 0 0.75 244.62499 215.96136] CT
0.494 0.184 0.557 RC
N
f-1057828618
f
GR
GS
[0.75 0 0 0.75 244.62499 216.01705] CT
0.494 0.184 0.557 RC
N
f-1057828618
f
GR
GS
[0.75 0 0 0.75 244.62499 216.06207] CT
0.494 0.184 0.557 RC
N
f-1057828618
f
GR
GS
[0.75 0 0 0.75 244.62499 216.09798] CT
0.494 0.184 0.557 RC
N
f-1057828618
f
GR
GS
[0.75 0 0 0.75 244.62499 216.12611] CT
0.494 0.184 0.557 RC
N
f-1057828618
f
GR
GS
[0.75 0 0 0.75 244.62499 216.1477] CT
0.494 0.184 0.557 RC
N
f-1057828618
f
GR
GS
[0.75 0 0 0.75 244.62499 216.16367] CT
0.494 0.184 0.557 RC
N
f-1057828618
f
GR
GS
[0.75 0 0 0.75 244.62499 216.17496] CT
0.494 0.184 0.557 RC
N
f-1057828618
f
GR
GS
[0.75 0 0 0.75 244.62499 216.18226] CT
0.494 0.184 0.557 RC
N
f-1057828618
f
GR
GS
[0.75 0 0 0.75 244.62499 216.18626] CT
0.494 0.184 0.557 RC
N
f-1057828618
f
GR
GS
[0.75 0 0 0.75 244.62499 216.1875] CT
0.494 0.184 0.557 RC
N
f-1057828618
f
GR
GS
[0.75 0 0 0.75 244.62499 216.1875] CT
0.467 0.675 0.188 RC
N
f-1057828618
f
GR
GS
[0.75 0 0 0.75 244.62499 216.1875] CT
0.467 0.675 0.188 RC
N
f-1057828618
f
GR
GS
[0.75 0 0 0.75 244.62531 216.1875] CT
0.467 0.675 0.188 RC
N
f-1057828618
f
GR
GS
[0.75 0 0 0.75 244.63369 216.1875] CT
0.467 0.675 0.188 RC
N
f-1057828618
f
GR
GS
[0.75 0 0 0.75 244.6897 216.1875] CT
0.467 0.675 0.188 RC
N
f-1057828618
f
GR
GS
[0.75 0 0 0.75 244.8734 216.1875] CT
0.467 0.675 0.188 RC
N
f-1057828618
f
GR
GS
[0.75 0 0 0.75 245.27671 216.1875] CT
0.467 0.675 0.188 RC
N
f-1057828618
f
GR
GS
[0.75 0 0 0.75 245.9677 216.1875] CT
0.467 0.675 0.188 RC
N
f-1057828618
f
GR
GS
[0.75 0 0 0.75 246.97318 216.1875] CT
0.467 0.675 0.188 RC
N
f-1057828618
f
GR
GS
[0.75 0 0 0.75 248.27989 216.1875] CT
0.467 0.675 0.188 RC
N
f-1057828618
f
GR
GS
[0.75 0 0 0.75 249.84549 216.1875] CT
0.467 0.675 0.188 RC
N
f-1057828618
f
GR
GS
[0.75 0 0 0.75 251.60724 216.1875] CT
0.467 0.675 0.188 RC
N
f-1057828618
f
GR
GS
[0.75 0 0 0.75 253.48141 216.1875] CT
0.467 0.675 0.188 RC
N
f-1057828618
f
GR
GS
[0.75 0 0 0.75 255.37674 216.1875] CT
0.467 0.675 0.188 RC
N
f-1057828618
f
GR
GS
[0.75 0 0 0.75 257.21651 216.1875] CT
0.467 0.675 0.188 RC
N
f-1057828618
f
GR
GS
[0.75 0 0 0.75 258.94821 216.1875] CT
0.467 0.675 0.188 RC
N
f-1057828618
f
GR
GS
[0.75 0 0 0.75 260.54201 216.1875] CT
0.467 0.675 0.188 RC
N
f-1057828618
f
GR
GS
[0.75 0 0 0.75 261.98527 216.1875] CT
0.467 0.675 0.188 RC
N
f-1057828618
f
GR
GS
[0.75 0 0 0.75 263.27689 216.1875] CT
0.467 0.675 0.188 RC
N
f-1057828618
f
GR
GS
[0.75 0 0 0.75 264.42288 216.1875] CT
0.467 0.675 0.188 RC
N
f-1057828618
f
GR
GS
[0.75 0 0 0.75 265.43303 216.1875] CT
0.467 0.675 0.188 RC
N
f-1057828618
f
GR
GS
[0.75 0 0 0.75 266.31903 216.1875] CT
0.467 0.675 0.188 RC
N
f-1057828618
f
GR
GS
[0.75 0 0 0.75 267.09304 216.1875] CT
0.467 0.675 0.188 RC
N
f-1057828618
f
GR
GS
[0.75 0 0 0.75 267.76707 216.1875] CT
0.467 0.675 0.188 RC
N
f-1057828618
f
GR
GS
[0.75 0 0 0.75 268.35242 216.1875] CT
0.467 0.675 0.188 RC
N
f-1057828618
f
GR
GS
[0.75 0 0 0.75 268.8595 216.1875] CT
0.467 0.675 0.188 RC
N
f-1057828618
f
GR
GS
[0.75 0 0 0.75 269.29786 216.1875] CT
0.467 0.675 0.188 RC
N
f-1057828618
f
GR
GS
[0.75 0 0 0.75 269.67599 216.1875] CT
0.467 0.675 0.188 RC
N
f-1057828618
f
GR
GS
[0.75 0 0 0.75 270.00153 216.1875] CT
0.467 0.675 0.188 RC
N
f-1057828618
f
GR
GS
[0.75 0 0 0.75 270.2812 216.1875] CT
0.467 0.675 0.188 RC
N
f-1057828618
f
GR
GS
[0.75 0 0 0.75 270.52094 216.1875] CT
0.467 0.675 0.188 RC
N
f-1057828618
f
GR
GS
[0.75 0 0 0.75 270.72601 216.1875] CT
0.467 0.675 0.188 RC
N
f-1057828618
f
GR
GS
[0.75 0 0 0.75 270.90099 216.1875] CT
0.467 0.675 0.188 RC
N
f-1057828618
f
GR
GS
[0.75 0 0 0.75 271.04988 216.1875] CT
0.467 0.675 0.188 RC
N
f-1057828618
f
GR
GS
[0.75 0 0 0.75 271.17625 216.1875] CT
0.467 0.675 0.188 RC
N
f-1057828618
f
GR
GS
[0.75 0 0 0.75 271.28309 216.1875] CT
0.467 0.675 0.188 RC
N
f-1057828618
f
GR
GS
[0.75 0 0 0.75 271.37311 216.1875] CT
0.467 0.675 0.188 RC
N
f-1057828618
f
GR
GS
[0.75 0 0 0.75 271.44864 216.1875] CT
0.467 0.675 0.188 RC
N
f-1057828618
f
GR
GS
[0.75 0 0 0.75 271.51167 216.1875] CT
0.467 0.675 0.188 RC
N
f-1057828618
f
GR
GS
[0.75 0 0 0.75 271.56397 216.1875] CT
0.467 0.675 0.188 RC
N
f-1057828618
f
GR
GS
[0.75 0 0 0.75 271.60707 216.1875] CT
0.467 0.675 0.188 RC
N
f-1057828618
f
GR
GS
[0.75 0 0 0.75 271.6423 216.1875] CT
0.467 0.675 0.188 RC
N
f-1057828618
f
GR
GS
[0.75 0 0 0.75 271.67075 216.1875] CT
0.467 0.675 0.188 RC
N
f-1057828618
f
GR
GS
[0.75 0 0 0.75 271.69345 216.1875] CT
0.467 0.675 0.188 RC
N
f-1057828618
f
GR
GS
[0.75 0 0 0.75 271.71124 216.1875] CT
0.467 0.675 0.188 RC
N
f-1057828618
f
GR
GS
[0.75 0 0 0.75 271.72485 216.1875] CT
0.467 0.675 0.188 RC
N
f-1057828618
f
GR
GS
[0.75 0 0 0.75 271.73497 216.1875] CT
0.467 0.675 0.188 RC
N
f-1057828618
f
GR
GS
[0.75 0 0 0.75 271.74209 216.1875] CT
0.467 0.675 0.188 RC
N
f-1057828618
f
GR
GS
[0.75 0 0 0.75 271.74671 216.1875] CT
0.467 0.675 0.188 RC
N
f-1057828618
f
GR
GS
[0.75 0 0 0.75 271.74923 216.1875] CT
0.467 0.675 0.188 RC
N
f-1057828618
f
GR
GS
[0.75 0 0 0.75 271.75001 216.1875] CT
0.467 0.675 0.188 RC
N
f-1057828618
f
GR
GS
[0.75 0 0 0.75 0 0] CT
0.302 0.745 0.933 RC
[10 6] 0 setdash
2 LJ
0.667 LW
N
362.333 288.25 M
362.333 288.25 L
362.334 288.25 L
362.351 288.25 L
362.463 288.25 L
362.83 288.25 L
363.636 288.25 L
365.018 288.25 L
367.028 288.25 L
369.641 288.25 L
372.771 288.25 L
376.294 288.25 L
380.042 288.25 L
383.832 288.25 L
387.512 288.25 L
390.975 288.25 L
394.163 288.25 L
397.049 288.25 L
399.633 288.25 L
401.925 288.25 L
403.946 288.25 L
405.718 288.25 L
407.266 288.25 L
408.615 288.25 L
409.786 288.25 L
410.8 288.25 L
411.677 288.25 L
412.434 288.25 L
413.085 288.25 L
413.644 288.25 L
414.124 288.25 L
414.534 288.25 L
414.884 288.25 L
415.182 288.25 L
415.435 288.25 L
415.649 288.25 L
415.829 288.25 L
415.98 288.25 L
416.106 288.25 L
416.211 288.25 L
416.297 288.25 L
416.368 288.25 L
416.425 288.25 L
416.47 288.25 L
416.506 288.25 L
416.533 288.25 L
416.553 288.25 L
416.567 288.25 L
416.577 288.25 L
416.582 288.25 L
416.583 288.25 L
S
GR
GS
[0.75 0 0 0.75 312.43751 216.1875] CT
0.635 0.078 0.184 RC
N
f-1057828618
f
GR
GS
[0.75 0 0 0.75 312.43751 216.1875] CT
0.635 0.078 0.184 RC
N
f-1057828618
f
GR
GS
[0.75 0 0 0.75 312.43751 216.18727] CT
0.635 0.078 0.184 RC
N
f-1057828618
f
GR
GS
[0.75 0 0 0.75 312.43751 216.18063] CT
0.635 0.078 0.184 RC
N
f-1057828618
f
GR
GS
[0.75 0 0 0.75 312.43751 216.13637] CT
0.635 0.078 0.184 RC
N
f-1057828618
f
GR
GS
[0.75 0 0 0.75 312.43751 215.99119] CT
0.635 0.078 0.184 RC
N
f-1057828618
f
GR
GS
[0.75 0 0 0.75 312.43751 215.67242] CT
0.635 0.078 0.184 RC
N
f-1057828618
f
GR
GS
[0.75 0 0 0.75 312.43751 215.12634] CT
0.635 0.078 0.184 RC
N
f-1057828618
f
GR
GS
[0.75 0 0 0.75 312.43751 214.33168] CT
0.635 0.078 0.184 RC
N
f-1057828618
f
GR
GS
[0.75 0 0 0.75 312.43751 213.29894] CT
0.635 0.078 0.184 RC
N
f-1057828618
f
GR
GS
[0.75 0 0 0.75 312.43751 212.06163] CT
0.635 0.078 0.184 RC
N
f-1057828618
f
GR
GS
[0.75 0 0 0.75 312.43751 210.66927] CT
0.635 0.078 0.184 RC
N
f-1057828618
f
GR
GS
[0.75 0 0 0.75 312.43751 209.18809] CT
0.635 0.078 0.184 RC
N
f-1057828618
f
GR
GS
[0.75 0 0 0.75 312.43751 207.69017] CT
0.635 0.078 0.184 RC
N
f-1057828618
f
GR
GS
[0.75 0 0 0.75 312.43751 206.23613] CT
0.635 0.078 0.184 RC
N
f-1057828618
f
GR
GS
[0.75 0 0 0.75 312.43751 204.86753] CT
0.635 0.078 0.184 RC
N
f-1057828618
f
GR
GS
[0.75 0 0 0.75 312.43751 203.60793] CT
0.635 0.078 0.184 RC
N
f-1057828618
f
GR
GS
[0.75 0 0 0.75 312.43751 202.46729] CT
0.635 0.078 0.184 RC
N
f-1057828618
f
GR
GS
[0.75 0 0 0.75 312.43751 201.44648] CT
0.635 0.078 0.184 RC
N
f-1057828618
f
GR
GS
[0.75 0 0 0.75 312.43751 200.54079] CT
0.635 0.078 0.184 RC
N
f-1057828618
f
GR
GS
[0.75 0 0 0.75 312.43751 199.74243] CT
0.635 0.078 0.184 RC
N
f-1057828618
f
GR
GS
[0.75 0 0 0.75 312.43751 199.04221] CT
0.635 0.078 0.184 RC
N
f-1057828618
f
GR
GS
[0.75 0 0 0.75 312.43751 198.4305] CT
0.635 0.078 0.184 RC
N
f-1057828618
f
GR
GS
[0.75 0 0 0.75 312.43751 197.8978] CT
0.635 0.078 0.184 RC
N
f-1057828618
f
GR
GS
[0.75 0 0 0.75 312.43751 197.43519] CT
0.635 0.078 0.184 RC
N
f-1057828618
f
GR
GS
[0.75 0 0 0.75 312.43751 197.03442] CT
0.635 0.078 0.184 RC
N
f-1057828618
f
GR
GS
[0.75 0 0 0.75 312.43751 196.68798] CT
0.635 0.078 0.184 RC
N
f-1057828618
f
GR
GS
[0.75 0 0 0.75 312.43751 196.38913] CT
0.635 0.078 0.184 RC
N
f-1057828618
f
GR
GS
[0.75 0 0 0.75 312.43751 196.13184] CT
0.635 0.078 0.184 RC
N
f-1057828618
f
GR
GS
[0.75 0 0 0.75 312.43751 195.91084] CT
0.635 0.078 0.184 RC
N
f-1057828618
f
GR
GS
[0.75 0 0 0.75 312.43751 195.72134] CT
0.635 0.078 0.184 RC
N
f-1057828618
f
GR
GS
[0.75 0 0 0.75 312.43751 195.55927] CT
0.635 0.078 0.184 RC
N
f-1057828618
f
GR
GS
[0.75 0 0 0.75 312.43751 195.42101] CT
0.635 0.078 0.184 RC
N
f-1057828618
f
GR
GS
[0.75 0 0 0.75 312.43751 195.30331] CT
0.635 0.078 0.184 RC
N
f-1057828618
f
GR
GS
[0.75 0 0 0.75 312.43751 195.20345] CT
0.635 0.078 0.184 RC
N
f-1057828618
f
GR
GS
[0.75 0 0 0.75 312.43751 195.11902] CT
0.635 0.078 0.184 RC
N
f-1057828618
f
GR
GS
[0.75 0 0 0.75 312.43751 195.04786] CT
0.635 0.078 0.184 RC
N
f-1057828618
f
GR
GS
[0.75 0 0 0.75 312.43751 194.98817] CT
0.635 0.078 0.184 RC
N
f-1057828618
f
GR
GS
[0.75 0 0 0.75 312.43751 194.93836] CT
0.635 0.078 0.184 RC
N
f-1057828618
f
GR
GS
[0.75 0 0 0.75 312.43751 194.89703] CT
0.635 0.078 0.184 RC
N
f-1057828618
f
GR
GS
[0.75 0 0 0.75 312.43751 194.86295] CT
0.635 0.078 0.184 RC
N
f-1057828618
f
GR
GS
[0.75 0 0 0.75 312.43751 194.83514] CT
0.635 0.078 0.184 RC
N
f-1057828618
f
GR
GS
[0.75 0 0 0.75 312.43751 194.81264] CT
0.635 0.078 0.184 RC
N
f-1057828618
f
GR
GS
[0.75 0 0 0.75 312.43751 194.79469] CT
0.635 0.078 0.184 RC
N
f-1057828618
f
GR
GS
[0.75 0 0 0.75 312.43751 194.78064] CT
0.635 0.078 0.184 RC
N
f-1057828618
f
GR
GS
[0.75 0 0 0.75 312.43751 194.76986] CT
0.635 0.078 0.184 RC
N
f-1057828618
f
GR
GS
[0.75 0 0 0.75 312.43751 194.76189] CT
0.635 0.078 0.184 RC
N
f-1057828618
f
GR
GS
[0.75 0 0 0.75 312.43751 194.75626] CT
0.635 0.078 0.184 RC
N
f-1057828618
f
GR
GS
[0.75 0 0 0.75 312.43751 194.7526] CT
0.635 0.078 0.184 RC
N
f-1057828618
f
GR
GS
[0.75 0 0 0.75 312.43751 194.75061] CT
0.635 0.078 0.184 RC
N
f-1057828618
f
GR
GS
[0.75 0 0 0.75 312.43751 194.74999] CT
0.635 0.078 0.184 RC
N
f-1057828618
f
GR
GS
[0.75 0 0 0.75 312.43751 194.74999] CT
0 0.447 0.741 RC
N
f-1057828618
f
GR
GS
[0.75 0 0 0.75 312.43751 194.74999] CT
0 0.447 0.741 RC
N
f-1057828618
f
GR
GS
[0.75 0 0 0.75 312.43735 194.74976] CT
0 0.447 0.741 RC
N
f-1057828618
f
GR
GS
[0.75 0 0 0.75 312.43316 194.74313] CT
0 0.447 0.741 RC
N
f-1057828618
f
GR
GS
[0.75 0 0 0.75 312.40517 194.69891] CT
0 0.447 0.741 RC
N
f-1057828618
f
GR
GS
[0.75 0 0 0.75 312.31336 194.55377] CT
0 0.447 0.741 RC
N
f-1057828618
f
GR
GS
[0.75 0 0 0.75 312.11179 194.23517] CT
0 0.447 0.741 RC
N
f-1057828618
f
GR
GS
[0.75 0 0 0.75 311.76643 193.68929] CT
0 0.447 0.741 RC
N
f-1057828618
f
GR
GS
[0.75 0 0 0.75 311.26385 192.89488] CT
0 0.447 0.741 RC
N
f-1057828618
f
GR
GS
[0.75 0 0 0.75 310.61066 191.86242] CT
0 0.447 0.741 RC
N
f-1057828618
f
GR
GS
[0.75 0 0 0.75 309.82805 190.62538] CT
0 0.447 0.741 RC
N
f-1057828618
f
GR
GS
[0.75 0 0 0.75 308.94733 189.23328] CT
0 0.447 0.741 RC
N
f-1057828618
f
GR
GS
[0.75 0 0 0.75 308.01036 187.75229] CT
0 0.447 0.741 RC
N
f-1057828618
f
GR
GS
[0.75 0 0 0.75 307.06279 186.25448] CT
0 0.447 0.741 RC
N
f-1057828618
f
GR
GS
[0.75 0 0 0.75 306.14291 184.80051] CT
0 0.447 0.741 RC
N
f-1057828618
f
GR
GS
[0.75 0 0 0.75 305.27708 183.4319] CT
0 0.447 0.741 RC
N
f-1057828618
f
GR
GS
[0.75 0 0 0.75 304.48016 182.17225] CT
0 0.447 0.741 RC
N
f-1057828618
f
GR
GS
[0.75 0 0 0.75 303.75847 181.03152] CT
0 0.447 0.741 RC
N
f-1057828618
f
GR
GS
[0.75 0 0 0.75 303.11259 180.01061] CT
0 0.447 0.741 RC
N
f-1057828618
f
GR
GS
[0.75 0 0 0.75 302.53951 179.10481] CT
0 0.447 0.741 RC
N
f-1057828618
f
GR
GS
[0.75 0 0 0.75 302.03437 178.30635] CT
0 0.447 0.741 RC
N
f-1057828618
f
GR
GS
[0.75 0 0 0.75 301.5913 177.60602] CT
0 0.447 0.741 RC
N
f-1057828618
f
GR
GS
[0.75 0 0 0.75 301.20424 176.99419] CT
0 0.447 0.741 RC
N
f-1057828618
f
GR
GS
[0.75 0 0 0.75 300.86714 176.46138] CT
0 0.447 0.741 RC
N
f-1057828618
f
GR
GS
[0.75 0 0 0.75 300.5744 175.99866] CT
0 0.447 0.741 RC
N
f-1057828618
f
GR
GS
[0.75 0 0 0.75 300.3208 175.5978] CT
0 0.447 0.741 RC
N
f-1057828618
f
GR
GS
[0.75 0 0 0.75 300.10158 175.25126] CT
0 0.447 0.741 RC
N
f-1057828618
f
GR
GS
[0.75 0 0 0.75 299.91245 174.95233] CT
0 0.447 0.741 RC
N
f-1057828618
f
GR
GS
[0.75 0 0 0.75 299.74963 174.69498] CT
0 0.447 0.741 RC
N
f-1057828618
f
GR
GS
[0.75 0 0 0.75 299.60976 174.47389] CT
0 0.447 0.741 RC
N
f-1057828618
f
GR
GS
[0.75 0 0 0.75 299.48985 174.28435] CT
0 0.447 0.741 RC
N
f-1057828618
f
GR
GS
[0.75 0 0 0.75 299.38726 174.12222] CT
0 0.447 0.741 RC
N
f-1057828618
f
GR
GS
[0.75 0 0 0.75 299.29976 173.98389] CT
0 0.447 0.741 RC
N
f-1057828618
f
GR
GS
[0.75 0 0 0.75 299.22528 173.86615] CT
0 0.447 0.741 RC
N
f-1057828618
f
GR
GS
[0.75 0 0 0.75 299.16206 173.76625] CT
0 0.447 0.741 RC
N
f-1057828618
f
GR
GS
[0.75 0 0 0.75 299.10862 173.68176] CT
0 0.447 0.741 RC
N
f-1057828618
f
GR
GS
[0.75 0 0 0.75 299.06358 173.61058] CT
0 0.447 0.741 RC
N
f-1057828618
f
GR
GS
[0.75 0 0 0.75 299.02581 173.55087] CT
0 0.447 0.741 RC
N
f-1057828618
f
GR
GS
[0.75 0 0 0.75 298.99427 173.50101] CT
0 0.447 0.741 RC
N
f-1057828618
f
GR
GS
[0.75 0 0 0.75 298.96809 173.45966] CT
0 0.447 0.741 RC
N
f-1057828618
f
GR
GS
[0.75 0 0 0.75 298.94655 173.42556] CT
0 0.447 0.741 RC
N
f-1057828618
f
GR
GS
[0.75 0 0 0.75 298.92892 173.39773] CT
0 0.447 0.741 RC
N
f-1057828618
f
GR
GS
[0.75 0 0 0.75 298.91469 173.37522] CT
0 0.447 0.741 RC
N
f-1057828618
f
GR
GS
[0.75 0 0 0.75 298.90331 173.35727] CT
0 0.447 0.741 RC
N
f-1057828618
f
GR
GS
[0.75 0 0 0.75 298.89441 173.34319] CT
0 0.447 0.741 RC
N
f-1057828618
f
GR
GS
[0.75 0 0 0.75 298.88759 173.33241] CT
0 0.447 0.741 RC
N
f-1057828618
f
GR
GS
[0.75 0 0 0.75 298.88253 173.32441] CT
0 0.447 0.741 RC
N
f-1057828618
f
GR
GS
[0.75 0 0 0.75 298.87898 173.31878] CT
0 0.447 0.741 RC
N
f-1057828618
f
GR
GS
[0.75 0 0 0.75 298.87665 173.31512] CT
0 0.447 0.741 RC
N
f-1057828618
f
GR
GS
[0.75 0 0 0.75 298.87539 173.31311] CT
0 0.447 0.741 RC
N
f-1057828618
f
GR
GS
[0.75 0 0 0.75 298.875 173.3125] CT
0 0.447 0.741 RC
N
f-1057828618
f
GR
GS
[0.75 0 0 0.75 0 0] CT
0.851 0.325 0.098 RC
[10 6] 0 setdash
2 LJ
0.667 LW
N
398.5 231.083 M
398.5 231.083 L
398.5 231.083 L
398.512 231.083 L
398.586 231.083 L
398.831 231.083 L
399.369 231.083 L
400.29 231.083 L
401.631 231.083 L
403.373 231.083 L
405.461 231.083 L
407.81 231.083 L
410.309 231.083 L
412.836 231.083 L
415.289 231.083 L
417.598 231.083 L
419.723 231.083 L
421.647 231.083 L
423.369 231.083 L
424.897 231.083 L
426.244 231.083 L
427.425 231.083 L
428.457 231.083 L
429.356 231.083 L
430.137 231.083 L
430.813 231.083 L
431.397 231.083 L
431.901 231.083 L
432.335 231.083 L
432.708 231.083 L
433.028 231.083 L
433.301 231.083 L
433.535 231.083 L
433.733 231.083 L
433.902 231.083 L
434.044 231.083 L
434.164 231.083 L
434.265 231.083 L
434.349 231.083 L
434.419 231.083 L
434.476 231.083 L
434.523 231.083 L
434.561 231.083 L
434.591 231.083 L
434.615 231.083 L
434.633 231.083 L
434.647 231.083 L
434.656 231.083 L
434.662 231.083 L
434.666 231.083 L
434.667 231.083 L
S
GR
GS
[0.75 0 0 0.75 325.99999 173.3125] CT
0.929 0.694 0.125 RC
N
f-1057828618
f
GR
GS
[0.75 0 0 0.75 325.99999 173.3125] CT
0.929 0.694 0.125 RC
N
f-1057828618
f
GR
GS
[0.75 0 0 0.75 325.99986 173.31274] CT
0.929 0.694 0.125 RC
N
f-1057828618
f
GR
GS
[0.75 0 0 0.75 325.99567 173.31936] CT
0.929 0.694 0.125 RC
N
f-1057828618
f
GR
GS
[0.75 0 0 0.75 325.96767 173.36361] CT
0.929 0.694 0.125 RC
N
f-1057828618
f
GR
GS
[0.75 0 0 0.75 325.87585 173.50872] CT
0.929 0.694 0.125 RC
N
f-1057828618
f
GR
GS
[0.75 0 0 0.75 325.67429 173.82732] CT
0.929 0.694 0.125 RC
N
f-1057828618
f
GR
GS
[0.75 0 0 0.75 325.32893 174.37323] CT
0.929 0.694 0.125 RC
N
f-1057828618
f
GR
GS
[0.75 0 0 0.75 324.82635 175.16763] CT
0.929 0.694 0.125 RC
N
f-1057828618
f
GR
GS
[0.75 0 0 0.75 324.17317 176.20008] CT
0.929 0.694 0.125 RC
N
f-1057828618
f
GR
GS
[0.75 0 0 0.75 323.39053 177.43713] CT
0.929 0.694 0.125 RC
N
f-1057828618
f
GR
GS
[0.75 0 0 0.75 322.50982 178.82922] CT
0.929 0.694 0.125 RC
N
f-1057828618
f
GR
GS
[0.75 0 0 0.75 321.57287 180.31021] CT
0.929 0.694 0.125 RC
N
f-1057828618
f
GR
GS
[0.75 0 0 0.75 320.6253 181.80802] CT
0.929 0.694 0.125 RC
N
f-1057828618
f
GR
GS
[0.75 0 0 0.75 319.70542 183.26199] CT
0.929 0.694 0.125 RC
N
f-1057828618
f
GR
GS
[0.75 0 0 0.75 318.83956 184.6306] CT
0.929 0.694 0.125 RC
N
f-1057828618
f
GR
GS
[0.75 0 0 0.75 318.04264 185.89025] CT
0.929 0.694 0.125 RC
N
f-1057828618
f
GR
GS
[0.75 0 0 0.75 317.32095 187.03098] CT
0.929 0.694 0.125 RC
N
f-1057828618
f
GR
GS
[0.75 0 0 0.75 316.67509 188.05189] CT
0.929 0.694 0.125 RC
N
f-1057828618
f
GR
GS
[0.75 0 0 0.75 316.10202 188.95769] CT
0.929 0.694 0.125 RC
N
f-1057828618
f
GR
GS
[0.75 0 0 0.75 315.59688 189.75615] CT
0.929 0.694 0.125 RC
N
f-1057828618
f
GR
GS
[0.75 0 0 0.75 315.15381 190.45648] CT
0.929 0.694 0.125 RC
N
f-1057828618
f
GR
GS
[0.75 0 0 0.75 314.76672 191.06831] CT
0.929 0.694 0.125 RC
N
f-1057828618
f
GR
GS
[0.75 0 0 0.75 314.42965 191.60112] CT
0.929 0.694 0.125 RC
N
f-1057828618
f
GR
GS
[0.75 0 0 0.75 314.13691 192.06384] CT
0.929 0.694 0.125 RC
N
f-1057828618
f
GR
GS
[0.75 0 0 0.75 313.88331 192.4647] CT
0.929 0.694 0.125 RC
N
f-1057828618
f
GR
GS
[0.75 0 0 0.75 313.66406 192.81123] CT
0.929 0.694 0.125 RC
N
f-1057828618
f
GR
GS
[0.75 0 0 0.75 313.47494 193.11017] CT
0.929 0.694 0.125 RC
N
f-1057828618
f
GR
GS
[0.75 0 0 0.75 313.31213 193.36752] CT
0.929 0.694 0.125 RC
N
f-1057828618
f
GR
GS
[0.75 0 0 0.75 313.17226 193.58862] CT
0.929 0.694 0.125 RC
N
f-1057828618
f
GR
GS
[0.75 0 0 0.75 313.05235 193.77816] CT
0.929 0.694 0.125 RC
N
f-1057828618
f
GR
GS
[0.75 0 0 0.75 312.94977 193.94028] CT
0.929 0.694 0.125 RC
N
f-1057828618
f
GR
GS
[0.75 0 0 0.75 312.86224 194.07861] CT
0.929 0.694 0.125 RC
N
f-1057828618
f
GR
GS
[0.75 0 0 0.75 312.78777 194.19635] CT
0.929 0.694 0.125 RC
N
f-1057828618
f
GR
GS
[0.75 0 0 0.75 312.72457 194.29626] CT
0.929 0.694 0.125 RC
N
f-1057828618
f
GR
GS
[0.75 0 0 0.75 312.6711 194.38074] CT
0.929 0.694 0.125 RC
N
f-1057828618
f
GR
GS
[0.75 0 0 0.75 312.62608 194.45192] CT
0.929 0.694 0.125 RC
N
f-1057828618
f
GR
GS
[0.75 0 0 0.75 312.58829 194.51163] CT
0.929 0.694 0.125 RC
N
f-1057828618
f
GR
GS
[0.75 0 0 0.75 312.55678 194.56149] CT
0.929 0.694 0.125 RC
N
f-1057828618
f
GR
GS
[0.75 0 0 0.75 312.53059 194.60284] CT
0.929 0.694 0.125 RC
N
f-1057828618
f
GR
GS
[0.75 0 0 0.75 312.50903 194.63692] CT
0.929 0.694 0.125 RC
N
f-1057828618
f
GR
GS
[0.75 0 0 0.75 312.49141 194.66478] CT
0.929 0.694 0.125 RC
N
f-1057828618
f
GR
GS
[0.75 0 0 0.75 312.47717 194.68728] CT
0.929 0.694 0.125 RC
N
f-1057828618
f
GR
GS
[0.75 0 0 0.75 312.46582 194.70525] CT
0.929 0.694 0.125 RC
N
f-1057828618
f
GR
GS
[0.75 0 0 0.75 312.45692 194.71932] CT
0.929 0.694 0.125 RC
N
f-1057828618
f
GR
GS
[0.75 0 0 0.75 312.4501 194.7301] CT
0.929 0.694 0.125 RC
N
f-1057828618
f
GR
GS
[0.75 0 0 0.75 312.44504 194.73809] CT
0.929 0.694 0.125 RC
N
f-1057828618
f
GR
GS
[0.75 0 0 0.75 312.44147 194.74372] CT
0.929 0.694 0.125 RC
N
f-1057828618
f
GR
GS
[0.75 0 0 0.75 312.43916 194.74738] CT
0.929 0.694 0.125 RC
N
f-1057828618
f
GR
GS
[0.75 0 0 0.75 312.4379 194.74937] CT
0.929 0.694 0.125 RC
N
f-1057828618
f
GR
GS
[0.75 0 0 0.75 312.43751 194.74999] CT
0.929 0.694 0.125 RC
N
f-1057828618
f
GR
%%Trailer
%%Pages: 1
%%EOF
