\headcommand {\slideentry {0}{0}{1}{1/1}{}{0}}
\headcommand {\beamer@framepages {1}{1}}
\headcommand {\beamer@sectionpages {1}{1}}
\headcommand {\beamer@subsectionpages {1}{1}}
\headcommand {\sectionentry {1}{Contexte}{2}{Contexte}{0}}
\headcommand {\slideentry {1}{0}{1}{2/2}{}{0}}
\headcommand {\beamer@framepages {2}{2}}
\headcommand {\slideentry {1}{0}{2}{3/3}{}{0}}
\headcommand {\beamer@framepages {3}{3}}
\headcommand {\beamer@sectionpages {2}{3}}
\headcommand {\beamer@subsectionpages {2}{3}}
\headcommand {\sectionentry {2}{Mod\IeC {\'e}lisation}{4}{Mod\IeC {\'e}lisation}{0}}
\headcommand {\slideentry {2}{0}{1}{4/4}{}{0}}
\headcommand {\beamer@framepages {4}{4}}
\headcommand {\slideentry {2}{0}{2}{5/5}{}{0}}
\headcommand {\beamer@framepages {5}{5}}
\headcommand {\slideentry {2}{0}{3}{6/6}{}{0}}
\headcommand {\beamer@framepages {6}{6}}
\headcommand {\slideentry {2}{0}{4}{7/7}{}{0}}
\headcommand {\beamer@framepages {7}{7}}
\headcommand {\beamer@sectionpages {4}{7}}
\headcommand {\beamer@subsectionpages {4}{7}}
\headcommand {\sectionentry {3}{Analyse du syst\IeC {\`e}me}{8}{Analyse du syst\IeC {\`e}me}{0}}
\headcommand {\slideentry {3}{0}{1}{8/8}{}{0}}
\headcommand {\beamer@framepages {8}{8}}
\headcommand {\slideentry {3}{0}{2}{9/9}{}{0}}
\headcommand {\beamer@framepages {9}{9}}
\headcommand {\slideentry {3}{0}{3}{10/10}{}{0}}
\headcommand {\beamer@framepages {10}{10}}
\headcommand {\beamer@sectionpages {8}{10}}
\headcommand {\beamer@subsectionpages {8}{10}}
\headcommand {\sectionentry {4}{Synth\IeC {\`e}se du contr\IeC {\^o}leur}{11}{Synth\IeC {\`e}se du contr\IeC {\^o}leur}{0}}
\headcommand {\slideentry {4}{0}{1}{11/11}{}{0}}
\headcommand {\beamer@framepages {11}{11}}
\headcommand {\slideentry {4}{0}{2}{12/12}{}{0}}
\headcommand {\beamer@framepages {12}{12}}
\headcommand {\slideentry {4}{0}{3}{13/13}{}{0}}
\headcommand {\beamer@framepages {13}{13}}
\headcommand {\beamer@sectionpages {11}{13}}
\headcommand {\beamer@subsectionpages {11}{13}}
\headcommand {\sectionentry {5}{Validation}{14}{Validation}{0}}
\headcommand {\slideentry {5}{0}{1}{14/14}{}{0}}
\headcommand {\beamer@framepages {14}{14}}
\headcommand {\slideentry {5}{0}{2}{15/15}{}{0}}
\headcommand {\beamer@framepages {15}{15}}
\headcommand {\slideentry {5}{0}{3}{16/16}{}{0}}
\headcommand {\beamer@framepages {16}{16}}
\headcommand {\beamer@sectionpages {14}{16}}
\headcommand {\beamer@subsectionpages {14}{16}}
\headcommand {\sectionentry {6}{Robustesse}{17}{Robustesse}{0}}
\headcommand {\slideentry {6}{0}{1}{17/17}{}{0}}
\headcommand {\beamer@framepages {17}{17}}
\headcommand {\beamer@sectionpages {17}{17}}
\headcommand {\beamer@subsectionpages {17}{17}}
\headcommand {\sectionentry {7}{Conclusion}{18}{Conclusion}{0}}
\headcommand {\slideentry {7}{0}{1}{18/18}{}{0}}
\headcommand {\beamer@framepages {18}{18}}
\headcommand {\beamer@partpages {1}{19}}
\headcommand {\beamer@subsectionpages {18}{19}}
\headcommand {\beamer@sectionpages {18}{19}}
\headcommand {\beamer@documentpages {19}}
\headcommand {\gdef \inserttotalframenumber {18}}
